{
  "credit": "Made with Blockbench",
  "texture_size": [
    64,
    64
  ],
  "elements": [
    {
      "from": [
        8,
        0,
        7
      ],
      "to": [
        8,
        15,
        9
      ],
      "faces": {
        "north": {
          "uv": [
            0,
            0,
            0,
            3.75
          ],
          "texture": "#0"
        },
        "east": {
          "uv": [
            4,
            4,
            4.5,
            7.75
          ],
          "texture": "#0"
        },
        "south": {
          "uv": [
            0,
            0,
            0,
            3.75
          ],
          "texture": "#0"
        },
        "west": {
          "uv": [
            4.5,
            4,
            5,
            7.75
          ],
          "texture": "#0"
        },
        "up": {
          "uv": [
            0,
            0.5,
            0,
            0
          ],
          "texture": "#0"
        },
        "down": {
          "uv": [
            0,
            0,
            0,
            0.5
          ],
          "texture": "#0"
        }
      }
    },
    {
      "from": [
        7,
        0,
        8
      ],
      "to": [
        9,
        15,
        8
      ],
      "faces": {
        "north": {
          "uv": [
            5,
            4,
            5.5,
            7.75
          ],
          "texture": "#0"
        },
        "east": {
          "uv": [
            0,
            0,
            0,
            3.75
          ],
          "texture": "#0"
        },
        "south": {
          "uv": [
            0,
            5.5,
            0.5,
            9.25
          ],
          "texture": "#0"
        },
        "west": {
          "uv": [
            0,
            0,
            0,
            3.75
          ],
          "texture": "#0"
        },
        "up": {
          "uv": [
            0.5,
            0,
            0,
            0
          ],
          "texture": "#0"
        },
        "down": {
          "uv": [
            0.5,
            0,
            0,
            0
          ],
          "texture": "#0"
        }
      }
    },
    {
      "from": [
        4,
        15,
        4
      ],
      "to": [
        12,
        26,
        12
      ],
      "faces": {
        "north": {
          "uv": [
            0,
            0,
            2,
            2.75
          ],
          "texture": "#0"
        },
        "east": {
          "uv": [
            2,
            0,
            4,
            2.75
          ],
          "texture": "#0"
        },
        "south": {
          "uv": [
            0,
            2.75,
            2,
            5.5
          ],
          "texture": "#0"
        },
        "west": {
          "uv": [
            2,
            2.75,
            4,
            5.5
          ],
          "texture": "#0"
        },
        "up": {
          "uv": [
            6,
            2,
            4,
            0
          ],
          "texture": "#0"
        },
        "down": {
          "uv": [
            6,
            2,
            4,
            4
          ],
          "texture": "#0"
        }
      }
    }
  ],
  "display": {
    "thirdperson_righthand": {
      "rotation": [
        68,
        0,
        0
      ],
      "translation": [
        -0.25,
        3.25,
        7
      ]
    },
    "thirdperson_lefthand": {
      "rotation": [
        68,
        0,
        0
      ],
      "translation": [
        -0.25,
        3.25,
        7
      ]
    },
    "ground": {
      "translation": [
        0,
        1,
        0
      ],
      "scale": [
        0.45508,
        0.45508,
        0.45508
      ]
    },
    "gui": {
      "translation": [
        0,
        -3,
        0
      ],
      "scale": [
        0.58008,
        0.58008,
        0.58008
      ]
    },
    "head": {
      "translation": [
        0,
        14.5,
        0
      ],
      "scale": [
        1.33984,
        1.33984,
        1.33984
      ]
    },
    "fixed": {
      "translation": [
        0,
        -3.25,
        -0.1
      ],
      "scale": [
        0.66211,
        0.66211,
        0.66211
      ]
    }
  }
}