{
  "credit": "Made with Blockbench",
  "ambientocclusion": false,
  "elements": [
    {
      "from": [
        5,
        0,
        5
      ],
      "to": [
        6,
        6,
        11
      ],
      "faces": {
        "north": {
          "uv": [
            10,
            10,
            11,
            16
          ],
          "texture": "#flowerpot"
        },
        "east": {
          "uv": [
            5,
            10,
            11,
            16
          ],
          "texture": "#flowerpot"
        },
        "south": {
          "uv": [
            5,
            10,
            6,
            16
          ],
          "texture": "#flowerpot"
        },
        "west": {
          "uv": [
            5,
            10,
            11,
            16
          ],
          "texture": "#flowerpot"
        },
        "up": {
          "uv": [
            5,
            5,
            6,
            11
          ],
          "texture": "#flowerpot"
        },
        "down": {
          "uv": [
            5,
            5,
            6,
            11
          ],
          "texture": "#flowerpot",
          "cullface": "down"
        }
      }
    },
    {
      "from": [
        10,
        0,
        5
      ],
      "to": [
        11,
        6,
        11
      ],
      "faces": {
        "north": {
          "uv": [
            5,
            10,
            6,
            16
          ],
          "texture": "#flowerpot"
        },
        "east": {
          "uv": [
            5,
            10,
            11,
            16
          ],
          "texture": "#flowerpot"
        },
        "south": {
          "uv": [
            10,
            10,
            11,
            16
          ],
          "texture": "#flowerpot"
        },
        "west": {
          "uv": [
            5,
            10,
            11,
            16
          ],
          "texture": "#flowerpot"
        },
        "up": {
          "uv": [
            10,
            5,
            11,
            11
          ],
          "texture": "#flowerpot"
        },
        "down": {
          "uv": [
            10,
            5,
            11,
            11
          ],
          "texture": "#flowerpot",
          "cullface": "down"
        }
      }
    },
    {
      "from": [
        6,
        0,
        5
      ],
      "to": [
        10,
        6,
        6
      ],
      "faces": {
        "north": {
          "uv": [
            6,
            10,
            10,
            16
          ],
          "texture": "#flowerpot"
        },
        "south": {
          "uv": [
            6,
            10,
            10,
            16
          ],
          "texture": "#flowerpot"
        },
        "up": {
          "uv": [
            6,
            5,
            10,
            6
          ],
          "texture": "#flowerpot"
        },
        "down": {
          "uv": [
            6,
            10,
            10,
            11
          ],
          "texture": "#flowerpot",
          "cullface": "down"
        }
      }
    },
    {
      "from": [
        6,
        0,
        10
      ],
      "to": [
        10,
        6,
        11
      ],
      "faces": {
        "north": {
          "uv": [
            6,
            10,
            10,
            16
          ],
          "texture": "#flowerpot"
        },
        "south": {
          "uv": [
            6,
            10,
            10,
            16
          ],
          "texture": "#flowerpot"
        },
        "up": {
          "uv": [
            6,
            10,
            10,
            11
          ],
          "texture": "#flowerpot"
        },
        "down": {
          "uv": [
            6,
            5,
            10,
            6
          ],
          "texture": "#flowerpot",
          "cullface": "down"
        }
      }
    },
    {
      "from": [
        6,
        3,
        6
      ],
      "to": [
        10,
        22,
        10
      ],
      "faces": {
        "north": {
          "uv": [
            0,
            0,
            4,
            16
          ],
          "texture": "#2"
        },
        "east": {
          "uv": [
            0,
            0,
            4,
            16
          ],
          "texture": "#2"
        },
        "south": {
          "uv": [
            0,
            0,
            4,
            16
          ],
          "texture": "#2"
        },
        "west": {
          "uv": [
            0,
            0,
            4,
            16
          ],
          "texture": "#2"
        },
        "down": {
          "uv": [
            0,
            0,
            4,
            4
          ],
          "texture": "#2"
        }
      }
    },
    {
      "from": [
        6,
        22,
        6
      ],
      "to": [
        10,
        28,
        10
      ],
      "faces": {
        "north": {
          "uv": [
            4,
            0,
            8,
            6
          ],
          "texture": "#2"
        },
        "east": {
          "uv": [
            4,
            0,
            8,
            6
          ],
          "texture": "#2"
        },
        "south": {
          "uv": [
            4,
            0,
            8,
            6
          ],
          "texture": "#2"
        },
        "west": {
          "uv": [
            4,
            0,
            8,
            6
          ],
          "texture": "#2"
        },
        "up": {
          "uv": [
            4,
            0,
            8,
            4
          ],
          "texture": "#2"
        }
      }
    },
    {
      "from": [
        2,
        28,
        6
      ],
      "to": [
        14,
        32,
        10
      ],
      "faces": {
        "north": {
          "uv": [
            4,
            0,
            16,
            4
          ],
          "texture": "#3"
        },
        "east": {
          "uv": [
            4,
            0,
            8,
            4
          ],
          "texture": "#3"
        },
        "south": {
          "uv": [
            4,
            0,
            16,
            4
          ],
          "texture": "#3"
        },
        "west": {
          "uv": [
            4,
            0,
            8,
            4
          ],
          "texture": "#3"
        },
        "up": {
          "uv": [
            4,
            5,
            16,
            9
          ],
          "texture": "#3"
        },
        "down": {
          "uv": [
            4,
            0,
            16,
            4
          ],
          "texture": "#3"
        }
      }
    },
    {
      "from": [
        6,
        28,
        10
      ],
      "to": [
        10,
        32,
        14
      ],
      "faces": {
        "north": {
          "uv": [
            4,
            0,
            8,
            4
          ],
          "texture": "#3"
        },
        "east": {
          "uv": [
            4,
            0,
            8,
            4
          ],
          "texture": "#3"
        },
        "south": {
          "uv": [
            4,
            0,
            8,
            4
          ],
          "texture": "#3"
        },
        "west": {
          "uv": [
            4,
            0,
            8,
            4
          ],
          "texture": "#3"
        },
        "up": {
          "uv": [
            4,
            5,
            8,
            9
          ],
          "texture": "#3"
        },
        "down": {
          "uv": [
            4,
            0,
            8,
            4
          ],
          "texture": "#3"
        }
      }
    },
    {
      "from": [
        6,
        28,
        2
      ],
      "to": [
        10,
        32,
        6
      ],
      "faces": {
        "north": {
          "uv": [
            4,
            0,
            8,
            4
          ],
          "texture": "#3"
        },
        "east": {
          "uv": [
            4,
            0,
            8,
            4
          ],
          "texture": "#3"
        },
        "south": {
          "uv": [
            4,
            0,
            8,
            4
          ],
          "texture": "#3"
        },
        "west": {
          "uv": [
            4,
            0,
            8,
            4
          ],
          "texture": "#3"
        },
        "up": {
          "uv": [
            4,
            5,
            8,
            9
          ],
          "texture": "#3"
        },
        "down": {
          "uv": [
            4,
            0,
            8,
            4
          ],
          "texture": "#3"
        }
      }
    },
    {
      "from": [
        2,
        12,
        6
      ],
      "to": [
        14,
        16,
        10
      ],
      "faces": {
        "north": {
          "uv": [
            4,
            0,
            16,
            4
          ],
          "texture": "#3"
        },
        "east": {
          "uv": [
            4,
            0,
            8,
            4
          ],
          "texture": "#3"
        },
        "south": {
          "uv": [
            4,
            0,
            16,
            4
          ],
          "texture": "#3"
        },
        "west": {
          "uv": [
            4,
            0,
            8,
            4
          ],
          "texture": "#3"
        },
        "up": {
          "uv": [
            4,
            0,
            16,
            4
          ],
          "texture": "#3"
        },
        "down": {
          "uv": [
            4,
            0,
            16,
            4
          ],
          "texture": "#3"
        }
      }
    },
    {
      "from": [
        6,
        12,
        2
      ],
      "to": [
        10,
        16,
        6
      ],
      "faces": {
        "north": {
          "uv": [
            4,
            0,
            8,
            4
          ],
          "texture": "#3"
        },
        "east": {
          "uv": [
            4,
            0,
            8,
            4
          ],
          "texture": "#3"
        },
        "south": {
          "uv": [
            4,
            0,
            8,
            4
          ],
          "texture": "#3"
        },
        "west": {
          "uv": [
            4,
            0,
            8,
            4
          ],
          "texture": "#3"
        },
        "up": {
          "uv": [
            4,
            0,
            8,
            4
          ],
          "texture": "#3"
        },
        "down": {
          "uv": [
            4,
            0,
            8,
            4
          ],
          "texture": "#3"
        }
      }
    },
    {
      "from": [
        6,
        12,
        10
      ],
      "to": [
        10,
        16,
        14
      ],
      "faces": {
        "north": {
          "uv": [
            4,
            0,
            8,
            4
          ],
          "texture": "#3"
        },
        "east": {
          "uv": [
            4,
            0,
            8,
            4
          ],
          "texture": "#3"
        },
        "south": {
          "uv": [
            4,
            0,
            8,
            4
          ],
          "texture": "#3"
        },
        "west": {
          "uv": [
            4,
            0,
            8,
            4
          ],
          "texture": "#3"
        },
        "up": {
          "uv": [
            4,
            0,
            8,
            4
          ],
          "texture": "#3"
        },
        "down": {
          "uv": [
            4,
            0,
            8,
            4
          ],
          "texture": "#3"
        }
      }
    },
    {
      "from": [
        6,
        20,
        2
      ],
      "to": [
        10,
        24,
        6
      ],
      "faces": {
        "north": {
          "uv": [
            4,
            0,
            8,
            4
          ],
          "texture": "#3"
        },
        "east": {
          "uv": [
            4,
            0,
            8,
            4
          ],
          "texture": "#3"
        },
        "south": {
          "uv": [
            4,
            0,
            8,
            4
          ],
          "texture": "#3"
        },
        "west": {
          "uv": [
            4,
            0,
            8,
            4
          ],
          "texture": "#3"
        },
        "up": {
          "uv": [
            4,
            5,
            8,
            9
          ],
          "texture": "#3"
        },
        "down": {
          "uv": [
            4,
            0,
            8,
            4
          ],
          "texture": "#3"
        }
      }
    },
    {
      "from": [
        2,
        20,
        6
      ],
      "to": [
        14,
        24,
        10
      ],
      "faces": {
        "north": {
          "uv": [
            4,
            0,
            16,
            4
          ],
          "texture": "#3"
        },
        "east": {
          "uv": [
            4,
            0,
            8,
            4
          ],
          "texture": "#3"
        },
        "south": {
          "uv": [
            4,
            0,
            16,
            4
          ],
          "texture": "#3"
        },
        "west": {
          "uv": [
            4,
            0,
            8,
            4
          ],
          "texture": "#3"
        },
        "up": {
          "uv": [
            4,
            5,
            16,
            9
          ],
          "texture": "#3"
        },
        "down": {
          "uv": [
            4,
            0,
            16,
            4
          ],
          "texture": "#3"
        }
      }
    },
    {
      "from": [
        6,
        20,
        10
      ],
      "to": [
        10,
        24,
        14
      ],
      "faces": {
        "north": {
          "uv": [
            4,
            0,
            8,
            4
          ],
          "texture": "#3"
        },
        "east": {
          "uv": [
            4,
            0,
            8,
            4
          ],
          "texture": "#3"
        },
        "south": {
          "uv": [
            4,
            0,
            8,
            4
          ],
          "texture": "#3"
        },
        "west": {
          "uv": [
            4,
            0,
            8,
            4
          ],
          "texture": "#3"
        },
        "up": {
          "uv": [
            4,
            5,
            8,
            9
          ],
          "texture": "#3"
        },
        "down": {
          "uv": [
            4,
            0,
            8,
            4
          ],
          "texture": "#3"
        }
      }
    },
    {
      "from": [
        -2,
        16,
        2
      ],
      "to": [
        18,
        20,
        14
      ],
      "faces": {
        "north": {
          "uv": [
            0,
            0,
            16,
            4
          ],
          "texture": "#3"
        },
        "east": {
          "uv": [
            4,
            0,
            16,
            4
          ],
          "texture": "#3"
        },
        "south": {
          "uv": [
            0,
            0,
            16,
            4
          ],
          "texture": "#3"
        },
        "west": {
          "uv": [
            4,
            0,
            16,
            4
          ],
          "texture": "#3"
        },
        "up": {
          "uv": [
            0,
            4,
            16,
            16
          ],
          "texture": "#3"
        },
        "down": {
          "uv": [
            0,
            4,
            16,
            16
          ],
          "texture": "#3"
        }
      }
    },
    {
      "from": [
        2,
        16,
        14
      ],
      "to": [
        14,
        20,
        18
      ],
      "faces": {
        "north": {
          "uv": [
            0,
            0,
            12,
            4
          ],
          "texture": "#3"
        },
        "east": {
          "uv": [
            0,
            0,
            4,
            4
          ],
          "texture": "#3"
        },
        "south": {
          "uv": [
            0,
            0,
            12,
            4
          ],
          "texture": "#3"
        },
        "west": {
          "uv": [
            0,
            0,
            4,
            4
          ],
          "texture": "#3"
        },
        "up": {
          "uv": [
            0,
            5,
            12,
            9
          ],
          "texture": "#3"
        },
        "down": {
          "uv": [
            0,
            0,
            12,
            4
          ],
          "texture": "#3"
        }
      }
    },
    {
      "from": [
        2,
        16,
        -2
      ],
      "to": [
        14,
        20,
        2
      ],
      "faces": {
        "north": {
          "uv": [
            4,
            0,
            16,
            4
          ],
          "texture": "#3"
        },
        "east": {
          "uv": [
            4,
            0,
            8,
            4
          ],
          "texture": "#3"
        },
        "south": {
          "uv": [
            4,
            0,
            16,
            4
          ],
          "texture": "#3"
        },
        "west": {
          "uv": [
            4,
            0,
            8,
            4
          ],
          "texture": "#3"
        },
        "up": {
          "uv": [
            4,
            5,
            16,
            9
          ],
          "texture": "#3"
        },
        "down": {
          "uv": [
            4,
            0,
            16,
            4
          ],
          "texture": "#3"
        }
      }
    },
    {
      "from": [
        -2,
        8,
        2
      ],
      "to": [
        18,
        12,
        14
      ],
      "faces": {
        "north": {
          "uv": [
            0,
            0,
            16,
            4
          ],
          "texture": "#3"
        },
        "east": {
          "uv": [
            4,
            0,
            16,
            4
          ],
          "texture": "#3"
        },
        "south": {
          "uv": [
            0,
            0,
            16,
            4
          ],
          "texture": "#3"
        },
        "west": {
          "uv": [
            4,
            0,
            16,
            4
          ],
          "texture": "#3"
        },
        "up": {
          "uv": [
            0,
            4,
            16,
            16
          ],
          "texture": "#3"
        },
        "down": {
          "uv": [
            0,
            0,
            16,
            12
          ],
          "texture": "#3"
        }
      }
    },
    {
      "from": [
        2,
        8,
        14
      ],
      "to": [
        14,
        12,
        18
      ],
      "faces": {
        "north": {
          "uv": [
            0,
            0,
            12,
            4
          ],
          "texture": "#3"
        },
        "east": {
          "uv": [
            0,
            0,
            4,
            4
          ],
          "texture": "#3"
        },
        "south": {
          "uv": [
            0,
            0,
            12,
            4
          ],
          "texture": "#3"
        },
        "west": {
          "uv": [
            0,
            0,
            4,
            4
          ],
          "texture": "#3"
        },
        "up": {
          "uv": [
            0,
            5,
            12,
            9
          ],
          "texture": "#3"
        },
        "down": {
          "uv": [
            0,
            0,
            12,
            4
          ],
          "texture": "#3"
        }
      }
    },
    {
      "from": [
        2,
        8,
        -2
      ],
      "to": [
        14,
        12,
        2
      ],
      "faces": {
        "north": {
          "uv": [
            4,
            0,
            16,
            4
          ],
          "texture": "#3"
        },
        "east": {
          "uv": [
            4,
            0,
            8,
            4
          ],
          "texture": "#3"
        },
        "south": {
          "uv": [
            4,
            0,
            16,
            4
          ],
          "texture": "#3"
        },
        "west": {
          "uv": [
            4,
            0,
            8,
            4
          ],
          "texture": "#3"
        },
        "up": {
          "uv": [
            4,
            5,
            16,
            9
          ],
          "texture": "#3"
        },
        "down": {
          "uv": [
            4,
            0,
            16,
            4
          ],
          "texture": "#3"
        }
      }
    },
    {
      "from": [
        2,
        8,
        -2.1
      ],
      "to": [
        14,
        12,
        -2.1
      ],
      "faces": {
        "north": {
          "uv": [
            0,
            2,
            16,
            8
          ],
          "texture": "#4"
        },
        "south": {
          "uv": [
            0,
            2,
            16,
            8
          ],
          "texture": "#4"
        }
      }
    },
    {
      "from": [
        -2.1,
        8,
        2
      ],
      "to": [
        -2.1,
        12,
        14
      ],
      "faces": {
        "east": {
          "uv": [
            0,
            2,
            16,
            8
          ],
          "texture": "#4"
        },
        "west": {
          "uv": [
            0,
            2,
            16,
            8
          ],
          "texture": "#4"
        }
      }
    },
    {
      "from": [
        2,
        8,
        18.1
      ],
      "to": [
        14,
        12,
        18.1
      ],
      "faces": {
        "north": {
          "uv": [
            0,
            2,
            16,
            8
          ],
          "texture": "#4"
        },
        "south": {
          "uv": [
            0,
            2,
            16,
            8
          ],
          "texture": "#4"
        }
      }
    },
    {
      "from": [
        18.1,
        8,
        2
      ],
      "to": [
        18.1,
        12,
        14
      ],
      "faces": {
        "east": {
          "uv": [
            0,
            2,
            16,
            8
          ],
          "texture": "#4"
        },
        "west": {
          "uv": [
            0,
            2,
            16,
            8
          ],
          "texture": "#4"
        }
      }
    },
    {
      "from": [
        14.1,
        8,
        14
      ],
      "to": [
        14.1,
        12,
        18
      ],
      "faces": {
        "east": {
          "uv": [
            0,
            2,
            8,
            10
          ],
          "texture": "#5"
        },
        "west": {
          "uv": [
            0,
            2,
            8,
            10
          ],
          "texture": "#5"
        }
      }
    },
    {
      "from": [
        14,
        8,
        14.1
      ],
      "to": [
        18,
        12,
        14.1
      ],
      "faces": {
        "north": {
          "uv": [
            8,
            2,
            16,
            10
          ],
          "texture": "#5"
        },
        "south": {
          "uv": [
            8,
            2,
            16,
            10
          ],
          "texture": "#5"
        }
      }
    },
    {
      "from": [
        1.9,
        8,
        14
      ],
      "to": [
        1.9,
        12,
        18
      ],
      "faces": {
        "east": {
          "uv": [
            8,
            2,
            16,
            10
          ],
          "texture": "#5"
        },
        "west": {
          "uv": [
            8,
            2,
            16,
            10
          ],
          "texture": "#5"
        }
      }
    },
    {
      "from": [
        14.1,
        8,
        -2
      ],
      "to": [
        14.1,
        12,
        2
      ],
      "faces": {
        "east": {
          "uv": [
            8,
            2,
            16,
            10
          ],
          "texture": "#5"
        },
        "west": {
          "uv": [
            8,
            2,
            16,
            10
          ],
          "texture": "#5"
        }
      }
    },
    {
      "from": [
        14,
        8,
        1.9
      ],
      "to": [
        18,
        12,
        1.9
      ],
      "faces": {
        "north": {
          "uv": [
            0,
            2,
            8,
            10
          ],
          "texture": "#5"
        },
        "south": {
          "uv": [
            0,
            2,
            8,
            10
          ],
          "texture": "#5"
        }
      }
    },
    {
      "from": [
        -2,
        8,
        14.1
      ],
      "to": [
        2,
        12,
        14.1
      ],
      "faces": {
        "north": {
          "uv": [
            0,
            2,
            8,
            10
          ],
          "texture": "#5"
        },
        "south": {
          "uv": [
            0,
            2,
            8,
            10
          ],
          "texture": "#5"
        }
      }
    },
    {
      "from": [
        1.9,
        8,
        -2
      ],
      "to": [
        1.9,
        12,
        2
      ],
      "faces": {
        "east": {
          "uv": [
            0,
            2,
            8,
            10
          ],
          "texture": "#5"
        },
        "west": {
          "uv": [
            0,
            2,
            8,
            10
          ],
          "texture": "#5"
        }
      }
    },
    {
      "from": [
        -2,
        8,
        1.9
      ],
      "to": [
        2,
        12,
        1.9
      ],
      "faces": {
        "north": {
          "uv": [
            8,
            2,
            16,
            10
          ],
          "texture": "#5"
        },
        "south": {
          "uv": [
            8,
            2,
            16,
            10
          ],
          "texture": "#5"
        }
      }
    },
    {
      "from": [
        -2.1,
        16,
        2
      ],
      "to": [
        -2.1,
        20,
        14
      ],
      "faces": {
        "east": {
          "uv": [
            0,
            2,
            16,
            8
          ],
          "texture": "#4"
        },
        "west": {
          "uv": [
            0,
            2,
            16,
            8
          ],
          "texture": "#4"
        }
      }
    },
    {
      "from": [
        2,
        16,
        18.1
      ],
      "to": [
        14,
        20,
        18.1
      ],
      "faces": {
        "north": {
          "uv": [
            0,
            2,
            16,
            8
          ],
          "texture": "#4"
        },
        "south": {
          "uv": [
            0,
            2,
            16,
            8
          ],
          "texture": "#4"
        }
      }
    },
    {
      "from": [
        18.1,
        16,
        2
      ],
      "to": [
        18.1,
        20,
        14
      ],
      "faces": {
        "east": {
          "uv": [
            0,
            2,
            16,
            8
          ],
          "texture": "#4"
        },
        "west": {
          "uv": [
            0,
            2,
            16,
            8
          ],
          "texture": "#4"
        }
      }
    },
    {
      "from": [
        14.1,
        16,
        14
      ],
      "to": [
        14.1,
        20,
        18
      ],
      "faces": {
        "east": {
          "uv": [
            0,
            2,
            8,
            10
          ],
          "texture": "#5"
        },
        "west": {
          "uv": [
            0,
            2,
            8,
            10
          ],
          "texture": "#5"
        }
      }
    },
    {
      "from": [
        14,
        16,
        14.1
      ],
      "to": [
        18,
        20,
        14.1
      ],
      "faces": {
        "north": {
          "uv": [
            8,
            2,
            16,
            10
          ],
          "texture": "#5"
        },
        "south": {
          "uv": [
            8,
            2,
            16,
            10
          ],
          "texture": "#5"
        }
      }
    },
    {
      "from": [
        1.9,
        16,
        14
      ],
      "to": [
        1.9,
        20,
        18
      ],
      "faces": {
        "east": {
          "uv": [
            8,
            2,
            16,
            10
          ],
          "texture": "#5"
        },
        "west": {
          "uv": [
            8,
            2,
            16,
            10
          ],
          "texture": "#5"
        }
      }
    },
    {
      "from": [
        14.1,
        16,
        -2
      ],
      "to": [
        14.1,
        20,
        2
      ],
      "faces": {
        "east": {
          "uv": [
            8,
            2,
            16,
            10
          ],
          "texture": "#5"
        },
        "west": {
          "uv": [
            8,
            2,
            16,
            10
          ],
          "texture": "#5"
        }
      }
    },
    {
      "from": [
        14,
        16,
        1.9
      ],
      "to": [
        18,
        20,
        1.9
      ],
      "faces": {
        "north": {
          "uv": [
            0,
            2,
            8,
            10
          ],
          "texture": "#5"
        },
        "south": {
          "uv": [
            0,
            2,
            8,
            10
          ],
          "texture": "#5"
        }
      }
    },
    {
      "from": [
        -2,
        16,
        14.1
      ],
      "to": [
        2,
        20,
        14.1
      ],
      "faces": {
        "north": {
          "uv": [
            0,
            2,
            8,
            10
          ],
          "texture": "#5"
        },
        "south": {
          "uv": [
            0,
            2,
            8,
            10
          ],
          "texture": "#5"
        }
      }
    },
    {
      "from": [
        1.9,
        16,
        -2
      ],
      "to": [
        1.9,
        20,
        2
      ],
      "faces": {
        "east": {
          "uv": [
            0,
            2,
            8,
            10
          ],
          "texture": "#5"
        },
        "west": {
          "uv": [
            0,
            2,
            8,
            10
          ],
          "texture": "#5"
        }
      }
    },
    {
      "from": [
        -2,
        16,
        1.9
      ],
      "to": [
        2,
        20,
        1.9
      ],
      "faces": {
        "north": {
          "uv": [
            8,
            2,
            16,
            10
          ],
          "texture": "#5"
        },
        "south": {
          "uv": [
            8,
            2,
            16,
            10
          ],
          "texture": "#5"
        }
      }
    },
    {
      "from": [
        2,
        16,
        -2.1
      ],
      "to": [
        14,
        20,
        -2.1
      ],
      "faces": {
        "north": {
          "uv": [
            0,
            2,
            16,
            8
          ],
          "texture": "#4"
        },
        "south": {
          "uv": [
            0,
            2,
            16,
            8
          ],
          "texture": "#4"
        }
      }
    }
  ],
  "display": {
    "firstperson_righthand": {
      "scale": [
        0.25,
        0.25,
        0.25
      ]
    },
    "firstperson_lefthand": {
      "translation": [
        -0.25,
        2.5,
        0.5
      ],
      "scale": [
        0.3,
        0.3,
        0.3
      ]
    },
    "ground": {
      "scale": [
        0.5,
        0.5,
        0.5
      ]
    },
    "gui": {
      "rotation": [
        22.5,
        45,
        0
      ],
      "translation": [
        0,
        -3.5,
        0
      ],
      "scale": [
        0.45,
        0.45,
        0.45
      ]
    },
    "head": {
      "translation": [
        0,
        10.25,
        0
      ],
      "scale": [
        0.5,
        0.5,
        0.5
      ]
    },
    "fixed": {
      "translation": [
        0,
        -3.75,
        0
      ],
      "scale": [
        0.5,
        0.5,
        0.5
      ]
    }
  }
}