{
  "credit": "Made with Blockbench",
  "elements": [
    {
      "from": [
        15,
        0,
        0
      ],
      "to": [
        16,
        16,
        16
      ],
      "rotation": {
        "angle": 0,
        "axis": "y",
        "origin": [
          16,
          0,
          0
        ]
      },
      "faces": {
        "north": {
          "uv": [
            15,
            0,
            16,
            16
          ],
          "texture": "#0"
        },
        "east": {
          "uv": [
            0,
            0,
            16,
            16
          ],
          "texture": "#0"
        },
        "south": {
          "uv": [
            15,
            0,
            16,
            16
          ],
          "texture": "#0"
        },
        "west": {
          "uv": [
            16,
            0,
            0,
            16
          ],
          "texture": "#0"
        },
        "up": {
          "uv": [
            16,
            1,
            0,
            0
          ],
          "rotation": 90,
          "texture": "#0"
        },
        "down": {
          "uv": [
            0,
            15,
            16,
            16
          ],
          "rotation": 270,
          "texture": "#0"
        }
      }
    },
    {
      "from": [
        0,
        0,
        15
      ],
      "to": [
        16,
        16,
        16
      ],
      "rotation": {
        "angle": 0,
        "axis": "y",
        "origin": [
          16,
          0,
          0
        ]
      },
      "faces": {
        "north": {
          "uv": [
            16,
            0,
            0,
            16
          ],
          "texture": "#0"
        },
        "east": {
          "uv": [
            0,
            0,
            1,
            16
          ],
          "texture": "#0"
        },
        "south": {
          "uv": [
            0,
            0,
            16,
            16
          ],
          "texture": "#0"
        },
        "west": {
          "uv": [
            0,
            0,
            1,
            16
          ],
          "texture": "#0"
        },
        "up": {
          "uv": [
            0,
            0,
            16,
            1
          ],
          "rotation": 180,
          "texture": "#0"
        },
        "down": {
          "uv": [
            0,
            15,
            16,
            16
          ],
          "texture": "#0"
        }
      }
    },
    {
      "from": [
        1,
        0,
        14
      ],
      "to": [
        15,
        16,
        15
      ],
      "rotation": {
        "angle": 0,
        "axis": "y",
        "origin": [
          16,
          0,
          0
        ]
      },
      "faces": {
        "north": {
          "uv": [
            15,
            0,
            1,
            16
          ],
          "texture": "#0"
        },
        "east": {
          "uv": [
            0,
            0,
            1,
            16
          ],
          "texture": "#0"
        },
        "south": {
          "uv": [
            0,
            0,
            14,
            16
          ],
          "texture": "#0"
        },
        "west": {
          "uv": [
            1,
            0,
            2,
            16
          ],
          "texture": "#0"
        },
        "up": {
          "uv": [
            1,
            1,
            15,
            2
          ],
          "rotation": 180,
          "texture": "#0"
        },
        "down": {
          "uv": [
            15,
            15,
            1,
            14
          ],
          "texture": "#0"
        }
      }
    },
    {
      "from": [
        14,
        0,
        1
      ],
      "to": [
        15,
        16,
        15
      ],
      "rotation": {
        "angle": 0,
        "axis": "y",
        "origin": [
          16,
          0,
          0
        ]
      },
      "faces": {
        "north": {
          "uv": [
            14,
            0,
            15,
            16
          ],
          "texture": "#0"
        },
        "east": {
          "uv": [
            0,
            0,
            14,
            16
          ],
          "texture": "#0"
        },
        "south": {
          "uv": [
            0,
            0,
            1,
            16
          ],
          "texture": "#0"
        },
        "west": {
          "uv": [
            15,
            0,
            1,
            16
          ],
          "texture": "#0"
        },
        "up": {
          "uv": [
            1,
            1,
            2,
            15
          ],
          "rotation": 180,
          "texture": "#0"
        },
        "down": {
          "uv": [
            2,
            15,
            1,
            1
          ],
          "texture": "#0"
        }
      }
    },
    {
      "from": [
        13,
        0,
        2
      ],
      "to": [
        14,
        16,
        14
      ],
      "rotation": {
        "angle": 0,
        "axis": "y",
        "origin": [
          16,
          0,
          0
        ]
      },
      "faces": {
        "north": {
          "uv": [
            13,
            0,
            14,
            16
          ],
          "texture": "#0"
        },
        "east": {
          "uv": [
            0,
            0,
            12,
            16
          ],
          "texture": "#0"
        },
        "south": {
          "uv": [
            0,
            0,
            1,
            16
          ],
          "texture": "#0"
        },
        "west": {
          "uv": [
            14,
            0,
            2,
            16
          ],
          "texture": "#0"
        },
        "up": {
          "uv": [
            2,
            2,
            3,
            14
          ],
          "rotation": 180,
          "texture": "#0"
        },
        "down": {
          "uv": [
            3,
            14,
            2,
            2
          ],
          "texture": "#0"
        }
      }
    },
    {
      "from": [
        2,
        0,
        13
      ],
      "to": [
        14,
        16,
        14
      ],
      "rotation": {
        "angle": 0,
        "axis": "y",
        "origin": [
          16,
          0,
          0
        ]
      },
      "faces": {
        "north": {
          "uv": [
            14,
            0,
            2,
            16
          ],
          "texture": "#0"
        },
        "east": {
          "uv": [
            0,
            0,
            1,
            16
          ],
          "texture": "#0"
        },
        "south": {
          "uv": [
            0,
            0,
            12,
            16
          ],
          "texture": "#0"
        },
        "west": {
          "uv": [
            2,
            0,
            3,
            16
          ],
          "texture": "#0"
        },
        "up": {
          "uv": [
            2,
            2,
            14,
            3
          ],
          "rotation": 180,
          "texture": "#0"
        },
        "down": {
          "uv": [
            14,
            14,
            2,
            13
          ],
          "texture": "#0"
        }
      }
    },
    {
      "from": [
        3,
        0,
        12
      ],
      "to": [
        13,
        16,
        13
      ],
      "rotation": {
        "angle": 0,
        "axis": "y",
        "origin": [
          16,
          0,
          0
        ]
      },
      "faces": {
        "north": {
          "uv": [
            13,
            0,
            3,
            16
          ],
          "texture": "#0"
        },
        "east": {
          "uv": [
            0,
            0,
            1,
            16
          ],
          "texture": "#0"
        },
        "south": {
          "uv": [
            0,
            0,
            10,
            16
          ],
          "texture": "#0"
        },
        "west": {
          "uv": [
            3,
            0,
            4,
            16
          ],
          "texture": "#0"
        },
        "up": {
          "uv": [
            3,
            3,
            13,
            4
          ],
          "rotation": 180,
          "texture": "#0"
        },
        "down": {
          "uv": [
            13,
            13,
            3,
            12
          ],
          "texture": "#0"
        }
      }
    },
    {
      "from": [
        12,
        0,
        3
      ],
      "to": [
        13,
        16,
        13
      ],
      "rotation": {
        "angle": 0,
        "axis": "y",
        "origin": [
          16,
          0,
          0
        ]
      },
      "faces": {
        "north": {
          "uv": [
            12,
            0,
            13,
            16
          ],
          "texture": "#0"
        },
        "east": {
          "uv": [
            0,
            0,
            10,
            16
          ],
          "texture": "#0"
        },
        "south": {
          "uv": [
            0,
            0,
            1,
            16
          ],
          "texture": "#0"
        },
        "west": {
          "uv": [
            13,
            0,
            3,
            16
          ],
          "texture": "#0"
        },
        "up": {
          "uv": [
            3,
            3,
            4,
            13
          ],
          "rotation": 180,
          "texture": "#0"
        },
        "down": {
          "uv": [
            4,
            13,
            3,
            3
          ],
          "texture": "#0"
        }
      }
    },
    {
      "from": [
        11,
        0,
        4
      ],
      "to": [
        12,
        16,
        12
      ],
      "rotation": {
        "angle": 0,
        "axis": "y",
        "origin": [
          16,
          0,
          0
        ]
      },
      "faces": {
        "north": {
          "uv": [
            11,
            0,
            12,
            16
          ],
          "texture": "#0"
        },
        "east": {
          "uv": [
            0,
            0,
            8,
            16
          ],
          "texture": "#0"
        },
        "south": {
          "uv": [
            0,
            0,
            1,
            16
          ],
          "texture": "#0"
        },
        "west": {
          "uv": [
            12,
            0,
            4,
            16
          ],
          "texture": "#0"
        },
        "up": {
          "uv": [
            4,
            4,
            5,
            12
          ],
          "rotation": 180,
          "texture": "#0"
        },
        "down": {
          "uv": [
            5,
            12,
            4,
            4
          ],
          "texture": "#0"
        }
      }
    },
    {
      "from": [
        4,
        0,
        11
      ],
      "to": [
        12,
        16,
        12
      ],
      "rotation": {
        "angle": 0,
        "axis": "y",
        "origin": [
          16,
          0,
          0
        ]
      },
      "faces": {
        "north": {
          "uv": [
            12,
            0,
            4,
            16
          ],
          "texture": "#0"
        },
        "east": {
          "uv": [
            0,
            0,
            1,
            16
          ],
          "texture": "#0"
        },
        "south": {
          "uv": [
            0,
            0,
            8,
            16
          ],
          "texture": "#0"
        },
        "west": {
          "uv": [
            4,
            0,
            5,
            16
          ],
          "texture": "#0"
        },
        "up": {
          "uv": [
            4,
            4,
            12,
            5
          ],
          "rotation": 180,
          "texture": "#0"
        },
        "down": {
          "uv": [
            12,
            12,
            4,
            11
          ],
          "texture": "#0"
        }
      }
    },
    {
      "from": [
        5,
        0,
        10
      ],
      "to": [
        11,
        16,
        11
      ],
      "rotation": {
        "angle": 0,
        "axis": "y",
        "origin": [
          16,
          0,
          0
        ]
      },
      "faces": {
        "north": {
          "uv": [
            11,
            0,
            5,
            16
          ],
          "texture": "#0"
        },
        "east": {
          "uv": [
            0,
            0,
            1,
            16
          ],
          "texture": "#0"
        },
        "south": {
          "uv": [
            0,
            0,
            6,
            16
          ],
          "texture": "#0"
        },
        "west": {
          "uv": [
            5,
            0,
            6,
            16
          ],
          "texture": "#0"
        },
        "up": {
          "uv": [
            5,
            5,
            11,
            6
          ],
          "rotation": 180,
          "texture": "#0"
        },
        "down": {
          "uv": [
            11,
            11,
            5,
            10
          ],
          "texture": "#0"
        }
      }
    },
    {
      "from": [
        10,
        0,
        5
      ],
      "to": [
        11,
        16,
        11
      ],
      "rotation": {
        "angle": 0,
        "axis": "y",
        "origin": [
          16,
          0,
          0
        ]
      },
      "faces": {
        "north": {
          "uv": [
            10,
            0,
            11,
            16
          ],
          "texture": "#0"
        },
        "east": {
          "uv": [
            0,
            0,
            6,
            16
          ],
          "texture": "#0"
        },
        "south": {
          "uv": [
            0,
            0,
            1,
            16
          ],
          "texture": "#0"
        },
        "west": {
          "uv": [
            11,
            0,
            5,
            16
          ],
          "texture": "#0"
        },
        "up": {
          "uv": [
            5,
            5,
            6,
            11
          ],
          "rotation": 180,
          "texture": "#0"
        },
        "down": {
          "uv": [
            6,
            11,
            5,
            5
          ],
          "texture": "#0"
        }
      }
    },
    {
      "from": [
        9,
        0,
        6
      ],
      "to": [
        10,
        16,
        10
      ],
      "rotation": {
        "angle": 0,
        "axis": "y",
        "origin": [
          16,
          0,
          0
        ]
      },
      "faces": {
        "north": {
          "uv": [
            9,
            0,
            10,
            16
          ],
          "texture": "#0"
        },
        "east": {
          "uv": [
            0,
            0,
            4,
            16
          ],
          "texture": "#0"
        },
        "south": {
          "uv": [
            0,
            0,
            1,
            16
          ],
          "texture": "#0"
        },
        "west": {
          "uv": [
            10,
            0,
            6,
            16
          ],
          "texture": "#0"
        },
        "up": {
          "uv": [
            6,
            6,
            7,
            10
          ],
          "rotation": 180,
          "texture": "#0"
        },
        "down": {
          "uv": [
            7,
            10,
            6,
            6
          ],
          "texture": "#0"
        }
      }
    },
    {
      "from": [
        6,
        0,
        9
      ],
      "to": [
        10,
        16,
        10
      ],
      "rotation": {
        "angle": 0,
        "axis": "y",
        "origin": [
          16,
          0,
          0
        ]
      },
      "faces": {
        "north": {
          "uv": [
            10,
            0,
            6,
            16
          ],
          "texture": "#0"
        },
        "east": {
          "uv": [
            0,
            0,
            1,
            16
          ],
          "texture": "#0"
        },
        "south": {
          "uv": [
            0,
            0,
            4,
            16
          ],
          "texture": "#0"
        },
        "west": {
          "uv": [
            6,
            0,
            7,
            16
          ],
          "texture": "#0"
        },
        "up": {
          "uv": [
            6,
            6,
            10,
            7
          ],
          "rotation": 180,
          "texture": "#0"
        },
        "down": {
          "uv": [
            10,
            10,
            6,
            9
          ],
          "texture": "#0"
        }
      }
    },
    {
      "from": [
        8,
        0,
        7
      ],
      "to": [
        9,
        16,
        9
      ],
      "rotation": {
        "angle": 0,
        "axis": "y",
        "origin": [
          16,
          0,
          0
        ]
      },
      "faces": {
        "north": {
          "uv": [
            8,
            0,
            9,
            16
          ],
          "texture": "#0"
        },
        "east": {
          "uv": [
            0,
            0,
            2,
            16
          ],
          "texture": "#0"
        },
        "south": {
          "uv": [
            0,
            0,
            1,
            16
          ],
          "texture": "#0"
        },
        "west": {
          "uv": [
            9,
            0,
            7,
            16
          ],
          "texture": "#0"
        },
        "up": {
          "uv": [
            7,
            7,
            8,
            9
          ],
          "rotation": 180,
          "texture": "#0"
        },
        "down": {
          "uv": [
            8,
            9,
            7,
            7
          ],
          "texture": "#0"
        }
      }
    },
    {
      "from": [
        7,
        0,
        8
      ],
      "to": [
        9,
        16,
        9
      ],
      "rotation": {
        "angle": 0,
        "axis": "y",
        "origin": [
          16,
          0,
          0
        ]
      },
      "faces": {
        "north": {
          "uv": [
            9,
            0,
            7,
            16
          ],
          "texture": "#0"
        },
        "east": {
          "uv": [
            0,
            0,
            1,
            16
          ],
          "texture": "#0"
        },
        "south": {
          "uv": [
            0,
            0,
            2,
            16
          ],
          "texture": "#0"
        },
        "west": {
          "uv": [
            7,
            0,
            8,
            16
          ],
          "texture": "#0"
        },
        "up": {
          "uv": [
            7,
            7,
            9,
            8
          ],
          "rotation": 180,
          "texture": "#0"
        },
        "down": {
          "uv": [
            9,
            9,
            7,
            8
          ],
          "texture": "#0"
        }
      }
    }
  ],
  "display": {
    "thirdperson_righthand": {
      "scale": [
        0.18,
        0.18,
        0.18
      ]
    },
    "thirdperson_lefthand": {
      "scale": [
        0.18,
        0.18,
        0.18
      ]
    },
    "firstperson_righthand": {
      "translation": [
        1.75,
        0,
        0
      ],
      "scale": [
        0.32,
        0.32,
        0.32
      ]
    },
    "firstperson_lefthand": {
      "translation": [
        1.75,
        0,
        0
      ],
      "scale": [
        0.32,
        0.32,
        0.32
      ]
    },
    "ground": {
      "translation": [
        0,
        -1.25,
        0
      ],
      "scale": [
        0.29,
        0.29,
        0.29
      ]
    },
    "gui": {
      "rotation": [
        45,
        -45,
        0
      ],
      "scale": [
        0.55,
        0.55,
        0.55
      ]
    },
    "fixed": {
      "translation": [
        0,
        0,
        -4
      ],
      "scale": [
        0.5,
        0.5,
        0.5
      ]
    }
  }
}