{
  "credit": "Made with Blockbench",
  "texture_size": [
    32,
    32
  ],
  "elements": [
    {
      "from": [
        7,
        0,
        8
      ],
      "to": [
        9,
        16,
        9
      ],
      "faces": {
        "north": {
          "uv": [
            7,
            0,
            9,
            16
          ],
          "texture": "#0"
        },
        "east": {
          "uv": [
            8,
            0,
            7,
            16
          ],
          "texture": "#0"
        },
        "south": {
          "uv": [
            2,
            0,
            0,
            16
          ],
          "texture": "#0"
        },
        "west": {
          "uv": [
            1,
            0,
            0,
            16
          ],
          "texture": "#0"
        },
        "up": {
          "uv": [
            9,
            7,
            7,
            8
          ],
          "rotation": 180,
          "texture": "#0"
        },
        "down": {
          "uv": [
            7,
            9,
            9,
            8
          ],
          "texture": "#0"
        }
      }
    },
    {
      "from": [
        0,
        0,
        0
      ],
      "to": [
        1,
        16,
        16
      ],
      "faces": {
        "north": {
          "uv": [
            16,
            0,
            15,
            16
          ],
          "texture": "#0"
        },
        "east": {
          "uv": [
            0,
            0,
            16,
            16
          ],
          "texture": "#0"
        },
        "south": {
          "uv": [
            16,
            0,
            15,
            16
          ],
          "texture": "#0"
        },
        "west": {
          "uv": [
            16,
            0,
            0,
            16
          ],
          "texture": "#0"
        },
        "up": {
          "uv": [
            16,
            0,
            0,
            1
          ],
          "rotation": 90,
          "texture": "#0"
        },
        "down": {
          "uv": [
            0,
            16,
            16,
            15
          ],
          "rotation": 270,
          "texture": "#0"
        }
      }
    },
    {
      "from": [
        0,
        0,
        15
      ],
      "to": [
        16,
        16,
        16
      ],
      "faces": {
        "north": {
          "uv": [
            0,
            0,
            16,
            16
          ],
          "texture": "#0"
        },
        "east": {
          "uv": [
            1,
            0,
            0,
            16
          ],
          "texture": "#0"
        },
        "south": {
          "uv": [
            16,
            0,
            0,
            16
          ],
          "texture": "#0"
        },
        "west": {
          "uv": [
            1,
            0,
            0,
            16
          ],
          "texture": "#0"
        },
        "up": {
          "uv": [
            16,
            0,
            0,
            1
          ],
          "rotation": 180,
          "texture": "#0"
        },
        "down": {
          "uv": [
            16,
            15,
            0,
            16
          ],
          "texture": "#0"
        }
      }
    },
    {
      "from": [
        1,
        0,
        14
      ],
      "to": [
        15,
        16,
        15
      ],
      "faces": {
        "north": {
          "uv": [
            1,
            0,
            15,
            16
          ],
          "texture": "#0"
        },
        "east": {
          "uv": [
            2,
            0,
            1,
            16
          ],
          "texture": "#0"
        },
        "south": {
          "uv": [
            14,
            0,
            0,
            16
          ],
          "texture": "#0"
        },
        "west": {
          "uv": [
            1,
            0,
            0,
            16
          ],
          "texture": "#0"
        },
        "up": {
          "uv": [
            15,
            1,
            1,
            2
          ],
          "rotation": 180,
          "texture": "#0"
        },
        "down": {
          "uv": [
            1,
            15,
            15,
            14
          ],
          "texture": "#0"
        }
      }
    },
    {
      "from": [
        1,
        0,
        1
      ],
      "to": [
        2,
        16,
        15
      ],
      "faces": {
        "north": {
          "uv": [
            15,
            0,
            14,
            16
          ],
          "texture": "#0"
        },
        "east": {
          "uv": [
            1,
            0,
            15,
            16
          ],
          "texture": "#0"
        },
        "south": {
          "uv": [
            1,
            0,
            0,
            16
          ],
          "texture": "#0"
        },
        "west": {
          "uv": [
            14,
            0,
            0,
            16
          ],
          "texture": "#0"
        },
        "up": {
          "uv": [
            2,
            1,
            1,
            15
          ],
          "rotation": 180,
          "texture": "#0"
        },
        "down": {
          "uv": [
            1,
            15,
            2,
            1
          ],
          "texture": "#0"
        }
      }
    },
    {
      "from": [
        2,
        0,
        2
      ],
      "to": [
        3,
        16,
        14
      ],
      "faces": {
        "north": {
          "uv": [
            14,
            0,
            13,
            16
          ],
          "texture": "#0"
        },
        "east": {
          "uv": [
            2,
            0,
            14,
            16
          ],
          "texture": "#0"
        },
        "south": {
          "uv": [
            1,
            0,
            0,
            16
          ],
          "texture": "#0"
        },
        "west": {
          "uv": [
            12,
            0,
            0,
            16
          ],
          "texture": "#0"
        },
        "up": {
          "uv": [
            3,
            2,
            2,
            14
          ],
          "rotation": 180,
          "texture": "#0"
        },
        "down": {
          "uv": [
            2,
            14,
            3,
            2
          ],
          "texture": "#0"
        }
      }
    },
    {
      "from": [
        2,
        0,
        13
      ],
      "to": [
        14,
        16,
        14
      ],
      "faces": {
        "north": {
          "uv": [
            2,
            0,
            14,
            16
          ],
          "texture": "#0"
        },
        "east": {
          "uv": [
            3,
            0,
            2,
            16
          ],
          "texture": "#0"
        },
        "south": {
          "uv": [
            12,
            0,
            0,
            16
          ],
          "texture": "#0"
        },
        "west": {
          "uv": [
            1,
            0,
            0,
            16
          ],
          "texture": "#0"
        },
        "up": {
          "uv": [
            14,
            2,
            2,
            3
          ],
          "rotation": 180,
          "texture": "#0"
        },
        "down": {
          "uv": [
            2,
            14,
            14,
            13
          ],
          "texture": "#0"
        }
      }
    },
    {
      "from": [
        3,
        0,
        12
      ],
      "to": [
        13,
        16,
        13
      ],
      "faces": {
        "north": {
          "uv": [
            3,
            0,
            13,
            16
          ],
          "texture": "#0"
        },
        "east": {
          "uv": [
            4,
            0,
            3,
            16
          ],
          "texture": "#0"
        },
        "south": {
          "uv": [
            10,
            0,
            0,
            16
          ],
          "texture": "#0"
        },
        "west": {
          "uv": [
            1,
            0,
            0,
            16
          ],
          "texture": "#0"
        },
        "up": {
          "uv": [
            13,
            3,
            3,
            4
          ],
          "rotation": 180,
          "texture": "#0"
        },
        "down": {
          "uv": [
            3,
            13,
            13,
            12
          ],
          "texture": "#0"
        }
      }
    },
    {
      "from": [
        3,
        0,
        3
      ],
      "to": [
        4,
        16,
        13
      ],
      "faces": {
        "north": {
          "uv": [
            13,
            0,
            12,
            16
          ],
          "texture": "#0"
        },
        "east": {
          "uv": [
            3,
            0,
            13,
            16
          ],
          "texture": "#0"
        },
        "south": {
          "uv": [
            1,
            0,
            0,
            16
          ],
          "texture": "#0"
        },
        "west": {
          "uv": [
            10,
            0,
            0,
            16
          ],
          "texture": "#0"
        },
        "up": {
          "uv": [
            4,
            3,
            3,
            13
          ],
          "rotation": 180,
          "texture": "#0"
        },
        "down": {
          "uv": [
            3,
            13,
            4,
            3
          ],
          "texture": "#0"
        }
      }
    },
    {
      "from": [
        4,
        0,
        4
      ],
      "to": [
        5,
        16,
        12
      ],
      "faces": {
        "north": {
          "uv": [
            12,
            0,
            11,
            16
          ],
          "texture": "#0"
        },
        "east": {
          "uv": [
            4,
            0,
            12,
            16
          ],
          "texture": "#0"
        },
        "south": {
          "uv": [
            1,
            0,
            0,
            16
          ],
          "texture": "#0"
        },
        "west": {
          "uv": [
            8,
            0,
            0,
            16
          ],
          "texture": "#0"
        },
        "up": {
          "uv": [
            5,
            4,
            4,
            12
          ],
          "rotation": 180,
          "texture": "#0"
        },
        "down": {
          "uv": [
            4,
            12,
            5,
            4
          ],
          "texture": "#0"
        }
      }
    },
    {
      "from": [
        4,
        0,
        11
      ],
      "to": [
        12,
        16,
        12
      ],
      "faces": {
        "north": {
          "uv": [
            4,
            0,
            12,
            16
          ],
          "texture": "#0"
        },
        "east": {
          "uv": [
            5,
            0,
            4,
            16
          ],
          "texture": "#0"
        },
        "south": {
          "uv": [
            8,
            0,
            0,
            16
          ],
          "texture": "#0"
        },
        "west": {
          "uv": [
            1,
            0,
            0,
            16
          ],
          "texture": "#0"
        },
        "up": {
          "uv": [
            12,
            4,
            4,
            5
          ],
          "rotation": 180,
          "texture": "#0"
        },
        "down": {
          "uv": [
            4,
            12,
            12,
            11
          ],
          "texture": "#0"
        }
      }
    },
    {
      "from": [
        5,
        0,
        10
      ],
      "to": [
        11,
        16,
        11
      ],
      "faces": {
        "north": {
          "uv": [
            5,
            0,
            11,
            16
          ],
          "texture": "#0"
        },
        "east": {
          "uv": [
            6,
            0,
            5,
            16
          ],
          "texture": "#0"
        },
        "south": {
          "uv": [
            6,
            0,
            0,
            16
          ],
          "texture": "#0"
        },
        "west": {
          "uv": [
            1,
            0,
            0,
            16
          ],
          "texture": "#0"
        },
        "up": {
          "uv": [
            11,
            5,
            5,
            6
          ],
          "rotation": 180,
          "texture": "#0"
        },
        "down": {
          "uv": [
            5,
            11,
            11,
            10
          ],
          "texture": "#0"
        }
      }
    },
    {
      "from": [
        5,
        0,
        5
      ],
      "to": [
        6,
        16,
        11
      ],
      "faces": {
        "north": {
          "uv": [
            11,
            0,
            10,
            16
          ],
          "texture": "#0"
        },
        "east": {
          "uv": [
            5,
            0,
            11,
            16
          ],
          "texture": "#0"
        },
        "south": {
          "uv": [
            1,
            0,
            0,
            16
          ],
          "texture": "#0"
        },
        "west": {
          "uv": [
            6,
            0,
            0,
            16
          ],
          "texture": "#0"
        },
        "up": {
          "uv": [
            6,
            5,
            5,
            11
          ],
          "rotation": 180,
          "texture": "#0"
        },
        "down": {
          "uv": [
            5,
            11,
            6,
            5
          ],
          "texture": "#0"
        }
      }
    },
    {
      "from": [
        6,
        0,
        6
      ],
      "to": [
        7,
        16,
        10
      ],
      "faces": {
        "north": {
          "uv": [
            10,
            0,
            9,
            16
          ],
          "texture": "#0"
        },
        "east": {
          "uv": [
            6,
            0,
            10,
            16
          ],
          "texture": "#0"
        },
        "south": {
          "uv": [
            1,
            0,
            0,
            16
          ],
          "texture": "#0"
        },
        "west": {
          "uv": [
            4,
            0,
            0,
            16
          ],
          "texture": "#0"
        },
        "up": {
          "uv": [
            7,
            6,
            6,
            10
          ],
          "rotation": 180,
          "texture": "#0"
        },
        "down": {
          "uv": [
            6,
            10,
            7,
            6
          ],
          "texture": "#0"
        }
      }
    },
    {
      "from": [
        6,
        0,
        9
      ],
      "to": [
        10,
        16,
        10
      ],
      "faces": {
        "north": {
          "uv": [
            6,
            0,
            10,
            16
          ],
          "texture": "#0"
        },
        "east": {
          "uv": [
            7,
            0,
            6,
            16
          ],
          "texture": "#0"
        },
        "south": {
          "uv": [
            4,
            0,
            0,
            16
          ],
          "texture": "#0"
        },
        "west": {
          "uv": [
            1,
            0,
            0,
            16
          ],
          "texture": "#0"
        },
        "up": {
          "uv": [
            10,
            6,
            6,
            7
          ],
          "rotation": 180,
          "texture": "#0"
        },
        "down": {
          "uv": [
            6,
            10,
            10,
            9
          ],
          "texture": "#0"
        }
      }
    },
    {
      "from": [
        7,
        0,
        7
      ],
      "to": [
        8,
        16,
        9
      ],
      "faces": {
        "north": {
          "uv": [
            9,
            0,
            8,
            16
          ],
          "texture": "#0"
        },
        "east": {
          "uv": [
            7,
            0,
            9,
            16
          ],
          "texture": "#0"
        },
        "south": {
          "uv": [
            1,
            0,
            0,
            16
          ],
          "texture": "#0"
        },
        "west": {
          "uv": [
            2,
            0,
            0,
            16
          ],
          "texture": "#0"
        },
        "up": {
          "uv": [
            8,
            7,
            7,
            9
          ],
          "rotation": 180,
          "texture": "#0"
        },
        "down": {
          "uv": [
            7,
            9,
            8,
            7
          ],
          "texture": "#0"
        }
      }
    },
    {
      "from": [
        3,
        0,
        2
      ],
      "to": [
        11,
        16,
        3
      ],
      "faces": {
        "north": {
          "uv": [
            10.5,
            0,
            14.5,
            8
          ],
          "texture": "#1"
        },
        "east": {
          "uv": [
            6.5,
            0,
            7,
            8
          ],
          "texture": "#1"
        },
        "south": {
          "uv": [
            10.5,
            0,
            14.5,
            8
          ],
          "texture": "#1"
        },
        "west": {
          "uv": [
            0,
            0,
            0.5,
            8
          ],
          "texture": "#1"
        },
        "up": {
          "uv": [
            2,
            1,
            6,
            1.5
          ],
          "texture": "#1"
        },
        "down": {
          "uv": [
            2,
            1,
            6,
            1.5
          ],
          "texture": "#1"
        }
      }
    },
    {
      "from": [
        4,
        0,
        3
      ],
      "to": [
        12,
        16,
        4
      ],
      "faces": {
        "north": {
          "uv": [
            10,
            0,
            14,
            8
          ],
          "texture": "#1"
        },
        "east": {
          "uv": [
            6,
            0,
            6.5,
            8
          ],
          "texture": "#1"
        },
        "south": {
          "uv": [
            10,
            0,
            14,
            8
          ],
          "texture": "#1"
        },
        "west": {
          "uv": [
            0,
            0,
            0.5,
            8
          ],
          "texture": "#1"
        },
        "up": {
          "uv": [
            2.5,
            1.5,
            6.5,
            2
          ],
          "texture": "#1"
        },
        "down": {
          "uv": [
            2.5,
            1.5,
            6.5,
            2
          ],
          "texture": "#1"
        }
      }
    },
    {
      "from": [
        5,
        0,
        4
      ],
      "to": [
        13,
        16,
        5
      ],
      "faces": {
        "north": {
          "uv": [
            9.5,
            0,
            13.5,
            8
          ],
          "texture": "#1"
        },
        "east": {
          "uv": [
            5.5,
            0,
            6,
            8
          ],
          "texture": "#1"
        },
        "south": {
          "uv": [
            9.5,
            0,
            13.5,
            8
          ],
          "texture": "#1"
        },
        "west": {
          "uv": [
            0,
            0,
            0.5,
            8
          ],
          "texture": "#1"
        },
        "up": {
          "uv": [
            3,
            2,
            7,
            2.5
          ],
          "texture": "#1"
        },
        "down": {
          "uv": [
            3,
            2,
            7,
            2.5
          ],
          "texture": "#1"
        }
      }
    },
    {
      "from": [
        6,
        0,
        5
      ],
      "to": [
        14,
        16,
        6
      ],
      "faces": {
        "north": {
          "uv": [
            9,
            0,
            13,
            8
          ],
          "texture": "#1"
        },
        "east": {
          "uv": [
            5,
            0,
            5.5,
            8
          ],
          "texture": "#1"
        },
        "south": {
          "uv": [
            9,
            0,
            13,
            8
          ],
          "texture": "#1"
        },
        "west": {
          "uv": [
            0,
            0,
            0.5,
            8
          ],
          "texture": "#1"
        },
        "up": {
          "uv": [
            3.5,
            2.5,
            7.5,
            3
          ],
          "texture": "#1"
        },
        "down": {
          "uv": [
            3.5,
            2.5,
            7.5,
            3
          ],
          "texture": "#1"
        }
      }
    },
    {
      "from": [
        8,
        0,
        7
      ],
      "to": [
        15,
        16,
        8
      ],
      "faces": {
        "north": {
          "uv": [
            0,
            0,
            3.5,
            8
          ],
          "texture": "#1"
        },
        "east": {
          "uv": [
            0,
            0,
            0.5,
            8
          ],
          "texture": "#1"
        },
        "south": {
          "uv": [
            0,
            0,
            3.5,
            8
          ],
          "texture": "#1"
        },
        "west": {
          "uv": [
            0,
            0,
            0.5,
            8
          ],
          "texture": "#1"
        },
        "up": {
          "uv": [
            4,
            3.5,
            7.5,
            4
          ],
          "texture": "#1"
        },
        "down": {
          "uv": [
            4,
            3.5,
            7.5,
            4
          ],
          "texture": "#1"
        }
      }
    },
    {
      "from": [
        9,
        0,
        8
      ],
      "to": [
        15,
        16,
        9
      ],
      "faces": {
        "north": {
          "uv": [
            0,
            0,
            6,
            16
          ],
          "texture": "#1"
        },
        "east": {
          "uv": [
            0,
            0,
            1,
            16
          ],
          "texture": "#1"
        },
        "south": {
          "uv": [
            0,
            0,
            6,
            16
          ],
          "texture": "#1"
        },
        "west": {
          "uv": [
            0,
            0,
            1,
            16
          ],
          "texture": "#1"
        },
        "up": {
          "uv": [
            4.5,
            4,
            7.5,
            4.5
          ],
          "texture": "#1"
        },
        "down": {
          "uv": [
            4.5,
            4,
            7.5,
            4.5
          ],
          "texture": "#1"
        }
      }
    },
    {
      "from": [
        10,
        0,
        9
      ],
      "to": [
        15,
        16,
        10
      ],
      "faces": {
        "north": {
          "uv": [
            0,
            0,
            5,
            16
          ],
          "texture": "#1"
        },
        "east": {
          "uv": [
            0,
            0,
            1,
            16
          ],
          "texture": "#1"
        },
        "south": {
          "uv": [
            0,
            0,
            5,
            16
          ],
          "texture": "#1"
        },
        "west": {
          "uv": [
            0,
            0,
            1,
            16
          ],
          "texture": "#1"
        },
        "up": {
          "uv": [
            5,
            4.5,
            7.5,
            5
          ],
          "texture": "#1"
        },
        "down": {
          "uv": [
            5,
            4.5,
            7.5,
            5
          ],
          "texture": "#1"
        }
      }
    },
    {
      "from": [
        11,
        0,
        10
      ],
      "to": [
        15,
        16,
        11
      ],
      "faces": {
        "north": {
          "uv": [
            0,
            0,
            4,
            16
          ],
          "texture": "#1"
        },
        "east": {
          "uv": [
            0,
            0,
            1,
            16
          ],
          "texture": "#1"
        },
        "south": {
          "uv": [
            0,
            0,
            4,
            16
          ],
          "texture": "#1"
        },
        "west": {
          "uv": [
            0,
            0,
            1,
            16
          ],
          "texture": "#1"
        },
        "up": {
          "uv": [
            5.5,
            5,
            7.5,
            5.5
          ],
          "texture": "#1"
        },
        "down": {
          "uv": [
            5.5,
            5,
            7.5,
            5.5
          ],
          "texture": "#1"
        }
      }
    },
    {
      "from": [
        12,
        0,
        11
      ],
      "to": [
        15,
        16,
        12
      ],
      "faces": {
        "north": {
          "uv": [
            0,
            0,
            3,
            16
          ],
          "texture": "#1"
        },
        "east": {
          "uv": [
            0,
            0,
            1,
            16
          ],
          "texture": "#1"
        },
        "south": {
          "uv": [
            0,
            0,
            3,
            16
          ],
          "texture": "#1"
        },
        "west": {
          "uv": [
            0,
            0,
            1,
            16
          ],
          "texture": "#1"
        },
        "up": {
          "uv": [
            6,
            5.5,
            7.5,
            6
          ],
          "texture": "#1"
        },
        "down": {
          "uv": [
            6,
            5.5,
            7.5,
            6
          ],
          "texture": "#1"
        }
      }
    },
    {
      "from": [
        13,
        0,
        12
      ],
      "to": [
        15,
        16,
        13
      ],
      "faces": {
        "north": {
          "uv": [
            0,
            0,
            2,
            16
          ],
          "texture": "#1"
        },
        "east": {
          "uv": [
            0,
            0,
            1,
            16
          ],
          "texture": "#1"
        },
        "south": {
          "uv": [
            0,
            0,
            2,
            16
          ],
          "texture": "#1"
        },
        "west": {
          "uv": [
            0,
            0,
            1,
            16
          ],
          "texture": "#1"
        },
        "up": {
          "uv": [
            6.5,
            6,
            7.5,
            6.5
          ],
          "texture": "#1"
        },
        "down": {
          "uv": [
            6.5,
            6,
            7.5,
            6.5
          ],
          "texture": "#1"
        }
      }
    },
    {
      "from": [
        14,
        0,
        13
      ],
      "to": [
        15,
        16,
        14
      ],
      "faces": {
        "north": {
          "uv": [
            0,
            0,
            1,
            16
          ],
          "texture": "#1"
        },
        "east": {
          "uv": [
            0,
            0,
            1,
            16
          ],
          "texture": "#1"
        },
        "south": {
          "uv": [
            0,
            0,
            1,
            16
          ],
          "texture": "#1"
        },
        "west": {
          "uv": [
            0,
            0,
            1,
            16
          ],
          "texture": "#1"
        },
        "up": {
          "uv": [
            7,
            6.5,
            7.5,
            7
          ],
          "texture": "#1"
        },
        "down": {
          "uv": [
            7,
            6.5,
            7.5,
            7
          ],
          "texture": "#1"
        }
      }
    },
    {
      "from": [
        15,
        0,
        7
      ],
      "to": [
        16,
        16,
        15
      ],
      "faces": {
        "north": {
          "uv": [
            8,
            0,
            8.5,
            8
          ],
          "texture": "#1"
        },
        "east": {
          "uv": [
            0.5,
            0,
            4.5,
            8
          ],
          "texture": "#1"
        },
        "south": {
          "uv": [
            4,
            0,
            4.5,
            8
          ],
          "texture": "#1"
        },
        "west": {
          "uv": [
            0.5,
            0,
            4.5,
            8
          ],
          "texture": "#1"
        },
        "up": {
          "uv": [
            7.5,
            3.5,
            8,
            7.5
          ],
          "texture": "#1"
        },
        "down": {
          "uv": [
            0,
            0,
            0.5,
            4
          ],
          "texture": "#1"
        }
      }
    },
    {
      "from": [
        7,
        0,
        6
      ],
      "to": [
        15,
        16,
        7
      ],
      "faces": {
        "north": {
          "uv": [
            8.5,
            0,
            12.5,
            8
          ],
          "texture": "#1"
        },
        "east": {
          "uv": [
            4.5,
            0,
            5,
            8
          ],
          "texture": "#1"
        },
        "south": {
          "uv": [
            8.5,
            0,
            12.5,
            8
          ],
          "texture": "#1"
        },
        "west": {
          "uv": [
            0,
            0,
            0.5,
            8
          ],
          "texture": "#1"
        },
        "up": {
          "uv": [
            4,
            3,
            8,
            3.5
          ],
          "texture": "#1"
        },
        "down": {
          "uv": [
            4,
            3,
            8,
            3.5
          ],
          "texture": "#1"
        }
      }
    },
    {
      "from": [
        2,
        0,
        1
      ],
      "to": [
        10,
        16,
        2
      ],
      "faces": {
        "north": {
          "uv": [
            11,
            0,
            15,
            8
          ],
          "texture": "#1"
        },
        "east": {
          "uv": [
            7,
            0,
            7.5,
            8
          ],
          "texture": "#1"
        },
        "south": {
          "uv": [
            11,
            0,
            15,
            8
          ],
          "texture": "#1"
        },
        "west": {
          "uv": [
            0,
            0,
            0.5,
            8
          ],
          "texture": "#1"
        },
        "up": {
          "uv": [
            1,
            0.5,
            5,
            1
          ],
          "texture": "#1"
        },
        "down": {
          "uv": [
            1,
            0.5,
            5,
            1
          ],
          "texture": "#1"
        }
      }
    },
    {
      "from": [
        1,
        0,
        0
      ],
      "to": [
        9,
        16,
        1
      ],
      "faces": {
        "north": {
          "uv": [
            11.5,
            0,
            15.5,
            8
          ],
          "texture": "#1"
        },
        "east": {
          "uv": [
            7.5,
            0,
            8,
            8
          ],
          "texture": "#1"
        },
        "south": {
          "uv": [
            11.5,
            0,
            15.5,
            8
          ],
          "texture": "#1"
        },
        "west": {
          "uv": [
            0,
            0,
            0.5,
            8
          ],
          "texture": "#1"
        },
        "up": {
          "uv": [
            0.5,
            0,
            4.5,
            0.5
          ],
          "texture": "#1"
        },
        "down": {
          "uv": [
            4.5,
            0,
            0.5,
            0.5
          ],
          "texture": "#1"
        }
      }
    },
    {
      "from": [
        9,
        0,
        0
      ],
      "to": [
        16,
        8,
        1
      ],
      "faces": {
        "north": {
          "uv": [
            0,
            4,
            3.5,
            8
          ],
          "texture": "#1"
        },
        "east": {
          "uv": [
            7.5,
            4,
            8,
            8
          ],
          "texture": "#1"
        },
        "south": {
          "uv": [
            0,
            4,
            3.5,
            8
          ],
          "texture": "#1"
        },
        "west": {
          "uv": [
            0,
            0,
            0.5,
            4
          ],
          "texture": "#1"
        },
        "up": {
          "uv": [
            3.5,
            7.5,
            0,
            8
          ],
          "texture": "#1"
        },
        "down": {
          "uv": [
            0,
            7.5,
            3.5,
            8
          ],
          "texture": "#1"
        }
      }
    },
    {
      "from": [
        10,
        0,
        1
      ],
      "to": [
        16,
        8,
        2
      ],
      "faces": {
        "north": {
          "uv": [
            0,
            0,
            3,
            4
          ],
          "texture": "#1"
        },
        "east": {
          "uv": [
            7,
            4,
            7.5,
            8
          ],
          "texture": "#1"
        },
        "south": {
          "uv": [
            0,
            0,
            3,
            4
          ],
          "texture": "#1"
        },
        "west": {
          "uv": [
            0,
            0,
            0.5,
            4
          ],
          "texture": "#1"
        },
        "up": {
          "uv": [
            3,
            7,
            0,
            7.5
          ],
          "texture": "#1"
        },
        "down": {
          "uv": [
            0,
            7,
            3,
            7.5
          ],
          "texture": "#1"
        }
      }
    },
    {
      "from": [
        11,
        0,
        2
      ],
      "to": [
        16,
        8,
        3
      ],
      "faces": {
        "north": {
          "uv": [
            0,
            0,
            2.5,
            4
          ],
          "texture": "#1"
        },
        "east": {
          "uv": [
            6.5,
            4,
            7,
            8
          ],
          "texture": "#1"
        },
        "south": {
          "uv": [
            0,
            0,
            2.5,
            4
          ],
          "texture": "#1"
        },
        "west": {
          "uv": [
            0,
            0,
            0.5,
            4
          ],
          "texture": "#1"
        },
        "up": {
          "uv": [
            2.5,
            6.5,
            0,
            7
          ],
          "texture": "#1"
        },
        "down": {
          "uv": [
            0,
            6.5,
            2.5,
            7
          ],
          "texture": "#1"
        }
      }
    },
    {
      "from": [
        12,
        0,
        3
      ],
      "to": [
        16,
        8,
        4
      ],
      "faces": {
        "north": {
          "uv": [
            0,
            0,
            2,
            4
          ],
          "texture": "#1"
        },
        "east": {
          "uv": [
            6,
            4,
            6.5,
            8
          ],
          "texture": "#1"
        },
        "south": {
          "uv": [
            0,
            0,
            2,
            4
          ],
          "texture": "#1"
        },
        "west": {
          "uv": [
            0,
            0,
            0.5,
            4
          ],
          "texture": "#1"
        },
        "up": {
          "uv": [
            2,
            6,
            0,
            6.5
          ],
          "texture": "#1"
        },
        "down": {
          "uv": [
            0,
            6,
            2,
            6.5
          ],
          "texture": "#1"
        }
      }
    },
    {
      "from": [
        13,
        0,
        4
      ],
      "to": [
        16,
        8,
        5
      ],
      "faces": {
        "north": {
          "uv": [
            0,
            0,
            1.5,
            4
          ],
          "texture": "#1"
        },
        "east": {
          "uv": [
            5.5,
            4,
            6,
            8
          ],
          "texture": "#1"
        },
        "south": {
          "uv": [
            0,
            0,
            1.5,
            4
          ],
          "texture": "#1"
        },
        "west": {
          "uv": [
            0,
            0,
            0.5,
            4
          ],
          "texture": "#1"
        },
        "up": {
          "uv": [
            1.5,
            5.5,
            0,
            6
          ],
          "texture": "#1"
        },
        "down": {
          "uv": [
            0,
            5.5,
            1.5,
            6
          ],
          "texture": "#1"
        }
      }
    },
    {
      "from": [
        14,
        0,
        5
      ],
      "to": [
        16,
        8,
        6
      ],
      "faces": {
        "north": {
          "uv": [
            0,
            0,
            1,
            4
          ],
          "texture": "#1"
        },
        "east": {
          "uv": [
            5,
            4,
            5.5,
            8
          ],
          "texture": "#1"
        },
        "south": {
          "uv": [
            0,
            0,
            1,
            4
          ],
          "texture": "#1"
        },
        "west": {
          "uv": [
            0,
            0,
            0.5,
            4
          ],
          "texture": "#1"
        },
        "up": {
          "uv": [
            1,
            5,
            0,
            5.5
          ],
          "texture": "#1"
        },
        "down": {
          "uv": [
            0,
            5,
            1,
            5.5
          ],
          "texture": "#1"
        }
      }
    },
    {
      "from": [
        15,
        0,
        6
      ],
      "to": [
        16,
        8,
        7
      ],
      "faces": {
        "north": {
          "uv": [
            4.5,
            4,
            5,
            8
          ],
          "texture": "#1"
        },
        "east": {
          "uv": [
            4.5,
            4,
            5,
            8
          ],
          "texture": "#1"
        },
        "south": {
          "uv": [
            4.5,
            4,
            5,
            8
          ],
          "texture": "#1"
        },
        "west": {
          "uv": [
            4.5,
            4,
            5,
            8
          ],
          "texture": "#1"
        },
        "up": {
          "uv": [
            0.5,
            4.5,
            0,
            5
          ],
          "texture": "#1"
        },
        "down": {
          "uv": [
            0,
            4.5,
            0.5,
            5
          ],
          "texture": "#1"
        }
      }
    }
  ],
  "display": {
    "thirdperson_righthand": {
      "scale": [
        0.18,
        0.18,
        0.18
      ]
    },
    "thirdperson_lefthand": {
      "scale": [
        0.18,
        0.18,
        0.18
      ]
    },
    "firstperson_righthand": {
      "translation": [
        1.75,
        0,
        0
      ],
      "scale": [
        0.32,
        0.32,
        0.32
      ]
    },
    "firstperson_lefthand": {
      "translation": [
        1.75,
        0,
        0
      ],
      "scale": [
        0.32,
        0.32,
        0.32
      ]
    },
    "ground": {
      "translation": [
        0,
        -1.25,
        0
      ],
      "scale": [
        0.29,
        0.29,
        0.29
      ]
    },
    "gui": {
      "rotation": [
        22.5,
        -45,
        0
      ],
      "scale": [
        0.55,
        0.55,
        0.55
      ]
    },
    "fixed": {
      "translation": [
        0,
        0,
        -4
      ],
      "scale": [
        0.5,
        0.5,
        0.5
      ]
    }
  },
  "groups": [
    {
      "name": "diag_polished_andesite",
      "origin": [
        0,
        0,
        0
      ],
      "color": 0,
      "children": [
        0,
        1,
        2,
        3,
        4,
        5,
        6,
        7,
        8,
        9,
        10,
        11,
        12,
        13,
        14,
        15
      ]
    },
    {
      "name": "stairs",
      "origin": [
        0,
        0,
        0
      ],
      "color": 0,
      "children": [
        {
          "name": "group",
          "origin": [
            0,
            0,
            0
          ],
          "color": 0,
          "children": [
            16,
            17,
            18,
            19,
            20,
            21,
            22,
            23,
            24,
            25,
            26,
            27,
            28,
            29,
            30
          ]
        },
        {
          "name": "group",
          "origin": [
            0,
            0,
            0
          ],
          "color": 0,
          "children": [
            31,
            32,
            33,
            34,
            35,
            36,
            37
          ]
        }
      ]
    }
  ]
}