{
  "credit": "Made with Blockbench",
  "texture_size": [
    32,
    32
  ],
  "elements": [
    {
      "from": [
        0,
        0,
        7
      ],
      "to": [
        16,
        16,
        8
      ],
      "faces": {
        "north": {
          "uv": [
            0,
            0,
            8,
            8
          ],
          "texture": "#1"
        },
        "east": {
          "uv": [
            0,
            0,
            0.5,
            8
          ],
          "texture": "#1"
        },
        "south": {
          "uv": [
            0,
            0,
            8,
            8
          ],
          "texture": "#1"
        },
        "west": {
          "uv": [
            7.5,
            0,
            8,
            8
          ],
          "texture": "#1"
        },
        "up": {
          "uv": [
            0,
            0,
            8,
            0.5
          ],
          "texture": "#1"
        },
        "down": {
          "uv": [
            0,
            0,
            8,
            0.5
          ],
          "texture": "#1"
        }
      }
    },
    {
      "from": [
        0,
        0,
        6
      ],
      "to": [
        14,
        16,
        7
      ],
      "faces": {
        "north": {
          "uv": [
            1,
            0,
            8,
            8
          ],
          "texture": "#1"
        },
        "east": {
          "uv": [
            0,
            0,
            0.5,
            8
          ],
          "texture": "#1"
        },
        "south": {
          "uv": [
            0,
            0,
            7,
            8
          ],
          "texture": "#1"
        },
        "west": {
          "uv": [
            7,
            0,
            7.5,
            8
          ],
          "texture": "#1"
        },
        "up": {
          "uv": [
            0,
            0.5,
            7,
            1
          ],
          "texture": "#1"
        },
        "down": {
          "uv": [
            0,
            0,
            7,
            0.5
          ],
          "texture": "#1"
        }
      }
    },
    {
      "from": [
        0,
        0,
        5
      ],
      "to": [
        12,
        16,
        6
      ],
      "faces": {
        "north": {
          "uv": [
            2,
            0,
            8,
            8
          ],
          "texture": "#1"
        },
        "east": {
          "uv": [
            0,
            0,
            0.5,
            8
          ],
          "texture": "#1"
        },
        "south": {
          "uv": [
            0,
            0,
            6,
            8
          ],
          "texture": "#1"
        },
        "west": {
          "uv": [
            6.5,
            0,
            7,
            8
          ],
          "texture": "#1"
        },
        "up": {
          "uv": [
            0,
            1,
            6,
            1.5
          ],
          "texture": "#1"
        },
        "down": {
          "uv": [
            0,
            0,
            6,
            0.5
          ],
          "texture": "#1"
        }
      }
    },
    {
      "from": [
        0,
        0,
        4
      ],
      "to": [
        10,
        16,
        5
      ],
      "faces": {
        "north": {
          "uv": [
            3,
            0,
            8,
            8
          ],
          "texture": "#1"
        },
        "east": {
          "uv": [
            0,
            0,
            0.5,
            8
          ],
          "texture": "#1"
        },
        "south": {
          "uv": [
            0,
            0,
            5,
            8
          ],
          "texture": "#1"
        },
        "west": {
          "uv": [
            6,
            0,
            6.5,
            8
          ],
          "texture": "#1"
        },
        "up": {
          "uv": [
            0,
            1.5,
            5,
            2
          ],
          "texture": "#1"
        },
        "down": {
          "uv": [
            0,
            0,
            5,
            0.5
          ],
          "texture": "#1"
        }
      }
    },
    {
      "from": [
        0,
        0,
        3
      ],
      "to": [
        8,
        16,
        4
      ],
      "faces": {
        "north": {
          "uv": [
            4,
            0,
            8,
            8
          ],
          "texture": "#1"
        },
        "east": {
          "uv": [
            0,
            0,
            0.5,
            8
          ],
          "texture": "#1"
        },
        "south": {
          "uv": [
            0,
            0,
            4,
            8
          ],
          "texture": "#1"
        },
        "west": {
          "uv": [
            5.5,
            0,
            6,
            8
          ],
          "texture": "#1"
        },
        "up": {
          "uv": [
            0,
            2,
            4,
            2.5
          ],
          "texture": "#1"
        },
        "down": {
          "uv": [
            0,
            0,
            4,
            0.5
          ],
          "texture": "#1"
        }
      }
    },
    {
      "from": [
        0,
        0,
        2
      ],
      "to": [
        6,
        16,
        3
      ],
      "faces": {
        "north": {
          "uv": [
            5,
            0,
            8,
            8
          ],
          "texture": "#1"
        },
        "east": {
          "uv": [
            0,
            0,
            0.5,
            8
          ],
          "texture": "#1"
        },
        "south": {
          "uv": [
            0,
            0,
            3,
            8
          ],
          "texture": "#1"
        },
        "west": {
          "uv": [
            5,
            0,
            5.5,
            8
          ],
          "texture": "#1"
        },
        "up": {
          "uv": [
            0,
            2.5,
            3,
            3
          ],
          "texture": "#1"
        },
        "down": {
          "uv": [
            0,
            0,
            3,
            0.5
          ],
          "texture": "#1"
        }
      }
    },
    {
      "from": [
        0,
        0,
        1
      ],
      "to": [
        4,
        16,
        2
      ],
      "faces": {
        "north": {
          "uv": [
            6,
            0,
            8,
            8
          ],
          "texture": "#1"
        },
        "east": {
          "uv": [
            0,
            0,
            0.5,
            8
          ],
          "texture": "#1"
        },
        "south": {
          "uv": [
            0,
            0,
            2,
            8
          ],
          "texture": "#1"
        },
        "west": {
          "uv": [
            4.5,
            0,
            5,
            8
          ],
          "texture": "#1"
        },
        "up": {
          "uv": [
            0,
            3,
            2,
            3.5
          ],
          "texture": "#1"
        },
        "down": {
          "uv": [
            0,
            0,
            2,
            0.5
          ],
          "texture": "#1"
        }
      }
    },
    {
      "from": [
        0,
        0,
        0
      ],
      "to": [
        2,
        16,
        1
      ],
      "faces": {
        "north": {
          "uv": [
            7,
            0,
            8,
            8
          ],
          "texture": "#1"
        },
        "east": {
          "uv": [
            0,
            0,
            0.5,
            8
          ],
          "texture": "#1"
        },
        "south": {
          "uv": [
            0,
            0,
            1,
            8
          ],
          "texture": "#1"
        },
        "west": {
          "uv": [
            4,
            0,
            4.5,
            8
          ],
          "texture": "#1"
        },
        "up": {
          "uv": [
            0,
            3.5,
            1,
            4
          ],
          "texture": "#1"
        },
        "down": {
          "uv": [
            0,
            0,
            1,
            0.5
          ],
          "texture": "#1"
        }
      }
    },
    {
      "from": [
        2,
        0,
        8
      ],
      "to": [
        16,
        16,
        9
      ],
      "faces": {
        "north": {
          "uv": [
            0,
            0,
            7,
            8
          ],
          "texture": "#1"
        },
        "east": {
          "uv": [
            7.5,
            0,
            8,
            8
          ],
          "texture": "#1"
        },
        "south": {
          "uv": [
            1,
            0,
            8,
            8
          ],
          "texture": "#1"
        },
        "west": {
          "uv": [
            0,
            0,
            0.5,
            8
          ],
          "texture": "#1"
        },
        "up": {
          "uv": [
            0,
            7.5,
            7,
            8
          ],
          "rotation": 180,
          "texture": "#1"
        },
        "down": {
          "uv": [
            0,
            0,
            7,
            0.5
          ],
          "rotation": 180,
          "texture": "#1"
        }
      }
    },
    {
      "from": [
        4,
        0,
        9
      ],
      "to": [
        16,
        16,
        10
      ],
      "faces": {
        "north": {
          "uv": [
            0,
            0,
            6,
            8
          ],
          "texture": "#1"
        },
        "east": {
          "uv": [
            7,
            0,
            7.5,
            8
          ],
          "texture": "#1"
        },
        "south": {
          "uv": [
            2,
            0,
            8,
            8
          ],
          "texture": "#1"
        },
        "west": {
          "uv": [
            0.5,
            0,
            1,
            8
          ],
          "texture": "#1"
        },
        "up": {
          "uv": [
            0,
            7,
            6,
            7.5
          ],
          "rotation": 180,
          "texture": "#1"
        },
        "down": {
          "uv": [
            0,
            0,
            6,
            0.5
          ],
          "rotation": 180,
          "texture": "#1"
        }
      }
    },
    {
      "from": [
        6,
        0,
        10
      ],
      "to": [
        16,
        16,
        11
      ],
      "faces": {
        "north": {
          "uv": [
            0,
            0,
            5,
            8
          ],
          "texture": "#1"
        },
        "east": {
          "uv": [
            6.5,
            0,
            7,
            8
          ],
          "texture": "#1"
        },
        "south": {
          "uv": [
            3,
            0,
            8,
            8
          ],
          "texture": "#1"
        },
        "west": {
          "uv": [
            1,
            0,
            1.5,
            8
          ],
          "texture": "#1"
        },
        "up": {
          "uv": [
            0,
            6.5,
            5,
            7
          ],
          "rotation": 180,
          "texture": "#1"
        },
        "down": {
          "uv": [
            0,
            0,
            5,
            0.5
          ],
          "rotation": 180,
          "texture": "#1"
        }
      }
    },
    {
      "from": [
        8,
        0,
        11
      ],
      "to": [
        16,
        16,
        12
      ],
      "faces": {
        "north": {
          "uv": [
            0,
            0,
            4,
            8
          ],
          "texture": "#1"
        },
        "east": {
          "uv": [
            6,
            0,
            6.5,
            8
          ],
          "texture": "#1"
        },
        "south": {
          "uv": [
            4,
            0,
            8,
            8
          ],
          "texture": "#1"
        },
        "west": {
          "uv": [
            1.5,
            0,
            2,
            8
          ],
          "texture": "#1"
        },
        "up": {
          "uv": [
            0,
            6,
            4,
            6.5
          ],
          "rotation": 180,
          "texture": "#1"
        },
        "down": {
          "uv": [
            0,
            0,
            4,
            0.5
          ],
          "rotation": 180,
          "texture": "#1"
        }
      }
    },
    {
      "from": [
        10,
        0,
        12
      ],
      "to": [
        16,
        16,
        13
      ],
      "faces": {
        "north": {
          "uv": [
            0,
            0,
            3,
            8
          ],
          "texture": "#1"
        },
        "east": {
          "uv": [
            5.5,
            0,
            6,
            8
          ],
          "texture": "#1"
        },
        "south": {
          "uv": [
            5,
            0,
            8,
            8
          ],
          "texture": "#1"
        },
        "west": {
          "uv": [
            2,
            0,
            2.5,
            8
          ],
          "texture": "#1"
        },
        "up": {
          "uv": [
            0,
            0,
            3,
            0.5
          ],
          "rotation": 180,
          "texture": "#1"
        },
        "down": {
          "uv": [
            0,
            0,
            3,
            0.5
          ],
          "rotation": 180,
          "texture": "#1"
        }
      }
    },
    {
      "from": [
        12,
        0,
        13
      ],
      "to": [
        16,
        16,
        14
      ],
      "faces": {
        "north": {
          "uv": [
            0,
            0,
            2,
            8
          ],
          "texture": "#1"
        },
        "east": {
          "uv": [
            5,
            0,
            5.5,
            8
          ],
          "texture": "#1"
        },
        "south": {
          "uv": [
            6,
            0,
            8,
            8
          ],
          "texture": "#1"
        },
        "west": {
          "uv": [
            2.5,
            0,
            3,
            8
          ],
          "texture": "#1"
        },
        "up": {
          "uv": [
            0,
            5,
            2,
            5.5
          ],
          "rotation": 180,
          "texture": "#1"
        },
        "down": {
          "uv": [
            0,
            0,
            2,
            0.5
          ],
          "rotation": 180,
          "texture": "#1"
        }
      }
    },
    {
      "from": [
        14,
        0,
        14
      ],
      "to": [
        16,
        16,
        15
      ],
      "faces": {
        "north": {
          "uv": [
            0,
            0,
            1,
            8
          ],
          "texture": "#1"
        },
        "east": {
          "uv": [
            4.5,
            0,
            5,
            8
          ],
          "texture": "#1"
        },
        "south": {
          "uv": [
            7,
            0,
            8,
            8
          ],
          "texture": "#1"
        },
        "west": {
          "uv": [
            3,
            0,
            3.5,
            8
          ],
          "texture": "#1"
        },
        "up": {
          "uv": [
            0,
            4.5,
            1,
            5
          ],
          "rotation": 180,
          "texture": "#1"
        },
        "down": {
          "uv": [
            0,
            0,
            1,
            0.5
          ],
          "rotation": 180,
          "texture": "#1"
        }
      }
    },
    {
      "from": [
        0,
        0,
        -8
      ],
      "to": [
        2,
        8,
        0
      ],
      "faces": {
        "north": {
          "uv": [
            7,
            4,
            8,
            8
          ],
          "texture": "#1"
        },
        "east": {
          "uv": [
            4,
            4,
            8,
            8
          ],
          "texture": "#1"
        },
        "south": {
          "uv": [
            0,
            0,
            1,
            4
          ],
          "texture": "#1"
        },
        "west": {
          "uv": [
            0,
            4,
            4,
            8
          ],
          "texture": "#1"
        },
        "up": {
          "uv": [
            0,
            4,
            1,
            8
          ],
          "texture": "#1"
        },
        "down": {
          "uv": [
            0,
            0,
            1,
            4
          ],
          "texture": "#1"
        }
      }
    },
    {
      "from": [
        2,
        0,
        -7
      ],
      "to": [
        4,
        8,
        1
      ],
      "faces": {
        "north": {
          "uv": [
            6,
            4,
            7,
            8
          ],
          "texture": "#1"
        },
        "east": {
          "uv": [
            3.5,
            4,
            7.5,
            8
          ],
          "texture": "#1"
        },
        "south": {
          "uv": [
            0,
            0,
            1,
            4
          ],
          "texture": "#1"
        },
        "west": {
          "uv": [
            0,
            0,
            4,
            4
          ],
          "texture": "#1"
        },
        "up": {
          "uv": [
            1,
            4.5,
            2,
            8.5
          ],
          "texture": "#1"
        },
        "down": {
          "uv": [
            0,
            0,
            1,
            4
          ],
          "texture": "#1"
        }
      }
    },
    {
      "from": [
        4,
        0,
        -6
      ],
      "to": [
        6,
        8,
        2
      ],
      "faces": {
        "north": {
          "uv": [
            5,
            4,
            6,
            8
          ],
          "texture": "#1"
        },
        "east": {
          "uv": [
            3,
            4,
            7,
            8
          ],
          "texture": "#1"
        },
        "south": {
          "uv": [
            0,
            0,
            1,
            4
          ],
          "texture": "#1"
        },
        "west": {
          "uv": [
            0,
            0,
            4,
            4
          ],
          "texture": "#1"
        },
        "up": {
          "uv": [
            2,
            5,
            3,
            9
          ],
          "texture": "#1"
        },
        "down": {
          "uv": [
            0,
            0,
            1,
            4
          ],
          "texture": "#1"
        }
      }
    },
    {
      "from": [
        6,
        0,
        -5
      ],
      "to": [
        8,
        8,
        3
      ],
      "faces": {
        "north": {
          "uv": [
            4,
            4,
            5,
            8
          ],
          "texture": "#1"
        },
        "east": {
          "uv": [
            2.5,
            4,
            6.5,
            8
          ],
          "texture": "#1"
        },
        "south": {
          "uv": [
            0,
            0,
            1,
            4
          ],
          "texture": "#1"
        },
        "west": {
          "uv": [
            0,
            0,
            4,
            4
          ],
          "texture": "#1"
        },
        "up": {
          "uv": [
            3,
            5.5,
            4,
            9.5
          ],
          "texture": "#1"
        },
        "down": {
          "uv": [
            0,
            0,
            1,
            4
          ],
          "texture": "#1"
        }
      }
    },
    {
      "from": [
        8,
        0,
        -4
      ],
      "to": [
        10,
        8,
        4
      ],
      "faces": {
        "north": {
          "uv": [
            3,
            4,
            4,
            8
          ],
          "texture": "#1"
        },
        "east": {
          "uv": [
            2,
            4,
            6,
            8
          ],
          "texture": "#1"
        },
        "south": {
          "uv": [
            0,
            0,
            1,
            4
          ],
          "texture": "#1"
        },
        "west": {
          "uv": [
            0,
            0,
            4,
            4
          ],
          "texture": "#1"
        },
        "up": {
          "uv": [
            4,
            6,
            5,
            10
          ],
          "texture": "#1"
        },
        "down": {
          "uv": [
            0,
            0,
            1,
            4
          ],
          "texture": "#1"
        }
      }
    },
    {
      "from": [
        10,
        0,
        -3
      ],
      "to": [
        12,
        8,
        5
      ],
      "faces": {
        "north": {
          "uv": [
            2,
            4,
            3,
            8
          ],
          "texture": "#1"
        },
        "east": {
          "uv": [
            1.5,
            4,
            5.5,
            8
          ],
          "texture": "#1"
        },
        "south": {
          "uv": [
            0,
            0,
            1,
            4
          ],
          "texture": "#1"
        },
        "west": {
          "uv": [
            0,
            0,
            4,
            4
          ],
          "texture": "#1"
        },
        "up": {
          "uv": [
            5,
            6.5,
            6,
            10.5
          ],
          "texture": "#1"
        },
        "down": {
          "uv": [
            0,
            0,
            1,
            4
          ],
          "texture": "#1"
        }
      }
    },
    {
      "from": [
        12,
        0,
        -2
      ],
      "to": [
        14,
        8,
        6
      ],
      "faces": {
        "north": {
          "uv": [
            1,
            4,
            2,
            8
          ],
          "texture": "#1"
        },
        "east": {
          "uv": [
            1,
            4,
            5,
            8
          ],
          "texture": "#1"
        },
        "south": {
          "uv": [
            0,
            0,
            1,
            4
          ],
          "texture": "#1"
        },
        "west": {
          "uv": [
            0,
            0,
            4,
            4
          ],
          "texture": "#1"
        },
        "up": {
          "uv": [
            6,
            7,
            7,
            11
          ],
          "texture": "#1"
        },
        "down": {
          "uv": [
            0,
            0,
            1,
            4
          ],
          "texture": "#1"
        }
      }
    },
    {
      "from": [
        14,
        0,
        -1
      ],
      "to": [
        16,
        8,
        7
      ],
      "faces": {
        "north": {
          "uv": [
            0,
            4,
            1,
            8
          ],
          "texture": "#1"
        },
        "east": {
          "uv": [
            0.5,
            4,
            4.5,
            8
          ],
          "texture": "#1"
        },
        "south": {
          "uv": [
            0,
            0,
            1,
            4
          ],
          "texture": "#1"
        },
        "west": {
          "uv": [
            0,
            0,
            4,
            4
          ],
          "texture": "#1"
        },
        "up": {
          "uv": [
            7,
            7.5,
            8,
            11.5
          ],
          "texture": "#1"
        },
        "down": {
          "uv": [
            0,
            0,
            1,
            4
          ],
          "texture": "#1"
        }
      }
    }
  ],
  "display": {
    "thirdperson_righthand": {
      "rotation": [
        90,
        45,
        0
      ],
      "translation": [
        -1.25,
        1.25,
        0
      ],
      "scale": [
        0.19,
        0.19,
        0.19
      ]
    },
    "thirdperson_lefthand": {
      "rotation": [
        90,
        -45,
        0
      ],
      "translation": [
        1.25,
        1.25,
        0
      ],
      "scale": [
        0.19,
        0.19,
        0.19
      ]
    },
    "firstperson_righthand": {
      "translation": [
        1.75,
        2.25,
        0
      ],
      "scale": [
        0.26,
        0.26,
        0.26
      ]
    },
    "firstperson_lefthand": {
      "translation": [
        1.75,
        2.25,
        0
      ],
      "scale": [
        0.26,
        0.26,
        0.26
      ]
    },
    "ground": {
      "translation": [
        0,
        -1.75,
        1
      ],
      "scale": [
        0.25,
        0.25,
        0.25
      ]
    },
    "gui": {
      "rotation": [
        45,
        -135,
        0
      ],
      "translation": [
        -1.25,
        1.25,
        0
      ],
      "scale": [
        0.49,
        0.49,
        0.49
      ]
    },
    "head": {
      "translation": [
        0,
        8.5,
        1.5
      ],
      "scale": [
        0.25391,
        0.25391,
        0.25391
      ]
    },
    "fixed": {
      "rotation": [
        0,
        25,
        0
      ],
      "translation": [
        0.25,
        0,
        -1.25
      ],
      "scale": [
        0.55,
        0.55,
        0.55
      ]
    }
  }
}