{
  "credit": "Made with Blockbench",
  "texture_size": [
    32,
    32
  ],
  "elements": [
    {
      "from": [
        0,
        0,
        15
      ],
      "to": [
        2,
        8,
        23
      ],
      "rotation": {
        "angle": 0,
        "axis": "y",
        "origin": [
          16,
          0,
          0
        ]
      },
      "faces": {
        "north": {
          "uv": [
            1,
            4,
            0,
            8
          ],
          "texture": "#0"
        },
        "east": {
          "uv": [
            4,
            0,
            0,
            4
          ],
          "texture": "#0"
        },
        "south": {
          "uv": [
            1,
            0,
            0,
            4
          ],
          "texture": "#0"
        },
        "west": {
          "uv": [
            4.5,
            4,
            0.5,
            8
          ],
          "texture": "#0"
        },
        "up": {
          "uv": [
            8,
            7.5,
            7,
            11.5
          ],
          "texture": "#0"
        },
        "down": {
          "uv": [
            1,
            0,
            0,
            4
          ],
          "texture": "#0"
        }
      }
    },
    {
      "from": [
        2,
        0,
        14
      ],
      "to": [
        4,
        8,
        22
      ],
      "rotation": {
        "angle": 0,
        "axis": "y",
        "origin": [
          16,
          0,
          0
        ]
      },
      "faces": {
        "north": {
          "uv": [
            2,
            4,
            1,
            8
          ],
          "texture": "#0"
        },
        "east": {
          "uv": [
            4,
            0,
            0,
            4
          ],
          "texture": "#0"
        },
        "south": {
          "uv": [
            1,
            0,
            0,
            4
          ],
          "texture": "#0"
        },
        "west": {
          "uv": [
            5,
            4,
            1,
            8
          ],
          "texture": "#0"
        },
        "up": {
          "uv": [
            7,
            7,
            6,
            11
          ],
          "texture": "#0"
        },
        "down": {
          "uv": [
            1,
            0,
            0,
            4
          ],
          "texture": "#0"
        }
      }
    },
    {
      "from": [
        4,
        0,
        13
      ],
      "to": [
        6,
        8,
        21
      ],
      "rotation": {
        "angle": 0,
        "axis": "y",
        "origin": [
          16,
          0,
          0
        ]
      },
      "faces": {
        "north": {
          "uv": [
            3,
            4,
            2,
            8
          ],
          "texture": "#0"
        },
        "east": {
          "uv": [
            4,
            0,
            0,
            4
          ],
          "texture": "#0"
        },
        "south": {
          "uv": [
            1,
            0,
            0,
            4
          ],
          "texture": "#0"
        },
        "west": {
          "uv": [
            5.5,
            4,
            1.5,
            8
          ],
          "texture": "#0"
        },
        "up": {
          "uv": [
            6,
            6.5,
            5,
            10.5
          ],
          "texture": "#0"
        },
        "down": {
          "uv": [
            1,
            0,
            0,
            4
          ],
          "texture": "#0"
        }
      }
    },
    {
      "from": [
        6,
        0,
        12
      ],
      "to": [
        8,
        8,
        20
      ],
      "rotation": {
        "angle": 0,
        "axis": "y",
        "origin": [
          16,
          0,
          0
        ]
      },
      "faces": {
        "north": {
          "uv": [
            4,
            4,
            3,
            8
          ],
          "texture": "#0"
        },
        "east": {
          "uv": [
            4,
            0,
            0,
            4
          ],
          "texture": "#0"
        },
        "south": {
          "uv": [
            1,
            0,
            0,
            4
          ],
          "texture": "#0"
        },
        "west": {
          "uv": [
            6,
            4,
            2,
            8
          ],
          "texture": "#0"
        },
        "up": {
          "uv": [
            5,
            6,
            4,
            10
          ],
          "texture": "#0"
        },
        "down": {
          "uv": [
            1,
            0,
            0,
            4
          ],
          "texture": "#0"
        }
      }
    },
    {
      "from": [
        8,
        0,
        11
      ],
      "to": [
        10,
        8,
        19
      ],
      "rotation": {
        "angle": 0,
        "axis": "y",
        "origin": [
          16,
          0,
          0
        ]
      },
      "faces": {
        "north": {
          "uv": [
            5,
            4,
            4,
            8
          ],
          "texture": "#0"
        },
        "east": {
          "uv": [
            4,
            0,
            0,
            4
          ],
          "texture": "#0"
        },
        "south": {
          "uv": [
            1,
            0,
            0,
            4
          ],
          "texture": "#0"
        },
        "west": {
          "uv": [
            6.5,
            4,
            2.5,
            8
          ],
          "texture": "#0"
        },
        "up": {
          "uv": [
            4,
            5.5,
            3,
            9.5
          ],
          "texture": "#0"
        },
        "down": {
          "uv": [
            1,
            0,
            0,
            4
          ],
          "texture": "#0"
        }
      }
    },
    {
      "from": [
        10,
        0,
        10
      ],
      "to": [
        12,
        8,
        18
      ],
      "rotation": {
        "angle": 0,
        "axis": "y",
        "origin": [
          16,
          0,
          0
        ]
      },
      "faces": {
        "north": {
          "uv": [
            6,
            4,
            5,
            8
          ],
          "texture": "#0"
        },
        "east": {
          "uv": [
            4,
            0,
            0,
            4
          ],
          "texture": "#0"
        },
        "south": {
          "uv": [
            1,
            0,
            0,
            4
          ],
          "texture": "#0"
        },
        "west": {
          "uv": [
            7,
            4,
            3,
            8
          ],
          "texture": "#0"
        },
        "up": {
          "uv": [
            3,
            5,
            2,
            9
          ],
          "texture": "#0"
        },
        "down": {
          "uv": [
            1,
            0,
            0,
            4
          ],
          "texture": "#0"
        }
      }
    },
    {
      "from": [
        12,
        0,
        9
      ],
      "to": [
        14,
        8,
        17
      ],
      "rotation": {
        "angle": 0,
        "axis": "y",
        "origin": [
          16,
          0,
          0
        ]
      },
      "faces": {
        "north": {
          "uv": [
            7,
            4,
            6,
            8
          ],
          "texture": "#0"
        },
        "east": {
          "uv": [
            4,
            0,
            0,
            4
          ],
          "texture": "#0"
        },
        "south": {
          "uv": [
            1,
            0,
            0,
            4
          ],
          "texture": "#0"
        },
        "west": {
          "uv": [
            7.5,
            4,
            3.5,
            8
          ],
          "texture": "#0"
        },
        "up": {
          "uv": [
            2,
            4.5,
            1,
            8.5
          ],
          "texture": "#0"
        },
        "down": {
          "uv": [
            1,
            0,
            0,
            4
          ],
          "texture": "#0"
        }
      }
    },
    {
      "from": [
        14,
        0,
        8
      ],
      "to": [
        16,
        8,
        16
      ],
      "rotation": {
        "angle": 0,
        "axis": "y",
        "origin": [
          16,
          0,
          0
        ]
      },
      "faces": {
        "north": {
          "uv": [
            8,
            4,
            7,
            8
          ],
          "texture": "#0"
        },
        "east": {
          "uv": [
            4,
            4,
            0,
            8
          ],
          "texture": "#0"
        },
        "south": {
          "uv": [
            1,
            0,
            0,
            4
          ],
          "texture": "#0"
        },
        "west": {
          "uv": [
            8,
            4,
            4,
            8
          ],
          "texture": "#0"
        },
        "up": {
          "uv": [
            1,
            4,
            0,
            8
          ],
          "texture": "#0"
        },
        "down": {
          "uv": [
            1,
            0,
            0,
            4
          ],
          "texture": "#0"
        }
      }
    },
    {
      "from": [
        0,
        0,
        30
      ],
      "to": [
        2,
        16,
        31
      ],
      "rotation": {
        "angle": 0,
        "axis": "y",
        "origin": [
          16,
          0,
          0
        ]
      },
      "faces": {
        "north": {
          "uv": [
            1,
            0,
            0,
            8
          ],
          "texture": "#0"
        },
        "east": {
          "uv": [
            3.5,
            0,
            3,
            8
          ],
          "texture": "#0"
        },
        "south": {
          "uv": [
            8,
            0,
            7,
            8
          ],
          "texture": "#0"
        },
        "west": {
          "uv": [
            5,
            0,
            4.5,
            8
          ],
          "texture": "#0"
        },
        "up": {
          "uv": [
            1,
            4.5,
            0,
            5
          ],
          "rotation": 180,
          "texture": "#0"
        },
        "down": {
          "uv": [
            1,
            0,
            0,
            0.5
          ],
          "rotation": 180,
          "texture": "#0"
        }
      }
    },
    {
      "from": [
        0,
        0,
        29
      ],
      "to": [
        4,
        16,
        30
      ],
      "rotation": {
        "angle": 0,
        "axis": "y",
        "origin": [
          16,
          0,
          0
        ]
      },
      "faces": {
        "north": {
          "uv": [
            2,
            0,
            0,
            8
          ],
          "texture": "#0"
        },
        "east": {
          "uv": [
            3,
            0,
            2.5,
            8
          ],
          "texture": "#0"
        },
        "south": {
          "uv": [
            8,
            0,
            6,
            8
          ],
          "texture": "#0"
        },
        "west": {
          "uv": [
            5.5,
            0,
            5,
            8
          ],
          "texture": "#0"
        },
        "up": {
          "uv": [
            2,
            5,
            0,
            5.5
          ],
          "rotation": 180,
          "texture": "#0"
        },
        "down": {
          "uv": [
            2,
            0,
            0,
            0.5
          ],
          "rotation": 180,
          "texture": "#0"
        }
      }
    },
    {
      "from": [
        0,
        0,
        28
      ],
      "to": [
        6,
        16,
        29
      ],
      "rotation": {
        "angle": 0,
        "axis": "y",
        "origin": [
          16,
          0,
          0
        ]
      },
      "faces": {
        "north": {
          "uv": [
            3,
            0,
            0,
            8
          ],
          "texture": "#0"
        },
        "east": {
          "uv": [
            2.5,
            0,
            2,
            8
          ],
          "texture": "#0"
        },
        "south": {
          "uv": [
            8,
            0,
            5,
            8
          ],
          "texture": "#0"
        },
        "west": {
          "uv": [
            6,
            0,
            5.5,
            8
          ],
          "texture": "#0"
        },
        "up": {
          "uv": [
            3,
            0,
            0,
            0.5
          ],
          "rotation": 180,
          "texture": "#0"
        },
        "down": {
          "uv": [
            3,
            0,
            0,
            0.5
          ],
          "rotation": 180,
          "texture": "#0"
        }
      }
    },
    {
      "from": [
        0,
        0,
        27
      ],
      "to": [
        8,
        16,
        28
      ],
      "rotation": {
        "angle": 0,
        "axis": "y",
        "origin": [
          16,
          0,
          0
        ]
      },
      "faces": {
        "north": {
          "uv": [
            4,
            0,
            0,
            8
          ],
          "texture": "#0"
        },
        "east": {
          "uv": [
            2,
            0,
            1.5,
            8
          ],
          "texture": "#0"
        },
        "south": {
          "uv": [
            8,
            0,
            4,
            8
          ],
          "texture": "#0"
        },
        "west": {
          "uv": [
            6.5,
            0,
            6,
            8
          ],
          "texture": "#0"
        },
        "up": {
          "uv": [
            4,
            6,
            0,
            6.5
          ],
          "rotation": 180,
          "texture": "#0"
        },
        "down": {
          "uv": [
            4,
            0,
            0,
            0.5
          ],
          "rotation": 180,
          "texture": "#0"
        }
      }
    },
    {
      "from": [
        0,
        0,
        26
      ],
      "to": [
        10,
        16,
        27
      ],
      "rotation": {
        "angle": 0,
        "axis": "y",
        "origin": [
          16,
          0,
          0
        ]
      },
      "faces": {
        "north": {
          "uv": [
            5,
            0,
            0,
            8
          ],
          "texture": "#0"
        },
        "east": {
          "uv": [
            1.5,
            0,
            1,
            8
          ],
          "texture": "#0"
        },
        "south": {
          "uv": [
            8,
            0,
            3,
            8
          ],
          "texture": "#0"
        },
        "west": {
          "uv": [
            7,
            0,
            6.5,
            8
          ],
          "texture": "#0"
        },
        "up": {
          "uv": [
            5,
            6.5,
            0,
            7
          ],
          "rotation": 180,
          "texture": "#0"
        },
        "down": {
          "uv": [
            5,
            0,
            0,
            0.5
          ],
          "rotation": 180,
          "texture": "#0"
        }
      }
    },
    {
      "from": [
        0,
        0,
        25
      ],
      "to": [
        12,
        16,
        26
      ],
      "rotation": {
        "angle": 0,
        "axis": "y",
        "origin": [
          16,
          0,
          0
        ]
      },
      "faces": {
        "north": {
          "uv": [
            6,
            0,
            0,
            8
          ],
          "texture": "#0"
        },
        "east": {
          "uv": [
            1,
            0,
            0.5,
            8
          ],
          "texture": "#0"
        },
        "south": {
          "uv": [
            8,
            0,
            2,
            8
          ],
          "texture": "#0"
        },
        "west": {
          "uv": [
            7.5,
            0,
            7,
            8
          ],
          "texture": "#0"
        },
        "up": {
          "uv": [
            6,
            7,
            0,
            7.5
          ],
          "rotation": 180,
          "texture": "#0"
        },
        "down": {
          "uv": [
            6,
            0,
            0,
            0.5
          ],
          "rotation": 180,
          "texture": "#0"
        }
      }
    },
    {
      "from": [
        0,
        0,
        24
      ],
      "to": [
        14,
        16,
        25
      ],
      "rotation": {
        "angle": 0,
        "axis": "y",
        "origin": [
          16,
          0,
          0
        ]
      },
      "faces": {
        "north": {
          "uv": [
            7,
            0,
            0,
            8
          ],
          "texture": "#0"
        },
        "east": {
          "uv": [
            0.5,
            0,
            0,
            8
          ],
          "texture": "#0"
        },
        "south": {
          "uv": [
            8,
            0,
            1,
            8
          ],
          "texture": "#0"
        },
        "west": {
          "uv": [
            8,
            0,
            7.5,
            8
          ],
          "texture": "#0"
        },
        "up": {
          "uv": [
            7,
            7.5,
            0,
            8
          ],
          "rotation": 180,
          "texture": "#0"
        },
        "down": {
          "uv": [
            7,
            0,
            0,
            0.5
          ],
          "rotation": 180,
          "texture": "#0"
        }
      }
    },
    {
      "from": [
        14,
        0,
        16
      ],
      "to": [
        16,
        16,
        17
      ],
      "rotation": {
        "angle": 0,
        "axis": "y",
        "origin": [
          16,
          0,
          0
        ]
      },
      "faces": {
        "north": {
          "uv": [
            8,
            0,
            7,
            8
          ],
          "texture": "#0"
        },
        "east": {
          "uv": [
            4.5,
            0,
            4,
            8
          ],
          "texture": "#0"
        },
        "south": {
          "uv": [
            1,
            0,
            0,
            8
          ],
          "texture": "#0"
        },
        "west": {
          "uv": [
            0.5,
            0,
            0,
            8
          ],
          "texture": "#0"
        },
        "up": {
          "uv": [
            1,
            3.5,
            0,
            4
          ],
          "texture": "#0"
        },
        "down": {
          "uv": [
            1,
            0,
            0,
            0.5
          ],
          "texture": "#0"
        }
      }
    },
    {
      "from": [
        12,
        0,
        17
      ],
      "to": [
        16,
        16,
        18
      ],
      "rotation": {
        "angle": 0,
        "axis": "y",
        "origin": [
          16,
          0,
          0
        ]
      },
      "faces": {
        "north": {
          "uv": [
            8,
            0,
            6,
            8
          ],
          "texture": "#0"
        },
        "east": {
          "uv": [
            5,
            0,
            4.5,
            8
          ],
          "texture": "#0"
        },
        "south": {
          "uv": [
            2,
            0,
            0,
            8
          ],
          "texture": "#0"
        },
        "west": {
          "uv": [
            0.5,
            0,
            0,
            8
          ],
          "texture": "#0"
        },
        "up": {
          "uv": [
            2,
            3,
            0,
            3.5
          ],
          "texture": "#0"
        },
        "down": {
          "uv": [
            2,
            0,
            0,
            0.5
          ],
          "texture": "#0"
        }
      }
    },
    {
      "from": [
        10,
        0,
        18
      ],
      "to": [
        16,
        16,
        19
      ],
      "rotation": {
        "angle": 0,
        "axis": "y",
        "origin": [
          16,
          0,
          0
        ]
      },
      "faces": {
        "north": {
          "uv": [
            8,
            0,
            5,
            8
          ],
          "texture": "#0"
        },
        "east": {
          "uv": [
            5.5,
            0,
            5,
            8
          ],
          "texture": "#0"
        },
        "south": {
          "uv": [
            3,
            0,
            0,
            8
          ],
          "texture": "#0"
        },
        "west": {
          "uv": [
            0.5,
            0,
            0,
            8
          ],
          "texture": "#0"
        },
        "up": {
          "uv": [
            3,
            2.5,
            0,
            3
          ],
          "texture": "#0"
        },
        "down": {
          "uv": [
            3,
            0,
            0,
            0.5
          ],
          "texture": "#0"
        }
      }
    },
    {
      "from": [
        8,
        0,
        19
      ],
      "to": [
        16,
        16,
        20
      ],
      "rotation": {
        "angle": 0,
        "axis": "y",
        "origin": [
          16,
          0,
          0
        ]
      },
      "faces": {
        "north": {
          "uv": [
            8,
            0,
            4,
            8
          ],
          "texture": "#0"
        },
        "east": {
          "uv": [
            6,
            0,
            5.5,
            8
          ],
          "texture": "#0"
        },
        "south": {
          "uv": [
            4,
            0,
            0,
            8
          ],
          "texture": "#0"
        },
        "west": {
          "uv": [
            0.5,
            0,
            0,
            8
          ],
          "texture": "#0"
        },
        "up": {
          "uv": [
            4,
            2,
            0,
            2.5
          ],
          "texture": "#0"
        },
        "down": {
          "uv": [
            4,
            0,
            0,
            0.5
          ],
          "texture": "#0"
        }
      }
    },
    {
      "from": [
        6,
        0,
        20
      ],
      "to": [
        16,
        16,
        21
      ],
      "rotation": {
        "angle": 0,
        "axis": "y",
        "origin": [
          16,
          0,
          0
        ]
      },
      "faces": {
        "north": {
          "uv": [
            8,
            0,
            3,
            8
          ],
          "texture": "#0"
        },
        "east": {
          "uv": [
            6.5,
            0,
            6,
            8
          ],
          "texture": "#0"
        },
        "south": {
          "uv": [
            5,
            0,
            0,
            8
          ],
          "texture": "#0"
        },
        "west": {
          "uv": [
            0.5,
            0,
            0,
            8
          ],
          "texture": "#0"
        },
        "up": {
          "uv": [
            5,
            1.5,
            0,
            2
          ],
          "texture": "#0"
        },
        "down": {
          "uv": [
            5,
            0,
            0,
            0.5
          ],
          "texture": "#0"
        }
      }
    },
    {
      "from": [
        4,
        0,
        21
      ],
      "to": [
        16,
        16,
        22
      ],
      "rotation": {
        "angle": 0,
        "axis": "y",
        "origin": [
          16,
          0,
          0
        ]
      },
      "faces": {
        "north": {
          "uv": [
            8,
            0,
            2,
            8
          ],
          "texture": "#0"
        },
        "east": {
          "uv": [
            7,
            0,
            6.5,
            8
          ],
          "texture": "#0"
        },
        "south": {
          "uv": [
            6,
            0,
            0,
            8
          ],
          "texture": "#0"
        },
        "west": {
          "uv": [
            0.5,
            0,
            0,
            8
          ],
          "texture": "#0"
        },
        "up": {
          "uv": [
            6,
            1,
            0,
            1.5
          ],
          "texture": "#0"
        },
        "down": {
          "uv": [
            6,
            0,
            0,
            0.5
          ],
          "texture": "#0"
        }
      }
    },
    {
      "from": [
        2,
        0,
        22
      ],
      "to": [
        16,
        16,
        23
      ],
      "rotation": {
        "angle": 0,
        "axis": "y",
        "origin": [
          16,
          0,
          0
        ]
      },
      "faces": {
        "north": {
          "uv": [
            8,
            0,
            1,
            8
          ],
          "texture": "#0"
        },
        "east": {
          "uv": [
            7.5,
            0,
            7,
            8
          ],
          "texture": "#0"
        },
        "south": {
          "uv": [
            7,
            0,
            0,
            8
          ],
          "texture": "#0"
        },
        "west": {
          "uv": [
            0.5,
            0,
            0,
            8
          ],
          "texture": "#0"
        },
        "up": {
          "uv": [
            7,
            0.5,
            0,
            1
          ],
          "texture": "#0"
        },
        "down": {
          "uv": [
            7,
            0,
            0,
            0.5
          ],
          "texture": "#0"
        }
      }
    },
    {
      "from": [
        0,
        0,
        23
      ],
      "to": [
        16,
        16,
        24
      ],
      "rotation": {
        "angle": 0,
        "axis": "y",
        "origin": [
          16,
          0,
          0
        ]
      },
      "faces": {
        "north": {
          "uv": [
            8,
            0,
            0,
            8
          ],
          "texture": "#0"
        },
        "east": {
          "uv": [
            8,
            0,
            7.5,
            8
          ],
          "texture": "#0"
        },
        "south": {
          "uv": [
            8,
            0,
            0,
            8
          ],
          "texture": "#0"
        },
        "west": {
          "uv": [
            0.5,
            0,
            0,
            8
          ],
          "texture": "#0"
        },
        "up": {
          "uv": [
            8,
            0,
            0,
            0.5
          ],
          "texture": "#0"
        },
        "down": {
          "uv": [
            8,
            0,
            0,
            0.5
          ],
          "texture": "#0"
        }
      }
    },
    {
      "from": [
        0,
        0,
        14
      ],
      "to": [
        2,
        16,
        15
      ],
      "rotation": {
        "angle": 0,
        "axis": "y",
        "origin": [
          16,
          0,
          0
        ]
      },
      "faces": {
        "north": {
          "uv": [
            1,
            0,
            0,
            8
          ],
          "texture": "#1"
        },
        "east": {
          "uv": [
            0.5,
            0,
            0,
            8
          ],
          "texture": "#1"
        },
        "south": {
          "uv": [
            8,
            0,
            7,
            8
          ],
          "texture": "#1"
        },
        "west": {
          "uv": [
            0.5,
            0,
            0,
            8
          ],
          "texture": "#1"
        },
        "up": {
          "uv": [
            1,
            4.5,
            0,
            5
          ],
          "texture": "#1"
        },
        "down": {
          "uv": [
            1,
            0,
            0,
            0.5
          ],
          "texture": "#1"
        }
      }
    },
    {
      "from": [
        0,
        0,
        13
      ],
      "to": [
        4,
        16,
        14
      ],
      "rotation": {
        "angle": 0,
        "axis": "y",
        "origin": [
          16,
          0,
          0
        ]
      },
      "faces": {
        "north": {
          "uv": [
            2,
            0,
            0,
            8
          ],
          "texture": "#1"
        },
        "east": {
          "uv": [
            0.5,
            0,
            0,
            8
          ],
          "texture": "#1"
        },
        "south": {
          "uv": [
            8,
            0,
            6,
            8
          ],
          "texture": "#1"
        },
        "west": {
          "uv": [
            0.5,
            0,
            0,
            8
          ],
          "texture": "#1"
        },
        "up": {
          "uv": [
            2,
            5,
            0,
            5.5
          ],
          "texture": "#1"
        },
        "down": {
          "uv": [
            2,
            0,
            0,
            0.5
          ],
          "texture": "#1"
        }
      }
    },
    {
      "from": [
        0,
        0,
        12
      ],
      "to": [
        6,
        16,
        13
      ],
      "rotation": {
        "angle": 0,
        "axis": "y",
        "origin": [
          16,
          0,
          0
        ]
      },
      "faces": {
        "north": {
          "uv": [
            3,
            0,
            0,
            8
          ],
          "texture": "#1"
        },
        "east": {
          "uv": [
            0.5,
            0,
            0,
            8
          ],
          "texture": "#1"
        },
        "south": {
          "uv": [
            8,
            0,
            5,
            8
          ],
          "texture": "#1"
        },
        "west": {
          "uv": [
            0.5,
            0,
            0,
            8
          ],
          "texture": "#1"
        },
        "up": {
          "uv": [
            3,
            5.5,
            0,
            6
          ],
          "texture": "#1"
        },
        "down": {
          "uv": [
            3,
            0,
            0,
            0.5
          ],
          "texture": "#1"
        }
      }
    },
    {
      "from": [
        0,
        0,
        11
      ],
      "to": [
        8,
        16,
        12
      ],
      "rotation": {
        "angle": 0,
        "axis": "y",
        "origin": [
          16,
          0,
          0
        ]
      },
      "faces": {
        "north": {
          "uv": [
            4,
            0,
            0,
            8
          ],
          "texture": "#1"
        },
        "east": {
          "uv": [
            0.5,
            0,
            0,
            8
          ],
          "texture": "#1"
        },
        "south": {
          "uv": [
            8,
            0,
            4,
            8
          ],
          "texture": "#1"
        },
        "west": {
          "uv": [
            0.5,
            0,
            0,
            8
          ],
          "texture": "#1"
        },
        "up": {
          "uv": [
            4,
            6,
            0,
            6.5
          ],
          "texture": "#1"
        },
        "down": {
          "uv": [
            4,
            0,
            0,
            0.5
          ],
          "texture": "#1"
        }
      }
    },
    {
      "from": [
        0,
        0,
        10
      ],
      "to": [
        10,
        16,
        11
      ],
      "rotation": {
        "angle": 0,
        "axis": "y",
        "origin": [
          16,
          0,
          0
        ]
      },
      "faces": {
        "north": {
          "uv": [
            5,
            0,
            0,
            8
          ],
          "texture": "#1"
        },
        "east": {
          "uv": [
            0.5,
            0,
            0,
            8
          ],
          "texture": "#1"
        },
        "south": {
          "uv": [
            8,
            0,
            3,
            8
          ],
          "texture": "#1"
        },
        "west": {
          "uv": [
            0.5,
            0,
            0,
            8
          ],
          "texture": "#1"
        },
        "up": {
          "uv": [
            5,
            6.5,
            0,
            7
          ],
          "texture": "#1"
        },
        "down": {
          "uv": [
            5,
            0,
            0,
            0.5
          ],
          "texture": "#1"
        }
      }
    },
    {
      "from": [
        0,
        0,
        9
      ],
      "to": [
        12,
        16,
        10
      ],
      "rotation": {
        "angle": 0,
        "axis": "y",
        "origin": [
          16,
          0,
          0
        ]
      },
      "faces": {
        "north": {
          "uv": [
            6,
            0,
            0,
            8
          ],
          "texture": "#1"
        },
        "east": {
          "uv": [
            0.5,
            0,
            0,
            8
          ],
          "texture": "#1"
        },
        "south": {
          "uv": [
            8,
            0,
            2,
            8
          ],
          "texture": "#1"
        },
        "west": {
          "uv": [
            0.5,
            0,
            0,
            8
          ],
          "texture": "#1"
        },
        "up": {
          "uv": [
            6,
            7,
            0,
            7.5
          ],
          "texture": "#1"
        },
        "down": {
          "uv": [
            6,
            0,
            0,
            0.5
          ],
          "texture": "#1"
        }
      }
    },
    {
      "from": [
        0,
        0,
        8
      ],
      "to": [
        14,
        16,
        9
      ],
      "rotation": {
        "angle": 0,
        "axis": "y",
        "origin": [
          16,
          0,
          0
        ]
      },
      "faces": {
        "north": {
          "uv": [
            7,
            0,
            0,
            8
          ],
          "texture": "#1"
        },
        "east": {
          "uv": [
            0.5,
            0,
            0,
            8
          ],
          "texture": "#1"
        },
        "south": {
          "uv": [
            8,
            0,
            1,
            8
          ],
          "texture": "#1"
        },
        "west": {
          "uv": [
            0.5,
            0,
            0,
            8
          ],
          "texture": "#1"
        },
        "up": {
          "uv": [
            7,
            7.5,
            0,
            8
          ],
          "texture": "#1"
        },
        "down": {
          "uv": [
            7,
            0,
            0,
            0.5
          ],
          "texture": "#1"
        }
      }
    },
    {
      "from": [
        0,
        0,
        0
      ],
      "to": [
        16,
        16,
        8
      ],
      "rotation": {
        "angle": 0,
        "axis": "y",
        "origin": [
          16,
          0,
          0
        ]
      },
      "faces": {
        "north": {
          "uv": [
            16,
            8,
            8,
            16
          ],
          "texture": "#1"
        },
        "east": {
          "uv": [
            12,
            8,
            8,
            16
          ],
          "texture": "#1"
        },
        "south": {
          "uv": [
            16,
            8,
            8,
            16
          ],
          "texture": "#1"
        },
        "west": {
          "uv": [
            12,
            8,
            8,
            16
          ],
          "texture": "#1"
        },
        "up": {
          "uv": [
            8,
            12,
            0,
            16
          ],
          "texture": "#1"
        },
        "down": {
          "uv": [
            16,
            12,
            8,
            16
          ],
          "texture": "#1"
        }
      }
    }
  ],
  "display": {
    "thirdperson_righthand": {
      "rotation": [
        90,
        45,
        0
      ],
      "translation": [
        -1.25,
        1.25,
        0
      ],
      "scale": [
        0.19,
        0.19,
        0.19
      ]
    },
    "thirdperson_lefthand": {
      "rotation": [
        90,
        -45,
        0
      ],
      "translation": [
        1.25,
        1.25,
        0
      ],
      "scale": [
        0.19,
        0.19,
        0.19
      ]
    },
    "firstperson_righthand": {
      "translation": [
        -0.75,
        2.25,
        2.75
      ],
      "scale": [
        0.26,
        0.26,
        0.26
      ]
    },
    "firstperson_lefthand": {
      "translation": [
        0.75,
        2.25,
        2.75
      ],
      "scale": [
        0.26,
        0.26,
        0.26
      ]
    },
    "ground": {
      "translation": [
        0,
        -1.75,
        -1
      ],
      "scale": [
        0.25,
        0.25,
        0.25
      ]
    },
    "gui": {
      "rotation": [
        45,
        -135,
        0
      ],
      "translation": [
        2,
        -1,
        0
      ],
      "scale": [
        0.35,
        0.35,
        0.35
      ]
    },
    "head": {
      "translation": [
        0,
        8.25,
        -1.5
      ],
      "scale": [
        0.24,
        0.24,
        0.24
      ]
    },
    "fixed": {
      "rotation": [
        0,
        90,
        0
      ],
      "translation": [
        -3,
        0,
        -2.75
      ],
      "scale": [
        0.36,
        0.36,
        0.36
      ]
    }
  },
  "groups": [
    {
      "name": "Stairs",
      "origin": [
        8,
        8,
        8
      ],
      "color": 0,
      "children": [
        0,
        1,
        2,
        3,
        4,
        5,
        6,
        7,
        8,
        9,
        10,
        11,
        12,
        13,
        14,
        15,
        16,
        17,
        18,
        19,
        20,
        21,
        22
      ]
    },
    {
      "name": "Road",
      "origin": [
        0,
        0,
        0
      ],
      "color": 0,
      "children": [
        23,
        24,
        25,
        26,
        27,
        28,
        29,
        30
      ]
    }
  ]
}