{
  "credit": "Made with Blockbench",
  "texture_size": [
    64,
    64
  ],
  "elements": [
    {
      "from": [
        2,
        0,
        3
      ],
      "to": [
        14,
        1,
        9
      ],
      "faces": {
        "north": {
          "uv": [
            6,
            3.5,
            9,
            3.75
          ],
          "texture": "#0"
        },
        "east": {
          "uv": [
            4.5,
            8,
            6,
            8.25
          ],
          "texture": "#0"
        },
        "south": {
          "uv": [
            6,
            3.75,
            9,
            4
          ],
          "texture": "#0"
        },
        "west": {
          "uv": [
            8,
            6.5,
            9.5,
            6.75
          ],
          "texture": "#0"
        },
        "up": {
          "uv": [
            7.5,
            6,
            4.5,
            4.5
          ],
          "texture": "#0"
        },
        "down": {
          "uv": [
            9,
            0,
            6,
            1.5
          ],
          "texture": "#0"
        }
      }
    },
    {
      "from": [
        -6,
        0.25,
        0
      ],
      "to": [
        1,
        0.25,
        8
      ],
      "faces": {
        "north": {
          "uv": [
            0,
            0,
            1.75,
            0
          ],
          "texture": "#0"
        },
        "east": {
          "uv": [
            0,
            0,
            2,
            0
          ],
          "texture": "#0"
        },
        "south": {
          "uv": [
            0,
            0,
            1.75,
            0
          ],
          "texture": "#0"
        },
        "west": {
          "uv": [
            0,
            0,
            2,
            0
          ],
          "texture": "#0"
        },
        "up": {
          "uv": [
            7.75,
            3.5,
            6,
            1.5
          ],
          "texture": "#0"
        },
        "down": {
          "uv": [
            6.25,
            6,
            4.5,
            8
          ],
          "texture": "#0"
        }
      }
    },
    {
      "from": [
        -4,
        0.5,
        2
      ],
      "to": [
        -1,
        1.5,
        6
      ],
      "faces": {
        "north": {
          "uv": [
            5.5,
            8.5,
            6.25,
            8.75
          ],
          "texture": "#0"
        },
        "east": {
          "uv": [
            8,
            6.75,
            9,
            7
          ],
          "texture": "#0"
        },
        "south": {
          "uv": [
            1.5,
            8.5,
            2.25,
            8.75
          ],
          "texture": "#0"
        },
        "west": {
          "uv": [
            8,
            7,
            9,
            7.25
          ],
          "texture": "#0"
        },
        "up": {
          "uv": [
            2.25,
            8.5,
            1.5,
            7.5
          ],
          "texture": "#0"
        },
        "down": {
          "uv": [
            3,
            7.5,
            2.25,
            8.5
          ],
          "texture": "#0"
        }
      }
    },
    {
      "from": [
        2,
        7,
        10
      ],
      "to": [
        14,
        16,
        11
      ],
      "rotation": {
        "angle": 22.5,
        "axis": "x",
        "origin": [
          0,
          0,
          0
        ]
      },
      "faces": {
        "north": {
          "uv": [
            0,
            0,
            3,
            2.25
          ],
          "texture": "#0"
        },
        "east": {
          "uv": [
            3.5,
            7.5,
            3.75,
            9.75
          ],
          "texture": "#0"
        },
        "south": {
          "uv": [
            0,
            2.25,
            3,
            4.5
          ],
          "texture": "#0"
        },
        "west": {
          "uv": [
            3.75,
            7.5,
            4,
            9.75
          ],
          "texture": "#0"
        },
        "up": {
          "uv": [
            9,
            4.25,
            6,
            4
          ],
          "texture": "#0"
        },
        "down": {
          "uv": [
            9,
            4.25,
            6,
            4.5
          ],
          "texture": "#0"
        }
      }
    },
    {
      "from": [
        -7,
        2,
        10
      ],
      "to": [
        5,
        11,
        11
      ],
      "rotation": {
        "angle": -22.5,
        "axis": "y",
        "origin": [
          0,
          0,
          0
        ]
      },
      "faces": {
        "north": {
          "uv": [
            3,
            0,
            6,
            2.25
          ],
          "texture": "#0"
        },
        "east": {
          "uv": [
            4,
            7.5,
            4.25,
            9.75
          ],
          "texture": "#0"
        },
        "south": {
          "uv": [
            3,
            2.25,
            6,
            4.5
          ],
          "texture": "#0"
        },
        "west": {
          "uv": [
            4.25,
            7.5,
            4.5,
            9.75
          ],
          "texture": "#0"
        },
        "up": {
          "uv": [
            10.5,
            4.75,
            7.5,
            4.5
          ],
          "texture": "#0"
        },
        "down": {
          "uv": [
            10.5,
            4.75,
            7.5,
            5
          ],
          "texture": "#0"
        }
      }
    },
    {
      "from": [
        7,
        0,
        14
      ],
      "to": [
        9,
        7,
        15
      ],
      "faces": {
        "north": {
          "uv": [
            6.25,
            6,
            6.75,
            7.75
          ],
          "texture": "#0"
        },
        "east": {
          "uv": [
            6.25,
            7.75,
            6.5,
            9.5
          ],
          "texture": "#0"
        },
        "south": {
          "uv": [
            6.75,
            6,
            7.25,
            7.75
          ],
          "texture": "#0"
        },
        "west": {
          "uv": [
            6.5,
            7.75,
            6.75,
            9.5
          ],
          "texture": "#0"
        },
        "up": {
          "uv": [
            2.75,
            8.75,
            2.25,
            8.5
          ],
          "texture": "#0"
        },
        "down": {
          "uv": [
            5,
            8.5,
            4.5,
            8.75
          ],
          "texture": "#0"
        }
      }
    },
    {
      "from": [
        6,
        0,
        12.75
      ],
      "to": [
        10,
        1,
        14.75
      ],
      "faces": {
        "north": {
          "uv": [
            8,
            7.25,
            9,
            7.5
          ],
          "texture": "#0"
        },
        "east": {
          "uv": [
            5,
            8.5,
            5.5,
            8.75
          ],
          "texture": "#0"
        },
        "south": {
          "uv": [
            8,
            7.5,
            9,
            7.75
          ],
          "texture": "#0"
        },
        "west": {
          "uv": [
            5.5,
            8.5,
            6,
            8.75
          ],
          "texture": "#0"
        },
        "up": {
          "uv": [
            8.5,
            6,
            7.5,
            5.5
          ],
          "texture": "#0"
        },
        "down": {
          "uv": [
            8.75,
            1.5,
            7.75,
            2
          ],
          "texture": "#0"
        }
      }
    },
    {
      "from": [
        -2,
        0,
        11
      ],
      "to": [
        0,
        7,
        12
      ],
      "rotation": {
        "angle": -22.5,
        "axis": "y",
        "origin": [
          0,
          0,
          0
        ]
      },
      "faces": {
        "north": {
          "uv": [
            7.25,
            6,
            7.75,
            7.75
          ],
          "texture": "#0"
        },
        "east": {
          "uv": [
            7.75,
            6.5,
            8,
            8.25
          ],
          "texture": "#0"
        },
        "south": {
          "uv": [
            0,
            7.5,
            0.5,
            9.25
          ],
          "texture": "#0"
        },
        "west": {
          "uv": [
            6.75,
            7.75,
            7,
            9.5
          ],
          "texture": "#0"
        },
        "up": {
          "uv": [
            9,
            5.75,
            8.5,
            5.5
          ],
          "texture": "#0"
        },
        "down": {
          "uv": [
            9,
            5.75,
            8.5,
            6
          ],
          "texture": "#0"
        }
      }
    },
    {
      "from": [
        -3,
        0,
        9.75
      ],
      "to": [
        1,
        1,
        11.75
      ],
      "rotation": {
        "angle": -22.5,
        "axis": "y",
        "origin": [
          0,
          0,
          0
        ]
      },
      "faces": {
        "north": {
          "uv": [
            8,
            7.75,
            9,
            8
          ],
          "texture": "#0"
        },
        "east": {
          "uv": [
            7.5,
            8.5,
            8,
            8.75
          ],
          "texture": "#0"
        },
        "south": {
          "uv": [
            8,
            8,
            9,
            8.25
          ],
          "texture": "#0"
        },
        "west": {
          "uv": [
            8,
            8.5,
            8.5,
            8.75
          ],
          "texture": "#0"
        },
        "up": {
          "uv": [
            8.75,
            2.5,
            7.75,
            2
          ],
          "texture": "#0"
        },
        "down": {
          "uv": [
            8.75,
            2.5,
            7.75,
            3
          ],
          "texture": "#0"
        }
      }
    },
    {
      "from": [
        14.5,
        0,
        15
      ],
      "to": [
        16.5,
        7,
        16
      ],
      "rotation": {
        "angle": 22.5,
        "axis": "y",
        "origin": [
          0,
          0,
          0
        ]
      },
      "faces": {
        "north": {
          "uv": [
            0.5,
            7.5,
            1,
            9.25
          ],
          "texture": "#0"
        },
        "east": {
          "uv": [
            7,
            7.75,
            7.25,
            9.5
          ],
          "texture": "#0"
        },
        "south": {
          "uv": [
            1,
            7.5,
            1.5,
            9.25
          ],
          "texture": "#0"
        },
        "west": {
          "uv": [
            7.25,
            7.75,
            7.5,
            9.5
          ],
          "texture": "#0"
        },
        "up": {
          "uv": [
            9,
            8.5,
            8.5,
            8.25
          ],
          "texture": "#0"
        },
        "down": {
          "uv": [
            9,
            8.5,
            8.5,
            8.75
          ],
          "texture": "#0"
        }
      }
    },
    {
      "from": [
        11,
        2,
        14
      ],
      "to": [
        20,
        14,
        15
      ],
      "rotation": {
        "angle": 22.5,
        "axis": "y",
        "origin": [
          0,
          0,
          0
        ]
      },
      "faces": {
        "north": {
          "uv": [
            0,
            4.5,
            2.25,
            7.5
          ],
          "texture": "#0"
        },
        "east": {
          "uv": [
            3,
            7.5,
            3.25,
            10.5
          ],
          "texture": "#0"
        },
        "south": {
          "uv": [
            2.25,
            4.5,
            4.5,
            7.5
          ],
          "texture": "#0"
        },
        "west": {
          "uv": [
            3.25,
            7.5,
            3.5,
            10.5
          ],
          "texture": "#0"
        },
        "up": {
          "uv": [
            9.75,
            5.25,
            7.5,
            5
          ],
          "texture": "#0"
        },
        "down": {
          "uv": [
            9.75,
            5.25,
            7.5,
            5.5
          ],
          "texture": "#0"
        }
      }
    },
    {
      "from": [
        13.5,
        0,
        13.75
      ],
      "to": [
        17.5,
        1,
        15.75
      ],
      "rotation": {
        "angle": 22.5,
        "axis": "y",
        "origin": [
          0,
          0,
          0
        ]
      },
      "faces": {
        "north": {
          "uv": [
            4.5,
            8.25,
            5.5,
            8.5
          ],
          "texture": "#0"
        },
        "east": {
          "uv": [
            1.5,
            8.75,
            2,
            9
          ],
          "texture": "#0"
        },
        "south": {
          "uv": [
            7.5,
            8.25,
            8.5,
            8.5
          ],
          "texture": "#0"
        },
        "west": {
          "uv": [
            8.75,
            1.5,
            9.25,
            1.75
          ],
          "texture": "#0"
        },
        "up": {
          "uv": [
            8.75,
            3.5,
            7.75,
            3
          ],
          "texture": "#0"
        },
        "down": {
          "uv": [
            8.75,
            6,
            7.75,
            6.5
          ],
          "texture": "#0"
        }
      }
    },
    {
      "from": [
        -4,
        0.5,
        1
      ],
      "to": [
        23,
        0.5,
        15
      ],
      "faces": {
        "north": {
          "uv": [
            0,
            0,
            6.75,
            0
          ],
          "texture": "#1"
        },
        "east": {
          "uv": [
            0,
            0,
            3.5,
            0
          ],
          "texture": "#1"
        },
        "south": {
          "uv": [
            0,
            0,
            6.75,
            0
          ],
          "texture": "#1"
        },
        "west": {
          "uv": [
            0,
            0,
            3.5,
            0
          ],
          "texture": "#1"
        },
        "up": {
          "uv": [
            13.5,
            3.5,
            6.75,
            0
          ],
          "texture": "#1"
        },
        "down": {
          "uv": [
            13.5,
            3.5,
            6.75,
            7
          ],
          "texture": "#1"
        }
      }
    },
    {
      "from": [
        -4,
        -16,
        15
      ],
      "to": [
        23,
        0.5,
        15
      ],
      "faces": {
        "north": {
          "uv": [
            0,
            0,
            6.75,
            4.25
          ],
          "texture": "#1"
        },
        "east": {
          "uv": [
            0,
            0,
            0,
            4.25
          ],
          "texture": "#1"
        },
        "south": {
          "uv": [
            6.75,
            4.25,
            0,
            8.5
          ],
          "texture": "#1"
        },
        "west": {
          "uv": [
            0,
            0,
            0,
            4.25
          ],
          "texture": "#1"
        },
        "up": {
          "uv": [
            6.75,
            0,
            0,
            0
          ],
          "texture": "#1"
        },
        "down": {
          "uv": [
            6.75,
            0,
            0,
            0
          ],
          "texture": "#1"
        }
      }
    }
  ],
  "display": {
    "thirdperson_righthand": {
      "rotation": [
        76.34,
        16.48,
        -3.44
      ],
      "translation": [
        0,
        2.5,
        2.75
      ],
      "scale": [
        0.31836,
        0.31836,
        0.31836
      ]
    },
    "thirdperson_lefthand": {
      "rotation": [
        76.34,
        16.48,
        -3.44
      ],
      "translation": [
        0,
        2.5,
        2.75
      ],
      "scale": [
        0.31836,
        0.31836,
        0.31836
      ]
    },
    "firstperson_righthand": {
      "rotation": [
        -154.98,
        36.74,
        154.81
      ],
      "translation": [
        0,
        5,
        2.75
      ],
      "scale": [
        0.31836,
        0.31836,
        0.31836
      ]
    },
    "firstperson_lefthand": {
      "rotation": [
        -154.98,
        36.74,
        154.81
      ],
      "translation": [
        0,
        5,
        2.75
      ],
      "scale": [
        0.31836,
        0.31836,
        0.31836
      ]
    },
    "ground": {
      "translation": [
        0,
        1,
        -1.75
      ],
      "scale": [
        0.54297,
        0.54297,
        0.54297
      ]
    },
    "gui": {
      "rotation": [
        22.5,
        -135,
        0
      ],
      "translation": [
        -0.25,
        1.5,
        0
      ],
      "scale": [
        0.39375,
        0.39375,
        0.39375
      ]
    },
    "head": {
      "translation": [
        0,
        11,
        -1.75
      ],
      "scale": [
        0.54297,
        0.54297,
        0.54297
      ]
    },
    "fixed": {
      "translation": [
        0,
        1.5,
        -6
      ],
      "scale": [
        0.54297,
        0.54297,
        0.54297
      ]
    }
  }
}