{
  "credit": "Made with Blockbench",
  "texture_size": [
    32,
    32
  ],
  "elements": [
    {
      "from": [
        5,
        0,
        8
      ],
      "to": [
        11,
        10,
        9
      ],
      "faces": {
        "north": {
          "uv": [
            3,
            0,
            6,
            4.5
          ],
          "texture": "#0"
        },
        "east": {
          "uv": [
            0.5,
            5.5,
            1,
            10
          ],
          "texture": "#0"
        },
        "south": {
          "uv": [
            0,
            0,
            3,
            4.5
          ],
          "texture": "#0"
        },
        "west": {
          "uv": [
            0,
            5.5,
            0.5,
            10
          ],
          "texture": "#0"
        },
        "up": {
          "uv": [
            4,
            6,
            1,
            5.5
          ],
          "rotation": 180,
          "texture": "#0"
        },
        "down": {
          "uv": [
            7,
            5.5,
            4,
            6
          ],
          "rotation": 180,
          "texture": "#0"
        }
      }
    },
    {
      "from": [
        5,
        7,
        7.75
      ],
      "to": [
        11,
        9,
        8.75
      ],
      "faces": {
        "north": {
          "uv": [
            3,
            4.5,
            6,
            5.5
          ],
          "texture": "#0"
        },
        "east": {
          "uv": [
            6,
            1,
            6.5,
            2
          ],
          "texture": "#0"
        },
        "south": {
          "uv": [
            0,
            4.5,
            3,
            5.5
          ],
          "texture": "#0"
        },
        "west": {
          "uv": [
            1,
            6,
            1.5,
            7
          ],
          "texture": "#0"
        },
        "up": {
          "uv": [
            9,
            0.5,
            6,
            0
          ],
          "rotation": 180,
          "texture": "#0"
        },
        "down": {
          "uv": [
            9,
            0.5,
            6,
            1
          ],
          "rotation": 180,
          "texture": "#0"
        }
      }
    },
    {
      "from": [
        9.25,
        7.5,
        7.5
      ],
      "to": [
        10.25,
        8.5,
        7.5
      ],
      "faces": {
        "north": {
          "uv": [
            2,
            6,
            2.5,
            6.5
          ],
          "texture": "#0"
        },
        "east": {
          "uv": [
            0,
            0,
            0,
            0.5
          ],
          "texture": "#0"
        },
        "south": {
          "uv": [
            1.5,
            6,
            2,
            6.5
          ],
          "texture": "#0"
        },
        "west": {
          "uv": [
            0,
            0,
            0,
            0.5
          ],
          "texture": "#0"
        },
        "up": {
          "uv": [
            0.5,
            0,
            0,
            0
          ],
          "rotation": 180,
          "texture": "#0"
        },
        "down": {
          "uv": [
            0.5,
            0,
            0,
            0
          ],
          "rotation": 180,
          "texture": "#0"
        }
      }
    }
  ],
  "display": {
    "thirdperson_righthand": {
      "translation": [
        0.75,
        6.75,
        0.5
      ]
    },
    "thirdperson_lefthand": {
      "translation": [
        0.75,
        6.75,
        0.5
      ]
    },
    "firstperson_righthand": {
      "translation": [
        0.75,
        6.75,
        0.5
      ]
    },
    "firstperson_lefthand": {
      "rotation": [
        0,
        -18.5,
        0
      ],
      "translation": [
        -1.25,
        6.75,
        0.5
      ]
    },
    "ground": {
      "translation": [
        1.5,
        2.75,
        0
      ],
      "scale": [
        0.65039,
        0.65039,
        0.65039
      ]
    },
    "gui": {
      "rotation": [
        0,
        180,
        0
      ],
      "translation": [
        0,
        3,
        0
      ]
    },
    "head": {
      "rotation": [
        14.5,
        -89.5,
        0
      ],
      "translation": [
        7.5,
        1.25,
        0.75
      ]
    },
    "fixed": {
      "rotation": [
        0,
        180,
        0
      ],
      "translation": [
        0,
        3.25,
        0
      ],
      "scale": [
        1.23828,
        1.23828,
        1.23828
      ]
    }
  }
}