{
  "credit": "Made with Blockbench",
  "texture_size": [
    64,
    64
  ],
  "elements": [
    {
      "from": [
        2,
        0,
        7
      ],
      "to": [
        4,
        16,
        9
      ],
      "faces": {
        "north": {
          "uv": [
            0.5,
            0,
            1,
            4
          ],
          "texture": "#1"
        },
        "east": {
          "uv": [
            0,
            0,
            0.5,
            4
          ],
          "texture": "#1"
        },
        "south": {
          "uv": [
            1.5,
            0,
            2,
            4
          ],
          "texture": "#1"
        },
        "west": {
          "uv": [
            1,
            0,
            1.5,
            4
          ],
          "texture": "#1"
        },
        "up": {
          "uv": [
            2,
            0,
            2.5,
            0.5
          ],
          "texture": "#1"
        },
        "down": {
          "uv": [
            2,
            0.5,
            2.5,
            1
          ],
          "texture": "#1"
        }
      }
    },
    {
      "from": [
        0.5,
        1,
        3
      ],
      "to": [
        5.5,
        14,
        7
      ],
      "faces": {
        "north": {
          "uv": [
            1,
            1,
            2.25,
            4.25
          ],
          "texture": "#0"
        },
        "east": {
          "uv": [
            0,
            1,
            1,
            4.25
          ],
          "texture": "#0"
        },
        "south": {
          "uv": [
            3.25,
            1,
            4.5,
            4.25
          ],
          "texture": "#0"
        },
        "west": {
          "uv": [
            2.25,
            1,
            3.25,
            4.25
          ],
          "texture": "#0"
        },
        "up": {
          "uv": [
            2.25,
            1,
            1,
            0
          ],
          "texture": "#0"
        },
        "down": {
          "uv": [
            3.5,
            0,
            2.25,
            1
          ],
          "texture": "#0"
        }
      }
    }
  ],
  "display": {
    "thirdperson_righthand": {
      "translation": [
        1.25,
        1,
        1
      ],
      "scale": [
        0.30273,
        0.30273,
        0.30273
      ]
    },
    "thirdperson_lefthand": {
      "translation": [
        -1.5,
        1,
        1
      ],
      "scale": [
        0.30273,
        0.30273,
        0.30273
      ]
    },
    "firstperson_righthand": {
      "translation": [
        1.25,
        1,
        1
      ],
      "scale": [
        0.30273,
        0.30273,
        0.30273
      ]
    },
    "firstperson_lefthand": {
      "translation": [
        1.25,
        1,
        1
      ],
      "scale": [
        0.30273,
        0.30273,
        0.30273
      ]
    },
    "ground": {
      "translation": [
        1,
        0,
        0
      ],
      "scale": [
        0.35,
        0.35,
        0.35
      ]
    },
    "gui": {
      "rotation": [
        45,
        135,
        0
      ],
      "translation": [
        -1,
        3.25,
        0
      ],
      "scale": [
        0.9,
        0.9,
        0.9
      ]
    },
    "head": {
      "translation": [
        1.25,
        9,
        1
      ],
      "scale": [
        0.30273,
        0.30273,
        0.30273
      ]
    },
    "fixed": {
      "translation": [
        2,
        0,
        0
      ]
    }
  }
}