{
  "credit": "Made with Blockbench",
  "texture_size": [
    32,
    32
  ],
  "elements": [
    {
      "from": [
        13,
        0,
        5
      ],
      "to": [
        15,
        1,
        11
      ],
      "faces": {
        "north": {
          "uv": [
            3,
            6.5,
            4,
            7
          ],
          "texture": "#0"
        },
        "east": {
          "uv": [
            6,
            5.5,
            9,
            6
          ],
          "texture": "#0"
        },
        "south": {
          "uv": [
            4,
            6.5,
            5,
            7
          ],
          "texture": "#0"
        },
        "west": {
          "uv": [
            6,
            6,
            9,
            6.5
          ],
          "texture": "#0"
        },
        "up": {
          "uv": [
            1,
            9,
            0,
            6
          ],
          "texture": "#0"
        },
        "down": {
          "uv": [
            7,
            0,
            6,
            3
          ],
          "texture": "#0"
        }
      }
    }
  ],
  "display": {
    "thirdperson_righthand": {
      "rotation": [
        -90,
        0,
        -180
      ],
      "translation": [
        6.25,
        2,
        9.25
      ]
    },
    "thirdperson_lefthand": {
      "rotation": [
        -90,
        0,
        -180
      ],
      "translation": [
        -6,
        2,
        9.25
      ]
    },
    "firstperson_righthand": {
      "rotation": [
        -90,
        0,
        -180
      ],
      "translation": [
        6.25,
        2,
        9.25
      ]
    },
    "firstperson_lefthand": {
      "rotation": [
        -90,
        0,
        -180
      ],
      "translation": [
        -6,
        2,
        9.25
      ]
    },
    "ground": {
      "rotation": [
        -90,
        0,
        0
      ],
      "translation": [
        -8.25,
        0.75,
        -10.75
      ],
      "scale": [
        1.39063,
        1.39063,
        1.39063
      ]
    },
    "gui": {
      "rotation": [
        22.5,
        -135,
        0
      ],
      "translation": [
        4,
        7.5,
        0
      ]
    },
    "head": {
      "rotation": [
        -90,
        0,
        0
      ],
      "translation": [
        -8.25,
        9.75,
        -8.5
      ],
      "scale": [
        1.39063,
        1.39063,
        1.39063
      ]
    },
    "fixed": {
      "rotation": [
        -90,
        0,
        0
      ],
      "translation": [
        -8.25,
        -0.25,
        -10.75
      ],
      "scale": [
        1.39063,
        1.39063,
        1.39063
      ]
    }
  }
}