{
  "credit": "Made with Blockbench",
  "texture_size": [
    32,
    32
  ],
  "elements": [
    {
      "from": [
        3,
        1,
        7.5
      ],
      "to": [
        13,
        7,
        8.5
      ],
      "faces": {
        "north": {
          "uv": [
            5,
            3,
            0,
            0
          ],
          "rotation": 180,
          "texture": "#0"
        },
        "east": {
          "uv": [
            9,
            4.5,
            6,
            5
          ],
          "rotation": 90,
          "texture": "#0"
        },
        "south": {
          "uv": [
            5,
            3,
            0,
            6
          ],
          "texture": "#0"
        },
        "west": {
          "uv": [
            6,
            5,
            9,
            5.5
          ],
          "rotation": 270,
          "texture": "#0"
        },
        "up": {
          "uv": [
            6,
            3,
            11,
            3.5
          ],
          "texture": "#0"
        },
        "down": {
          "uv": [
            1,
            6,
            6,
            6.5
          ],
          "rotation": 180,
          "texture": "#0"
        }
      }
    },
    {
      "from": [
        3,
        0,
        6.5
      ],
      "to": [
        13,
        6,
        9.5
      ],
      "faces": {
        "north": {
          "uv": [
            0,
            0,
            5,
            3
          ],
          "texture": "#1"
        },
        "east": {
          "uv": [
            0,
            6,
            1.5,
            9
          ],
          "texture": "#1"
        },
        "south": {
          "uv": [
            0,
            3,
            5,
            6
          ],
          "texture": "#1"
        },
        "west": {
          "uv": [
            0,
            6,
            1.5,
            9
          ],
          "texture": "#1"
        },
        "up": {
          "uv": [
            10,
            1.5,
            5,
            0
          ],
          "texture": "#1"
        },
        "down": {
          "uv": [
            10,
            1.5,
            5,
            3
          ],
          "texture": "#1"
        }
      }
    }
  ],
  "display": {
    "thirdperson_righthand": {
      "translation": [
        0,
        5.25,
        0
      ],
      "scale": [
        0.6543,
        0.6543,
        0.6543
      ]
    },
    "thirdperson_lefthand": {
      "translation": [
        0,
        5.25,
        0
      ],
      "scale": [
        0.6543,
        0.6543,
        0.6543
      ]
    },
    "firstperson_righthand": {
      "translation": [
        0,
        5.25,
        0
      ],
      "scale": [
        0.6543,
        0.6543,
        0.6543
      ]
    },
    "firstperson_lefthand": {
      "translation": [
        0,
        5.25,
        0
      ],
      "scale": [
        0.6543,
        0.6543,
        0.6543
      ]
    },
    "ground": {
      "translation": [
        0,
        5.25,
        0
      ]
    },
    "gui": {
      "rotation": [
        22.5,
        45,
        0
      ],
      "translation": [
        0,
        3.25,
        0
      ]
    },
    "head": {
      "translation": [
        0,
        13,
        0
      ]
    },
    "fixed": {
      "translation": [
        0,
        3.75,
        0
      ]
    }
  }
}