{
  "_fv": 39,
  "_type": "achievement",
  "definition": {
    "achievementName": "Hmm.. Sweet!",
    "achievementDescription": "Eat a Candy",
    "achievementIcon": {
      "value": "CUSTOM:Candy"
    },
    "background": "Default",
    "disableDisplay": false,
    "showPopup": true,
    "announceToChat": true,
    "hideIfNotCompleted": false,
    "rewardLoot": [],
    "rewardRecipes": [],
    "rewardFunction": "No function",
    "rewardXP": 0,
    "achievementType": "task",
    "parent": {
      "value": "CUSTOM:ModsCity"
    },
    "triggerxml": "<xml xmlns=\"https://developers.google.com/blockly/xml\"><block type=\"item_consumed\" x=\"30\" y=\"24\"><value name=\"item\"><block type=\"mcitem_all\"><field name=\"value\">CUSTOM:Candy</field></block></value><next><block type=\"advancement_trigger\" deletable=\"false\"></block></next></block></xml>"
  }
}