{
  "_fv": 39,
  "_type": "gui",
  "definition": {
    "type": 0,
    "width": 176,
    "height": 166,
    "inventoryOffsetX": 0,
    "inventoryOffsetY": 0,
    "renderBgLayer": true,
    "doesPauseGame": false,
    "components": [
      {
        "type": "label",
        "data": {
          "name": "label_who_are_you",
          "text": {
            "fixedValue": "Who are you?"
          },
          "color": {
            "value": -12829636,
            "falpha": 0.0
          },
          "x": 177,
          "y": 53
        }
      },
      {
        "type": "button",
        "data": {
          "name": "button_employee",
          "text": "Employee",
          "onClick": {
            "name": "OpenEmployeeGUI"
          },
          "width": 67,
          "height": 20,
          "x": 177,
          "y": 116
        }
      },
      {
        "type": "button",
        "data": {
          "name": "button_customer",
          "text": "Customer",
          "onClick": {
            "name": "OpenCustomerGUI"
          },
          "width": 67,
          "height": 20,
          "x": 177,
          "y": 89
        }
      }
    ],
    "gridSettings": {
      "sx": 18,
      "sy": 18,
      "ox": 11,
      "oy": 15,
      "snapOnGrid": true
    }
  }
}