{
  "_fv": 39,
  "_type": "gui",
  "definition": {
    "type": 0,
    "width": 176,
    "height": 166,
    "inventoryOffsetX": 0,
    "inventoryOffsetY": 0,
    "renderBgLayer": true,
    "doesPauseGame": false,
    "components": [
      {
        "type": "button",
        "data": {
          "name": "button_empty",
          "text": ">",
          "onClick": {
            "name": "ChangeNPCSkinGUIProc6"
          },
          "width": 25,
          "height": 20,
          "x": 270,
          "y": 98
        }
      },
      {
        "type": "button",
        "data": {
          "name": "button_empty1",
          "text": "<",
          "onClick": {
            "name": "ChangeNPCSkinGUIProc4"
          },
          "width": 25,
          "height": 20,
          "x": 132,
          "y": 98
        }
      },
      {
        "type": "label",
        "data": {
          "name": "label_choose_skin",
          "text": {
            "fixedValue": "Choose Skin"
          },
          "color": {
            "value": -12829636,
            "falpha": 0.0
          },
          "x": 186,
          "y": 44
        }
      },
      {
        "type": "button",
        "data": {
          "name": "button_set",
          "text": "Set",
          "onClick": {
            "name": "NPCSet5"
          },
          "width": 40,
          "height": 20,
          "x": 192,
          "y": 170
        }
      },
      {
        "type": "image",
        "data": {
          "image": "noor.png",
          "use1Xscale": false,
          "x": 198,
          "y": 71
        }
      },
      {
        "type": "label",
        "data": {
          "name": "label_noor",
          "text": {
            "fixedValue": "Noor"
          },
          "color": {
            "value": -12829636,
            "falpha": 0.0
          },
          "x": 204,
          "y": 143
        }
      }
    ],
    "gridSettings": {
      "sx": 12,
      "sy": 18,
      "ox": 11,
      "oy": 15,
      "snapOnGrid": true
    }
  }
}