{
  "_fv": 39,
  "_type": "procedure",
  "definition": {
    "procedurexml": "<?xml version=\"1.0\" encoding=\"UTF-8\" standalone=\"no\"?><xml xmlns=\"https://developers.google.com/blockly/xml\"><block deletable=\"false\" type=\"event_trigger\" x=\"40\" y=\"40\"><field name=\"trigger\">no_ext_trigger</field><next><block type=\"controls_if\"><mutation else=\"1\"/><value name=\"IF0\"><block type=\"compare_mcitems_oredictionary\"><value name=\"a\"><block type=\"gui_get_item_inslot\"><value name=\"slotid\"><block type=\"math_number\"><field name=\"NUM\">0</field></block></value><value name=\"entity\"><block type=\"entity_from_deps\"/></value></block></value><value name=\"b\"><block type=\"text\"><field name=\"TEXT\">mods_city:money</field></block></value></block></value><statement name=\"DO0\"><block type=\"controls_if\"><mutation else=\"1\"/><value name=\"IF0\"><block type=\"compare_mcitems\"><value name=\"a\"><block type=\"gui_get_item_inslot\"><value name=\"slotid\"><block type=\"math_number\"><field name=\"NUM\">0</field></block></value><value name=\"entity\"><block type=\"entity_from_deps\"/></value></block></value><value name=\"b\"><block type=\"mcitem_all\"><field name=\"value\">CUSTOM:TenModBucks</field></block></value></block></value><statement name=\"DO0\"><block type=\"item_nbt_text_set\"><value name=\"tagName\"><block type=\"text\"><field name=\"TEXT\">balance</field></block></value><value name=\"item\"><block type=\"entity_iteminhand\"><value name=\"entity\"><block type=\"entity_from_deps\"/></value></block></value><value name=\"tagValue\"><block type=\"text_format_number\"><value name=\"number\"><block type=\"math_dual_ops\"><field name=\"OP\">ADD</field><value name=\"A\"><block type=\"math_from_text\"><value name=\"NUMTEXT\"><block type=\"item_nbt_text_get\"><value name=\"tagName\"><block type=\"text\"><field name=\"TEXT\">balance</field></block></value><value name=\"item\"><block type=\"entity_iteminhand\"><value name=\"entity\"><block type=\"entity_from_deps\"/></value></block></value></block></value></block></value><value name=\"B\"><block type=\"math_dual_ops\"><field name=\"OP\">MULTIPLY</field><value name=\"A\"><block type=\"itemstack_get_count\"><value name=\"item\"><block type=\"gui_get_item_inslot\"><value name=\"slotid\"><block type=\"math_number\"><field name=\"NUM\">0</field></block></value><value name=\"entity\"><block type=\"entity_from_deps\"/></value></block></value></block></value><value name=\"B\"><block type=\"math_number\"><field name=\"NUM\">10</field></block></value></block></value></block></value><value name=\"format\"><block type=\"text\"><field name=\"TEXT\">##.##</field></block></value></block></value></block></statement><statement name=\"ELSE\"><block type=\"controls_if\"><mutation else=\"1\"/><value name=\"IF0\"><block type=\"compare_mcitems\"><value name=\"a\"><block type=\"gui_get_item_inslot\"><value name=\"slotid\"><block type=\"math_number\"><field name=\"NUM\">0</field></block></value><value name=\"entity\"><block type=\"entity_from_deps\"/></value></block></value><value name=\"b\"><block type=\"mcitem_all\"><field name=\"value\">CUSTOM:OneModBuck</field></block></value></block></value><statement name=\"DO0\"><block type=\"item_nbt_text_set\"><value name=\"tagName\"><block type=\"text\"><field name=\"TEXT\">balance</field></block></value><value name=\"item\"><block type=\"entity_iteminhand\"><value name=\"entity\"><block type=\"entity_from_deps\"/></value></block></value><value name=\"tagValue\"><block type=\"text_format_number\"><value name=\"number\"><block type=\"math_dual_ops\"><field name=\"OP\">ADD</field><value name=\"A\"><block type=\"math_from_text\"><value name=\"NUMTEXT\"><block type=\"item_nbt_text_get\"><value name=\"tagName\"><block type=\"text\"><field name=\"TEXT\">balance</field></block></value><value name=\"item\"><block type=\"entity_iteminhand\"><value name=\"entity\"><block type=\"entity_from_deps\"/></value></block></value></block></value></block></value><value name=\"B\"><block type=\"math_dual_ops\"><field name=\"OP\">MULTIPLY</field><value name=\"A\"><block type=\"itemstack_get_count\"><value name=\"item\"><block type=\"gui_get_item_inslot\"><value name=\"slotid\"><block type=\"math_number\"><field name=\"NUM\">0</field></block></value><value name=\"entity\"><block type=\"entity_from_deps\"/></value></block></value></block></value><value name=\"B\"><block type=\"math_number\"><field name=\"NUM\">1</field></block></value></block></value></block></value><value name=\"format\"><block type=\"text\"><field name=\"TEXT\">##.##</field></block></value></block></value></block></statement><statement name=\"ELSE\"><block type=\"controls_if\"><value name=\"IF0\"><block type=\"compare_mcitems\"><value name=\"a\"><block type=\"gui_get_item_inslot\"><value name=\"slotid\"><block type=\"math_number\"><field name=\"NUM\">0</field></block></value><value name=\"entity\"><block type=\"entity_from_deps\"/></value></block></value><value name=\"b\"><block type=\"mcitem_all\"><field name=\"value\">CUSTOM:TenModCents</field></block></value></block></value><statement name=\"DO0\"><block type=\"item_nbt_text_set\"><value name=\"tagName\"><block type=\"text\"><field name=\"TEXT\">balance</field></block></value><value name=\"item\"><block type=\"entity_iteminhand\"><value name=\"entity\"><block type=\"entity_from_deps\"/></value></block></value><value name=\"tagValue\"><block type=\"text_format_number\"><value name=\"number\"><block type=\"math_dual_ops\"><field name=\"OP\">ADD</field><value name=\"A\"><block type=\"math_from_text\"><value name=\"NUMTEXT\"><block type=\"item_nbt_text_get\"><value name=\"tagName\"><block type=\"text\"><field name=\"TEXT\">balance</field></block></value><value name=\"item\"><block type=\"entity_iteminhand\"><value name=\"entity\"><block type=\"entity_from_deps\"/></value></block></value></block></value></block></value><value name=\"B\"><block type=\"math_dual_ops\"><field name=\"OP\">MULTIPLY</field><value name=\"A\"><block type=\"itemstack_get_count\"><value name=\"item\"><block type=\"gui_get_item_inslot\"><value name=\"slotid\"><block type=\"math_number\"><field name=\"NUM\">0</field></block></value><value name=\"entity\"><block type=\"entity_from_deps\"/></value></block></value></block></value><value name=\"B\"><block type=\"math_number\"><field name=\"NUM\">0.1</field></block></value></block></value></block></value><value name=\"format\"><block type=\"text\"><field name=\"TEXT\">##.##</field></block></value></block></value></block></statement></block></statement></block></statement><next><block type=\"gui_set_text_textfield\"><field name=\"textfield\">balance</field><value name=\"text\"><block type=\"item_nbt_text_get\"><value name=\"tagName\"><block type=\"text\"><field name=\"TEXT\">balance</field></block></value><value name=\"item\"><block type=\"entity_iteminhand\"><value name=\"entity\"><block type=\"entity_from_deps\"/></value></block></value></block></value><next><block type=\"gui_remove_items\"><value name=\"amount\"><block type=\"math_number\"><field name=\"NUM\">64</field></block></value><value name=\"slotid\"><block type=\"math_number\"><field name=\"NUM\">0</field></block></value><value name=\"entity\"><block type=\"entity_from_deps\"/></value></block></next></block></next></block></statement><statement name=\"ELSE\"><block type=\"entity_send_chat\"><value name=\"text\"><block type=\"text\"><field name=\"TEXT\">That's not money, silly!</field></block></value><value name=\"entity\"><block type=\"entity_from_deps\"/></value><value name=\"actbar\"><block type=\"logic_boolean\"><field name=\"BOOL\">FALSE</field></block></value></block></statement></block></next></block></xml>"
  }
}