{
  "_fv": 39,
  "_type": "procedure",
  "definition": {
    "procedurexml": "<?xml version=\"1.0\" encoding=\"UTF-8\" standalone=\"no\"?><xml xmlns=\"https://developers.google.com/blockly/xml\"><block deletable=\"false\" type=\"event_trigger\" x=\"40\" y=\"40\"><field name=\"trigger\">no_ext_trigger</field><next><block type=\"gui_set_text_textfield\"><field name=\"textfield\">result</field><value name=\"text\"><block type=\"text_format_number\"><value name=\"number\"><block type=\"math_dual_ops\"><field name=\"OP\">DIVIDE</field><value name=\"A\"><block type=\"math_from_text\"><value name=\"NUMTEXT\"><block type=\"gui_get_text_textfield\"><field name=\"textfield\">calc1</field></block></value></block></value><value name=\"B\"><block type=\"math_from_text\"><value name=\"NUMTEXT\"><block type=\"gui_get_text_textfield\"><field name=\"textfield\">calc2</field></block></value></block></value></block></value><value name=\"format\"><block type=\"text\"><field name=\"TEXT\">##.##</field></block></value></block></value></block></next></block></xml>"
  }
}