{
  "_fv": 39,
  "_type": "block",
  "definition": {
    "texture": "road_slope_top",
    "textureTop": "",
    "textureLeft": "",
    "textureFront": "",
    "textureRight": "",
    "textureBack": "",
    "renderType": 2,
    "customModelName": "slope_flipped:default",
    "rotationMode": 1,
    "enablePitch": false,
    "emissiveRendering": false,
    "displayFluidOverlay": false,
    "itemTexture": "",
    "particleTexture": "",
    "tintType": "No tint",
    "isItemTinted": false,
    "hasTransparency": true,
    "connectedSides": true,
    "transparencyType": "CUTOUT",
    "disableOffset": false,
    "boundingBoxes": [
      {
        "mx": 0.0,
        "my": 0.0,
        "mz": 15.0,
        "Mx": 16.0,
        "My": 1.0,
        "Mz": 16.0,
        "subtract": false
      },
      {
        "mx": 0.0,
        "my": 1.0,
        "mz": 14.0,
        "Mx": 16.0,
        "My": 2.0,
        "Mz": 16.0,
        "subtract": false
      },
      {
        "mx": 0.0,
        "my": 2.0,
        "mz": 13.0,
        "Mx": 16.0,
        "My": 3.0,
        "Mz": 16.0,
        "subtract": false
      },
      {
        "mx": 0.0,
        "my": 3.0,
        "mz": 12.0,
        "Mx": 16.0,
        "My": 4.0,
        "Mz": 16.0,
        "subtract": false
      },
      {
        "mx": 0.0,
        "my": 4.0,
        "mz": 11.0,
        "Mx": 16.0,
        "My": 5.0,
        "Mz": 16.0,
        "subtract": false
      },
      {
        "mx": 0.0,
        "my": 5.0,
        "mz": 10.0,
        "Mx": 16.0,
        "My": 6.0,
        "Mz": 16.0,
        "subtract": false
      },
      {
        "mx": 0.0,
        "my": 6.0,
        "mz": 9.0,
        "Mx": 16.0,
        "My": 7.0,
        "Mz": 16.0,
        "subtract": false
      },
      {
        "mx": 0.0,
        "my": 7.0,
        "mz": 8.0,
        "Mx": 16.0,
        "My": 8.0,
        "Mz": 16.0,
        "subtract": false
      },
      {
        "mx": 0.0,
        "my": 8.0,
        "mz": 7.0,
        "Mx": 16.0,
        "My": 9.0,
        "Mz": 16.0,
        "subtract": false
      },
      {
        "mx": 0.0,
        "my": 9.0,
        "mz": 6.0,
        "Mx": 16.0,
        "My": 10.0,
        "Mz": 16.0,
        "subtract": false
      },
      {
        "mx": 0.0,
        "my": 10.0,
        "mz": 5.0,
        "Mx": 16.0,
        "My": 11.0,
        "Mz": 16.0,
        "subtract": false
      },
      {
        "mx": 0.0,
        "my": 11.0,
        "mz": 4.0,
        "Mx": 16.0,
        "My": 12.0,
        "Mz": 16.0,
        "subtract": false
      },
      {
        "mx": 0.0,
        "my": 12.0,
        "mz": 3.0,
        "Mx": 16.0,
        "My": 13.0,
        "Mz": 16.0,
        "subtract": false
      },
      {
        "mx": 0.0,
        "my": 13.0,
        "mz": 2.0,
        "Mx": 16.0,
        "My": 14.0,
        "Mz": 16.0,
        "subtract": false
      },
      {
        "mx": 0.0,
        "my": 14.0,
        "mz": 1.0,
        "Mx": 16.0,
        "My": 15.0,
        "Mz": 16.0,
        "subtract": false
      },
      {
        "mx": 0.0,
        "my": 15.0,
        "mz": 0.0,
        "Mx": 16.0,
        "My": 16.0,
        "Mz": 16.0,
        "subtract": false
      }
    ],
    "name": "Road Slope",
    "specialInfo": [],
    "hardness": 1.0,
    "resistance": 10.0,
    "hasGravity": false,
    "isWaterloggable": true,
    "creativeTab": {
      "value": "No creative tab entry"
    },
    "destroyTool": "pickaxe",
    "customDrop": {
      "value": "CUSTOM:RoadSlope"
    },
    "dropAmount": 1,
    "useLootTableForDrops": false,
    "requiresCorrectTool": false,
    "enchantPowerBonus": 0.0,
    "plantsGrowOn": false,
    "canRedstoneConnect": false,
    "lightOpacity": 0,
    "material": {
      "value": "ROCK"
    },
    "tickRate": 0,
    "tickRandomly": false,
    "isReplaceable": false,
    "canProvidePower": false,
    "emittedRedstonePower": {
      "fixedValue": 15.0
    },
    "colorOnMap": "DEFAULT",
    "creativePickItem": {
      "value": "CUSTOM:RoadSlope"
    },
    "offsetType": "NONE",
    "aiPathNodeType": "DEFAULT",
    "flammability": 0,
    "fireSpreadSpeed": 0,
    "isLadder": false,
    "slipperiness": 0.6,
    "speedFactor": 1.0,
    "jumpFactor": 1.0,
    "reactionToPushing": "NORMAL",
    "isNotColidable": false,
    "isCustomSoundType": false,
    "soundOnStep": {
      "value": "STONE"
    },
    "breakSound": {
      "value": ""
    },
    "fallSound": {
      "value": ""
    },
    "hitSound": {
      "value": ""
    },
    "placeSound": {
      "value": ""
    },
    "stepSound": {
      "value": ""
    },
    "luminance": 0,
    "unbreakable": false,
    "breakHarvestLevel": 1,
    "isBonemealable": false,
    "hasInventory": false,
    "guiBoundTo": "<NONE>",
    "openGUIOnRightClick": false,
    "inventorySize": 9,
    "inventoryStackSize": 64,
    "inventoryDropWhenDestroyed": true,
    "inventoryComparatorPower": true,
    "inventoryOutSlotIDs": [],
    "inventoryInSlotIDs": [],
    "hasEnergyStorage": false,
    "energyInitial": 0,
    "energyCapacity": 400000,
    "energyMaxReceive": 200,
    "energyMaxExtract": 200,
    "isFluidTank": false,
    "fluidCapacity": 8000,
    "fluidRestrictions": [],
    "spawnWorldTypes": [],
    "restrictionBiomes": [],
    "blocksToReplace": [],
    "generationShape": "UNIFORM",
    "frequencyPerChunks": 10,
    "frequencyOnChunk": 16,
    "minGenerateHeight": 0,
    "maxGenerateHeight": 64
  }
}