{
  "_fv": 39,
  "_type": "itemextension",
  "definition": {
    "item": {
      "value": "CUSTOM:Fuel.bucket"
    },
    "enableFuel": true,
    "fuelPower": {
      "fixedValue": 10000.0
    },
    "hasDispenseBehavior": false,
    "compostLayerChance": 0.0
  }
}