{
  "_fv": 39,
  "_type": "item",
  "definition": {
    "renderType": 1,
    "texture": "modsphone6_black",
    "customModelName": "phonem22_white:default",
    "name": "Mods Phone M22",
    "rarity": "UNCOMMON",
    "creativeTab": {
      "value": "CUSTOM:ModsPhones"
    },
    "stackSize": 1,
    "enchantability": 0,
    "useDuration": 0,
    "toolType": 1.0,
    "damageCount": 0,
    "recipeRemainder": {
      "value": ""
    },
    "destroyAnyBlock": false,
    "immuneToFire": false,
    "stayInGridWhenCrafting": false,
    "damageOnCrafting": false,
    "enableMeleeDamage": false,
    "damageVsEntity": 0.0,
    "specialInfo": [
      "White"
    ],
    "hasGlow": false,
    "guiBoundTo": "SmartPhoneGUIOFF",
    "inventorySize": 9,
    "inventoryStackSize": 64,
    "onRightClickedInAir": {
      "name": "SmartPhoneRightclicked"
    },
    "isFood": false,
    "nutritionalValue": 4,
    "saturation": 0.3,
    "eatResultItem": {
      "value": ""
    },
    "isMeat": false,
    "isAlwaysEdible": false,
    "animation": "none"
  }
}