{
  "_fv": 39,
  "_type": "gui",
  "definition": {
    "type": 0,
    "width": 175,
    "height": 131,
    "inventoryOffsetX": 0,
    "inventoryOffsetY": 0,
    "renderBgLayer": true,
    "doesPauseGame": false,
    "components": [
      {
        "type": "textfield",
        "data": {
          "placeholder": "Message...",
          "name": "MsgInsert",
          "width": 120,
          "height": 20,
          "x": 134,
          "y": 161
        }
      },
      {
        "type": "label",
        "data": {
          "name": "label_messages",
          "text": {
            "fixedValue": "Messages"
          },
          "color": {
            "value": -12829636,
            "falpha": 0.0
          },
          "x": 144,
          "y": 60
        }
      },
      {
        "type": "textfield",
        "data": {
          "placeholder": "No messages",
          "name": "msg",
          "width": 120,
          "height": 20,
          "x": 172,
          "y": 83
        }
      },
      {
        "type": "button",
        "data": {
          "name": "button_send",
          "text": "Send",
          "onClick": {
            "name": "SendMsg"
          },
          "width": 41,
          "height": 20,
          "x": 254,
          "y": 161
        }
      },
      {
        "type": "button",
        "data": {
          "name": "button_refresh",
          "text": "Refresh",
          "onClick": {
            "name": "ReadServerData"
          },
          "width": 45,
          "height": 20,
          "x": 132,
          "y": 136
        }
      },
      {
        "type": "label",
        "data": {
          "name": "label_not_working",
          "text": {
            "fixedValue": "Not working?"
          },
          "color": {
            "value": -12829636,
            "falpha": 0.0
          },
          "x": 132,
          "y": 122
        }
      },
      {
        "type": "image",
        "data": {
          "image": "messages.png",
          "use1Xscale": false,
          "x": 130,
          "y": 59
        }
      },
      {
        "type": "image",
        "data": {
          "image": "msgtail.png",
          "use1Xscale": false,
          "x": 286,
          "y": 103
        }
      },
      {
        "type": "button",
        "data": {
          "name": "button_x",
          "text": "x",
          "onClick": {
            "name": "CloseGUI"
          },
          "width": 19,
          "height": 20,
          "x": 279,
          "y": 58
        }
      }
    ],
    "gridSettings": {
      "sx": 17,
      "sy": 18,
      "ox": 11,
      "oy": 15,
      "snapOnGrid": false
    }
  }
}