{
  "_fv": 39,
  "_type": "procedure",
  "definition": {
    "procedurexml": "<?xml version=\"1.0\" encoding=\"UTF-8\" standalone=\"no\"?><xml xmlns=\"https://developers.google.com/blockly/xml\"><block deletable=\"false\" type=\"event_trigger\" x=\"40\" y=\"40\"><field name=\"trigger\">no_ext_trigger</field><next><block type=\"controls_if\"><value name=\"IF0\"><block type=\"world_entity_inrange_exists\"><field name=\"entity\">CUSTOM:Npc</field><value name=\"x\"><block type=\"coord_x\"/></value><value name=\"y\"><block type=\"coord_y\"/></value><value name=\"z\"><block type=\"coord_z\"/></value><value name=\"range\"><block type=\"math_number\"><field name=\"NUM\">6</field></block></value></block></value><statement name=\"DO0\"><block type=\"controls_if\"><value name=\"IF0\"><block type=\"logic_negate\"><value name=\"BOOL\"><block type=\"world_data_isremote\"/></value></block></value><statement name=\"DO0\"><block type=\"spawn_entity\"><field name=\"entity\">CUSTOM:Npc8</field><value name=\"x\"><block type=\"entity_pos_x\"><value name=\"entity\"><block type=\"world_entity_inrange\"><field name=\"entity\">CUSTOM:Npc</field><value name=\"x\"><block type=\"coord_x\"/></value><value name=\"y\"><block type=\"coord_y\"/></value><value name=\"z\"><block type=\"coord_z\"/></value><value name=\"range\"><block type=\"math_number\"><field name=\"NUM\">6</field></block></value></block></value></block></value><value name=\"y\"><block type=\"entity_pos_y\"><value name=\"entity\"><block type=\"world_entity_inrange\"><field name=\"entity\">CUSTOM:Npc</field><value name=\"x\"><block type=\"coord_x\"/></value><value name=\"y\"><block type=\"coord_y\"/></value><value name=\"z\"><block type=\"coord_z\"/></value><value name=\"range\"><block type=\"math_number\"><field name=\"NUM\">6</field></block></value></block></value></block></value><value name=\"z\"><block type=\"entity_pos_z\"><value name=\"entity\"><block type=\"world_entity_inrange\"><field name=\"entity\">CUSTOM:Npc</field><value name=\"x\"><block type=\"coord_x\"/></value><value name=\"y\"><block type=\"coord_y\"/></value><value name=\"z\"><block type=\"coord_z\"/></value><value name=\"range\"><block type=\"math_number\"><field name=\"NUM\">6</field></block></value></block></value></block></value><next><block type=\"entity_despawn\"><value name=\"entity\"><block type=\"world_entity_inrange\"><field name=\"entity\">CUSTOM:Npc</field><value name=\"x\"><block type=\"coord_x\"/></value><value name=\"y\"><block type=\"coord_y\"/></value><value name=\"z\"><block type=\"coord_z\"/></value><value name=\"range\"><block type=\"math_number\"><field name=\"NUM\">6</field></block></value></block></value></block></next></block></statement></block></statement></block></next></block></xml>"
  }
}