{
  "_fv": 39,
  "_type": "procedure",
  "definition": {
    "procedurexml": "<?xml version=\"1.0\" encoding=\"UTF-8\" standalone=\"no\"?><xml xmlns=\"https://developers.google.com/blockly/xml\"><block deletable=\"false\" type=\"event_trigger\" x=\"40\" y=\"40\"><field name=\"trigger\">block_place</field><next><block type=\"controls_if\"><value name=\"IF0\"><block type=\"compare_mcblocks\"><value name=\"a\"><block type=\"world_data_blockat\"><value name=\"x\"><block type=\"world_data_spawn_x\"/></value><value name=\"y\"><block type=\"math_number\"><field name=\"NUM\">-59</field></block></value><value name=\"z\"><block type=\"world_data_spawn_z\"/></value></block></value><value name=\"b\"><block type=\"mcitem_allblocks\"><field name=\"value\">CUSTOM:Server</field></block></value></block></value><statement name=\"DO0\"><block type=\"entity_add_achievement\"><field name=\"achievement\">CUSTOM:Precision100</field><value name=\"entity\"><block type=\"entity_from_deps\"/></value></block></statement></block></next></block></xml>"
  }
}