{
  "_fv": 39,
  "_type": "recipe",
  "definition": {
    "recipeType": "Crafting",
    "xpReward": 0.0,
    "cookingTime": 200,
    "recipeRetstackSize": 9,
    "group": "",
    "recipeShapeless": false,
    "recipeSlots": [
      {
        "value": "Blocks.CONCRETE#7"
      },
      {
        "value": "Blocks.CONCRETE#4"
      },
      {
        "value": "Blocks.CONCRETE#7"
      },
      {
        "value": "Blocks.CONCRETE_POWDER#4"
      },
      {
        "value": "Blocks.CONCRETE#7"
      },
      {
        "value": "Blocks.CONCRETE#7"
      },
      {
        "value": "Blocks.CONCRETE#7"
      },
      {
        "value": "Blocks.CONCRETE#7"
      },
      {
        "value": "Blocks.CONCRETE#7"
      }
    ],
    "recipeReturnStack": {
      "value": "CUSTOM:RoadSideLine2"
    },
    "name": "road_side_line_2_craft_2",
    "namespace": "mod"
  }
}