{
  "_fv": 39,
  "_type": "achievement",
  "definition": {
    "achievementName": "Road Builder!",
    "achievementDescription": "Place a Road Block!",
    "achievementIcon": {
      "value": "CUSTOM:RoadCenterLine1"
    },
    "background": "Default",
    "disableDisplay": false,
    "showPopup": true,
    "announceToChat": true,
    "hideIfNotCompleted": false,
    "rewardLoot": [],
    "rewardRecipes": [],
    "rewardFunction": "No function",
    "rewardXP": 0,
    "achievementType": "task",
    "parent": {
      "value": "CUSTOM:ModsCity"
    },
    "triggerxml": "<xml xmlns=\"https://developers.google.com/blockly/xml\"><block type=\"block_placed\" x=\"41\" y=\"21\"><value name=\"block\"><block type=\"mcitem_allblocks\"><field name=\"value\">CUSTOM:RoadCenterLine1</field></block></value><next><block type=\"advancement_trigger\" deletable=\"false\"></block></next></block></xml>"
  }
}