{
  "_fv": 39,
  "_type": "procedure",
  "definition": {
    "procedurexml": "<?xml version=\"1.0\" encoding=\"UTF-8\" standalone=\"no\"?><xml xmlns=\"https://developers.google.com/blockly/xml\"><block deletable=\"false\" type=\"event_trigger\" x=\"40\" y=\"40\"><field name=\"trigger\">no_ext_trigger</field><next><block type=\"controls_if\"><mutation else=\"1\"/><value name=\"IF0\"><block type=\"logic_binary_ops\"><field name=\"OP\">AND</field><value name=\"A\"><block type=\"math_binary_ops\"><field name=\"OP\">EQ</field><value name=\"A\"><block type=\"coord_x\"/></value><value name=\"B\"><block type=\"world_data_spawn_x\"/></value></block></value><value name=\"B\"><block type=\"logic_binary_ops\"><field name=\"OP\">AND</field><value name=\"A\"><block type=\"math_binary_ops\"><field name=\"OP\">EQ</field><value name=\"A\"><block type=\"coord_y\"/></value><value name=\"B\"><block type=\"math_number\"><field name=\"NUM\">-59</field></block></value></block></value><value name=\"B\"><block type=\"math_binary_ops\"><field name=\"OP\">EQ</field><value name=\"A\"><block type=\"coord_z\"/></value><value name=\"B\"><block type=\"world_data_spawn_z\"/></value></block></value></block></value></block></value><statement name=\"DO0\"><block type=\"world_send_chat\"><value name=\"text\"><block type=\"text\"><field name=\"TEXT\">Server Placed!</field></block></value><next><block type=\"spawn_particle_multi\"><field name=\"particle\">END_ROD</field><value name=\"count\"><block type=\"math_number\"><field name=\"NUM\">20</field></block></value><value name=\"x\"><block type=\"coord_x\"/></value><value name=\"y\"><block type=\"coord_y\"/></value><value name=\"z\"><block type=\"coord_z\"/></value><value name=\"dx\"><block type=\"math_number\"><field name=\"NUM\">1</field></block></value><value name=\"dy\"><block type=\"math_number\"><field name=\"NUM\">1</field></block></value><value name=\"dz\"><block type=\"math_number\"><field name=\"NUM\">1</field></block></value><value name=\"speed\"><block type=\"math_number\"><field name=\"NUM\">0</field></block></value></block></next></block></statement><statement name=\"ELSE\"><block type=\"entity_send_chat\"><value name=\"text\"><block type=\"text_join\"><mutation items=\"2\"/><value name=\"ADD0\"><block type=\"text\"><field name=\"TEXT\">Place me underground at world spawn: </field></block></value><value name=\"ADD1\"><block type=\"text_join\"><mutation items=\"3\"/><value name=\"ADD0\"><block type=\"text_join\"><mutation items=\"2\"/><value name=\"ADD0\"><block type=\"text\"><field name=\"TEXT\">x = </field></block></value><value name=\"ADD1\"><block type=\"text_format_number\"><value name=\"number\"><block type=\"world_data_spawn_x\"/></value><value name=\"format\"><block type=\"text\"><field name=\"TEXT\">##</field></block></value></block></value></block></value><value name=\"ADD1\"><block type=\"text\"><field name=\"TEXT\">, y = -59, </field></block></value><value name=\"ADD2\"><block type=\"text_join\"><mutation items=\"2\"/><value name=\"ADD0\"><block type=\"text\"><field name=\"TEXT\">z = </field></block></value><value name=\"ADD1\"><block type=\"text_format_number\"><value name=\"number\"><block type=\"world_data_spawn_z\"/></value><value name=\"format\"><block type=\"text\"><field name=\"TEXT\">##</field></block></value></block></value></block></value></block></value></block></value><value name=\"entity\"><block type=\"world_entity_inrange\"><field name=\"entity\">EntityPlayer</field><value name=\"x\"><block type=\"coord_x\"/></value><value name=\"y\"><block type=\"coord_y\"/></value><value name=\"z\"><block type=\"coord_z\"/></value><value name=\"range\"><block type=\"math_number\"><field name=\"NUM\">4</field></block></value></block></value><value name=\"actbar\"><block type=\"logic_boolean\"><field name=\"BOOL\">FALSE</field></block></value></block></statement></block></next></block></xml>"
  }
}