{
  "_fv": 39,
  "_type": "procedure",
  "definition": {
    "procedurexml": "<?xml version=\"1.0\" encoding=\"UTF-8\" standalone=\"no\"?><xml xmlns=\"https://developers.google.com/blockly/xml\"><block deletable=\"false\" type=\"event_trigger\" x=\"-2\" y=\"146\"><field name=\"trigger\">no_ext_trigger</field><next><block type=\"item_nbt_text_set\"><value name=\"tagName\"><block type=\"text\"><field name=\"TEXT\">user</field></block></value><value name=\"item\"><block type=\"entity_iteminhand\"><value name=\"entity\"><block type=\"entity_from_deps\"/></value></block></value><value name=\"tagValue\"><block type=\"gui_get_text_textfield\"><field name=\"textfield\">user</field></block></value><next><block type=\"item_set_display_name\"><value name=\"item\"><block type=\"entity_iteminhand\"><value name=\"entity\"><block type=\"entity_from_deps\"/></value></block></value><value name=\"displayname\"><block type=\"text_join\"><mutation items=\"2\"/><value name=\"ADD0\"><block type=\"item_nbt_text_get\"><value name=\"tagName\"><block type=\"text\"><field name=\"TEXT\">user</field></block></value><value name=\"item\"><block type=\"entity_iteminhand\"><value name=\"entity\"><block type=\"entity_from_deps\"/></value></block></value></block></value><value name=\"ADD1\"><block type=\"text\"><field name=\"TEXT\">'s Credit Card</field></block></value></block></value><next><block type=\"entity_close_gui\"><value name=\"entity\"><block type=\"entity_from_deps\"/></value></block></next></block></next></block></next></block></xml>"
  }
}