{
  "_fv": 39,
  "_type": "gui",
  "definition": {
    "type": 0,
    "width": 176,
    "height": 76,
    "inventoryOffsetX": 0,
    "inventoryOffsetY": 0,
    "renderBgLayer": true,
    "doesPauseGame": false,
    "components": [
      {
        "type": "label",
        "data": {
          "name": "label_sign",
          "text": {
            "fixedValue": "Sign"
          },
          "color": {
            "value": -12829636,
            "falpha": 0.0
          },
          "x": 132,
          "y": 89
        }
      },
      {
        "type": "textfield",
        "data": {
          "placeholder": "Username",
          "name": "user",
          "width": 120,
          "height": 20,
          "x": 152,
          "y": 107
        }
      },
      {
        "type": "button",
        "data": {
          "name": "button_done",
          "text": "Done",
          "onClick": {
            "name": "SignProc"
          },
          "width": 46,
          "height": 20,
          "x": 249,
          "y": 132
        }
      }
    ],
    "gridSettings": {
      "sx": 18,
      "sy": 18,
      "ox": 11,
      "oy": 15,
      "snapOnGrid": true
    }
  }
}