{
  "_fv": 39,
  "_type": "gui",
  "definition": {
    "type": 0,
    "width": 119,
    "height": 191,
    "inventoryOffsetX": 0,
    "inventoryOffsetY": 0,
    "renderBgLayer": true,
    "doesPauseGame": false,
    "components": [
      {
        "type": "image",
        "data": {
          "image": "screenwall1.png",
          "use1Xscale": false,
          "x": 154,
          "y": 25
        }
      },
      {
        "type": "button",
        "data": {
          "name": "button_o",
          "text": "O",
          "width": 35,
          "height": 20,
          "x": 195,
          "y": 192
        }
      },
      {
        "type": "button",
        "data": {
          "name": "button_chat",
          "text": "Chat",
          "onClick": {
            "name": "MsgAppMobileOpen"
          },
          "width": 25,
          "height": 20,
          "x": 177,
          "y": 53
        }
      },
      {
        "type": "image",
        "data": {
          "image": "messages.png",
          "use1Xscale": false,
          "x": 184,
          "y": 39
        }
      },
      {
        "type": "button",
        "data": {
          "name": "button_sett",
          "text": "Sett.",
          "onClick": {
            "name": "OpenSettingsGUI"
          },
          "width": 25,
          "height": 20,
          "x": 222,
          "y": 53
        }
      },
      {
        "type": "image",
        "data": {
          "image": "settingsicon.png",
          "use1Xscale": false,
          "x": 227,
          "y": 39
        }
      }
    ],
    "gridSettings": {
      "sx": 18,
      "sy": 18,
      "ox": 11,
      "oy": 15,
      "snapOnGrid": false
    }
  }
}