{
  "_fv": 39,
  "_type": "particle",
  "definition": {
    "texture": "vehicle_void_display.png",
    "animate": false,
    "frameDuration": 1,
    "width": 0.2,
    "height": 0.2,
    "scale": 1.0,
    "speedFactor": 0.0,
    "gravity": 0.0,
    "maxAge": 40,
    "maxAgeDiff": 1,
    "angularVelocity": 0.0,
    "angularAcceleration": 0.0,
    "canCollide": false,
    "alwaysShow": true,
    "renderType": "OPAQUE"
  }
}