{
  "type": "minecraft:crafting_shaped",
  "pattern": [
    "012"
  ],
  "key": {
    "0": {
      "item": "minecraft:pink_dye"
    },
    "1": {
      "item": "minecraft:sugar"
    },
    "2": {
      "item": "minecraft:pink_dye"
    }
  },
  "result": {
    "item": "mods_city_mod:candy",
    "count": 2
  }
}