{
  "type": "minecraft:crafting_shaped",
  "pattern": [
    "012",
    "345",
    "678"
  ],
  "key": {
    "0": {
      "item": "minecraft:gray_concrete"
    },
    "1": {
      "item": "minecraft:gray_concrete"
    },
    "2": {
      "item": "minecraft:gray_concrete"
    },
    "3": {
      "item": "minecraft:gray_concrete"
    },
    "4": {
      "item": "minecraft:gray_concrete"
    },
    "5": {
      "item": "minecraft:yellow_concrete_powder"
    },
    "6": {
      "item": "minecraft:gray_concrete"
    },
    "7": {
      "item": "minecraft:yellow_concrete_powder"
    },
    "8": {
      "item": "minecraft:gray_concrete"
    }
  },
  "result": {
    "item": "mods_city_mod:road_side_line_2",
    "count": 9
  }
}