{
  "type": "minecraft:crafting_shaped",
  "pattern": [
    "0",
    "1",
    "2"
  ],
  "key": {
    "0": {
      "item": "minecraft:iron_ingot"
    },
    "1": {
      "item": "minecraft:iron_ingot"
    },
    "2": {
      "item": "minecraft:iron_ingot"
    }
  },
  "result": {
    "item": "mods_city_mod:stoplight_pole",
    "count": 3
  }
}