{
  "parent": "mods_city_mod:custom/diagonal_stairs_1",
  "textures": {
    "all": "mods_city_mod:blocks/stone_bricks",
    "particle": "mods_city_mod:blocks/stone_bricks",
    "0": "mods_city_mod:blocks/stone_bricks",
    "1": "mods_city_mod:blocks/stone_bricks_tiled"
  }
}