{
  "parent": "mods_city_mod:custom/diagonal_stairs_7",
  "textures": {
    "all": "mods_city_mod:blocks/gray_concrete_tiled_2px_line",
    "particle": "mods_city_mod:blocks/gray_concrete_tiled_2px_line",
    "1": "mods_city_mod:blocks/stone_bricks_tiled",
    "2": "mods_city_mod:blocks/gray_concrete_tiled_2px_line"
  }
}