{
  "parent": "mods_city_mod:custom/half_grass_polished_andesite",
  "textures": {
    "all": "mods_city_mod:blocks/polished_andesite",
    "particle": "mods_city_mod:blocks/polished_andesite",
    "side": "mods_city_mod:blocks/grass_block_side",
    "4": "mods_city_mod:blocks/half_polished_andesite",
    "top": "mods_city_mod:blocks/half_grass_block_top",
    "overlay": "mods_city_mod:blocks/grass_block_side_overlay",
    "5": "mods_city_mod:blocks/polished_andesite",
    "bottom": "mods_city_mod:blocks/dirt"
  }
}