{
  "parent": "mods_city_mod:custom/manhole_opened",
  "textures": {
    "all": "mods_city_mod:blocks/manhole",
    "particle": "mods_city_mod:blocks/manhole",
    "0": "mods_city_mod:blocks/manhole"
  }
}