{
  "parent": "block/cube",
  "textures": {
    "down": "mods_city_mod:blocks/gray_concrete",
    "up": "mods_city_mod:blocks/center_road_diagonal_lines_4",
    "north": "mods_city_mod:blocks/gray_concrete",
    "east": "mods_city_mod:blocks/gray_concrete",
    "south": "mods_city_mod:blocks/gray_concrete",
    "west": "mods_city_mod:blocks/gray_concrete",
    "particle": "mods_city_mod:blocks/gray_concrete"
  }
}