{
  "parent": "mods_city_mod:custom/stoplight3",
  "textures": {
    "all": "mods_city_mod:blocks/stoplight",
    "particle": "mods_city_mod:blocks/stoplight",
    "0": "mods_city_mod:blocks/stoplight",
    "1": "mods_city_mod:blocks/stoplight_pole"
  }
}