{
  "parent": "block/cube",
  "textures": {
    "down": "mods_city_mod:blocks/vehicle_void",
    "up": "mods_city_mod:blocks/vehicle_void",
    "north": "mods_city_mod:blocks/vehicle_void",
    "east": "mods_city_mod:blocks/vehicle_void",
    "south": "mods_city_mod:blocks/vehicle_void",
    "west": "mods_city_mod:blocks/vehicle_void",
    "particle": "mods_city_mod:blocks/vehicle_void_display"
  }
}