{
  "variants": {
    "facing=north": {
      "model": "mods_city_mod:block/switch_with_dock"
    },
    "facing=east": {
      "model": "mods_city_mod:block/switch_with_dock",
      "y": 90
    },
    "facing=south": {
      "model": "mods_city_mod:block/switch_with_dock",
      "y": 180
    },
    "facing=west": {
      "model": "mods_city_mod:block/switch_with_dock",
      "y": 270
    }
  }
}