{
	"credit": "Made with Blockbench",
	"textures": {
		"0": "xmas_lights",
		"particle": "xmas_lights"
	},
	"elements": [
		{
			"from": [0, 0, 15.75],
			"to": [16, 16, 15.75],
			"faces": {
				"north": {"uv": [0, 0, 16, 16], "texture": "#0"},
				"south": {"uv": [0, 0, 16, 16], "texture": "#0"}
			}
		}
	],
	"display": {}
}