{
	"credit": "Made with Blockbench",
	"textures": {
		"0": "polished_andesite",
		"particle": "polished_andesite"
	},
	"elements": [
		{
			"from": [0, 0, 15],
			"to": [16, 16, 16],
			"rotation": {"angle": 0, "axis": "y", "origin": [16, 0, 0]},
			"faces": {
				"north": {"uv": [16, 0, 0, 16], "texture": "#0"},
				"east": {"uv": [16, 0, 15, 16], "texture": "#0"},
				"south": {"uv": [16, 0, 0, 16], "texture": "#0"},
				"west": {"uv": [1, 0, 0, 16], "texture": "#0"},
				"up": {"uv": [0, 0, 16, 1], "texture": "#0"},
				"down": {"uv": [0, 0, 16, 1], "texture": "#0"}
			}
		},
		{
			"from": [2, 0, 14],
			"to": [16, 16, 15],
			"rotation": {"angle": 0, "axis": "y", "origin": [16, 0, 0]},
			"faces": {
				"north": {"uv": [16, 0, 2, 16], "texture": "#0"},
				"east": {"uv": [15, 0, 14, 16], "texture": "#0"},
				"south": {"uv": [16, 0, 2, 16], "texture": "#0"},
				"west": {"uv": [2, 0, 1, 16], "texture": "#0"},
				"up": {"uv": [2, 1, 16, 2], "texture": "#0"},
				"down": {"uv": [2, 1, 16, 2], "texture": "#0"}
			}
		},
		{
			"from": [4, 0, 13],
			"to": [16, 16, 14],
			"rotation": {"angle": 0, "axis": "y", "origin": [16, 0, 0]},
			"faces": {
				"north": {"uv": [16, 0, 4, 16], "texture": "#0"},
				"east": {"uv": [14, 0, 13, 16], "texture": "#0"},
				"south": {"uv": [16, 0, 4, 16], "texture": "#0"},
				"west": {"uv": [3, 0, 2, 16], "texture": "#0"},
				"up": {"uv": [4, 2, 16, 3], "texture": "#0"},
				"down": {"uv": [4, 2, 16, 3], "texture": "#0"}
			}
		},
		{
			"from": [6, 0, 12],
			"to": [16, 16, 13],
			"rotation": {"angle": 0, "axis": "y", "origin": [16, 0, 0]},
			"faces": {
				"north": {"uv": [16, 0, 6, 16], "texture": "#0"},
				"east": {"uv": [13, 0, 12, 16], "texture": "#0"},
				"south": {"uv": [16, 0, 6, 16], "texture": "#0"},
				"west": {"uv": [4, 0, 3, 16], "texture": "#0"},
				"up": {"uv": [6, 3, 16, 4], "texture": "#0"},
				"down": {"uv": [6, 3, 16, 4], "texture": "#0"}
			}
		},
		{
			"from": [8, 0, 11],
			"to": [16, 16, 12],
			"rotation": {"angle": 0, "axis": "y", "origin": [16, 0, 0]},
			"faces": {
				"north": {"uv": [16, 0, 8, 16], "texture": "#0"},
				"east": {"uv": [12, 0, 11, 16], "texture": "#0"},
				"south": {"uv": [16, 0, 8, 16], "texture": "#0"},
				"west": {"uv": [5, 0, 4, 16], "texture": "#0"},
				"up": {"uv": [8, 4, 16, 5], "texture": "#0"},
				"down": {"uv": [8, 4, 16, 5], "texture": "#0"}
			}
		},
		{
			"from": [10, 0, 10],
			"to": [16, 16, 11],
			"rotation": {"angle": 0, "axis": "y", "origin": [16, 0, 0]},
			"faces": {
				"north": {"uv": [16, 0, 10, 16], "texture": "#0"},
				"east": {"uv": [11, 0, 10, 16], "texture": "#0"},
				"south": {"uv": [16, 0, 10, 16], "texture": "#0"},
				"west": {"uv": [6, 0, 5, 16], "texture": "#0"},
				"up": {"uv": [10, 5, 16, 6], "texture": "#0"},
				"down": {"uv": [10, 5, 16, 6], "texture": "#0"}
			}
		},
		{
			"from": [12, 0, 9],
			"to": [16, 16, 10],
			"rotation": {"angle": 0, "axis": "y", "origin": [16, 0, 0]},
			"faces": {
				"north": {"uv": [16, 0, 12, 16], "texture": "#0"},
				"east": {"uv": [10, 0, 9, 16], "texture": "#0"},
				"south": {"uv": [16, 0, 12, 16], "texture": "#0"},
				"west": {"uv": [7, 0, 6, 16], "texture": "#0"},
				"up": {"uv": [12, 6, 16, 7], "texture": "#0"},
				"down": {"uv": [12, 6, 16, 7], "texture": "#0"}
			}
		},
		{
			"from": [14, 0, 8],
			"to": [16, 16, 9],
			"rotation": {"angle": 0, "axis": "y", "origin": [16, 0, 0]},
			"faces": {
				"north": {"uv": [16, 0, 14, 16], "texture": "#0"},
				"east": {"uv": [9, 0, 8, 16], "texture": "#0"},
				"south": {"uv": [16, 0, 14, 16], "texture": "#0"},
				"west": {"uv": [8, 0, 7, 16], "texture": "#0"},
				"up": {"uv": [14, 7, 16, 8], "texture": "#0"},
				"down": {"uv": [14, 7, 16, 8], "texture": "#0"}
			}
		}
	],
	"display": {
		"thirdperson_righthand": {
			"translation": [0, 0, -1],
			"scale": [0.18, 0.18, 0.18]
		},
		"thirdperson_lefthand": {
			"translation": [0, 0, -1],
			"scale": [0.18, 0.18, 0.18]
		},
		"firstperson_righthand": {
			"translation": [1.75, 0, 0],
			"scale": [0.32, 0.32, 0.32]
		},
		"firstperson_lefthand": {
			"translation": [1.75, 0, 0],
			"scale": [0.32, 0.32, 0.32]
		},
		"ground": {
			"translation": [0, -1.25, 0],
			"scale": [0.29, 0.29, 0.29]
		},
		"gui": {
			"rotation": [45, -45, 0],
			"scale": [0.55, 0.55, 0.55]
		},
		"fixed": {
			"translation": [0, 0, -4],
			"scale": [0.5, 0.5, 0.5]
		}
	}
}