{
	"credit": "Made with Blockbench",
	"texture_size": [64, 64],
	"textures": {
		"0": "gift_opening_3",
		"particle": "gift_opening_3"
	},
	"elements": [
		{
			"from": [0, 0, 0],
			"to": [16, 16, 16],
			"faces": {
				"north": {"uv": [0, 0, 4, 4], "texture": "#0"},
				"east": {"uv": [0, 4, 4, 8], "texture": "#0"},
				"south": {"uv": [4, 0, 8, 4], "texture": "#0"},
				"west": {"uv": [4, 4, 8, 8], "texture": "#0"},
				"up": {"uv": [4, 12, 0, 8], "texture": "#0"},
				"down": {"uv": [12, 0, 8, 4], "texture": "#0"}
			}
		},
		{
			"from": [-16, 0, 6],
			"to": [0, 0, 10],
			"rotation": {"angle": -45, "axis": "z", "origin": [0, 0, 0]},
			"faces": {
				"up": {"uv": [13, 0, 14, 4], "rotation": 270, "texture": "#0"},
				"down": {"uv": [13, 0, 14, 4], "rotation": 270, "texture": "#0"}
			}
		},
		{
			"from": [-16, 0, 6],
			"to": [-16, 6, 10],
			"rotation": {"angle": -45, "axis": "z", "origin": [0, 0, 0]},
			"faces": {
				"east": {"uv": [13, 0, 14, 1.5], "texture": "#0"},
				"west": {"uv": [13, 0, 14, 1.5], "texture": "#0"}
			}
		},
		{
			"from": [6, 16, 0],
			"to": [10, 16, 6],
			"rotation": {"angle": -45, "axis": "x", "origin": [0, 0, 0]},
			"faces": {
				"up": {"uv": [13, 0, 14, 1.5], "rotation": 180, "texture": "#0"},
				"down": {"uv": [13, 0, 14, 1.5], "texture": "#0"}
			}
		},
		{
			"from": [6, 0, 0],
			"to": [10, 16, 0],
			"rotation": {"angle": -45, "axis": "x", "origin": [0, 0, 0]},
			"faces": {
				"north": {"uv": [13, 0, 14, 4], "texture": "#0"},
				"south": {"uv": [13, 0, 14, 4], "texture": "#0"}
			}
		},
		{
			"from": [10.25, 28.25, 6],
			"to": [16.25, 28.25, 10],
			"rotation": {"angle": -45, "axis": "z", "origin": [1.25, 6.25, 0]},
			"faces": {
				"up": {"uv": [13, 0, 14, 1.5], "rotation": 270, "texture": "#0"},
				"down": {"uv": [13, 0, 14, 1.5], "rotation": 270, "texture": "#0"}
			}
		},
		{
			"from": [16.25, 12.25, 6],
			"to": [16.25, 28.25, 10],
			"rotation": {"angle": -45, "axis": "z", "origin": [1.25, 6.25, 0]},
			"faces": {
				"east": {"uv": [13, 0, 14, 4], "texture": "#0"},
				"west": {"uv": [13, 0, 14, 4], "texture": "#0"}
			}
		},
		{
			"from": [6, 27.5, 5.5],
			"to": [10, 27.5, 11.5],
			"rotation": {"angle": 45, "axis": "x", "origin": [0, 0, 0]},
			"faces": {
				"up": {"uv": [13, 0, 14, 1.5], "texture": "#0"},
				"down": {"uv": [13, 0, 14, 1.5], "rotation": 180, "texture": "#0"}
			}
		},
		{
			"from": [6, 11.5, 11.5],
			"to": [10, 27.5, 11.5],
			"rotation": {"angle": 45, "axis": "x", "origin": [0, 0, 0]},
			"faces": {
				"north": {"uv": [13, 0, 14, 4], "texture": "#0"},
				"south": {"uv": [13, 0, 14, 4], "texture": "#0"}
			}
		},
		{
			"from": [-11, 0.5, 0],
			"to": [0, 0.5, 16],
			"faces": {
				"up": {"uv": [12.5, 4, 9.75, 8], "texture": "#0"},
				"down": {"uv": [12.5, 4, 9.75, 8], "texture": "#0"}
			}
		},
		{
			"from": [16, 0.5, 0],
			"to": [27, 0.5, 16],
			"faces": {
				"up": {"uv": [9.75, 4, 12.5, 8], "texture": "#0"},
				"down": {"uv": [9.75, 4, 12.5, 8], "texture": "#0"}
			}
		},
		{
			"from": [0, 0.5, -11],
			"to": [16, 0.5, 0],
			"faces": {
				"up": {"uv": [9.75, 4, 12.5, 8], "rotation": 270, "texture": "#0"},
				"down": {"uv": [9.75, 4, 12.5, 8], "rotation": 90, "texture": "#0"}
			}
		},
		{
			"from": [0, 0.5, 16],
			"to": [16, 0.5, 27],
			"faces": {
				"up": {"uv": [12.5, 4, 9.75, 8], "rotation": 270, "texture": "#0"},
				"down": {"uv": [12.5, 4, 9.75, 8], "rotation": 90, "texture": "#0"}
			}
		}
	],
	"groups": [
		0,
		{
			"name": "Ribbon_opening_2",
			"origin": [0, 0, 0],
			"color": 0,
			"children": [1, 2, 3, 4, 5, 6, 7, 8]
		},
		{
			"name": "Paper",
			"origin": [0, 0, 0],
			"color": 0,
			"children": [9, 10, 11, 12]
		}
	]
}