{
	"credit": "Made with Blockbench",
	"textures": {
		"0": "block/stoplight_pole_pole",
		"1": "block/pedestrian_stoplight",
		"particle": "block/pedestrian_stoplight"
	},
	"elements": [
		{
			"from": [2, 0, 7],
			"to": [4, 16, 9],
			"faces": {
				"north": {"uv": [0, 0, 2, 16], "texture": "#0"},
				"east": {"uv": [2, 0, 4, 16], "texture": "#0"},
				"south": {"uv": [4, 0, 6, 16], "texture": "#0"},
				"west": {"uv": [6, 0, 8, 16], "texture": "#0"},
				"up": {"uv": [10, 2, 8, 0], "texture": "#0"},
				"down": {"uv": [10, 2, 8, 4], "texture": "#0"}
			}
		},
		{
			"from": [4, 8, 5],
			"to": [7, 14, 11],
			"faces": {
				"north": {"uv": [6, 6, 9, 12], "texture": "#1"},
				"east": {"uv": [0, 0, 6, 6], "texture": "#1"},
				"south": {"uv": [6, 0, 9, 6], "texture": "#1"},
				"west": {"uv": [0, 6, 6, 12], "texture": "#1"},
				"up": {"uv": [15, 3, 9, 0], "rotation": 90, "texture": "#1"},
				"down": {"uv": [15, 3, 9, 6], "rotation": 270, "texture": "#1"}
			}
		},
		{
			"from": [7, 8, 5],
			"to": [9, 14, 5],
			"faces": {
				"north": {"uv": [9, 12, 15, 10], "rotation": 90, "texture": "#1"},
				"south": {"uv": [9, 12, 15, 14], "rotation": 90, "texture": "#1"}
			}
		},
		{
			"from": [7, 8, 11],
			"to": [9, 14, 11],
			"faces": {
				"north": {"uv": [9, 14, 15, 12], "rotation": 90, "texture": "#1"},
				"south": {"uv": [9, 10, 15, 12], "rotation": 90, "texture": "#1"}
			}
		},
		{
			"from": [7, 14, 5],
			"to": [9, 14, 11],
			"faces": {
				"up": {"uv": [15, 8, 9, 6], "rotation": 90, "texture": "#1"},
				"down": {"uv": [15, 8, 9, 10], "rotation": 270, "texture": "#1"}
			}
		},
		{
			"from": [2, -11, 6.75],
			"to": [4, -7, 6.75],
			"faces": {
				"north": {"uv": [0, 12, 2, 16], "texture": "#1"},
				"south": {"uv": [0, 12, 2, 16], "texture": "#1"}
			}
		},
		{
			"from": [2.5, -10.25, 6.25],
			"to": [3.5, -9.25, 7.25],
			"faces": {
				"north": {"uv": [2, 12, 3, 13], "texture": "#1"},
				"east": {"uv": [2, 12, 3, 13], "texture": "#1"},
				"south": {"uv": [2, 12, 3, 13], "texture": "#1"},
				"west": {"uv": [2, 12, 3, 13], "texture": "#1"},
				"up": {"uv": [2, 12, 3, 13], "rotation": 270, "texture": "#1"},
				"down": {"uv": [2, 12, 3, 13], "rotation": 90, "texture": "#1"}
			}
		}
	],
	"display": {
		"thirdperson_righthand": {
			"rotation": [0, 90, 0],
			"translation": [-1, 2.25, -0.75],
			"scale": [0.32, 0.32, 0.32]
		},
		"thirdperson_lefthand": {
			"rotation": [0, -90, 0],
			"translation": [-1, 2.25, -0.75],
			"scale": [0.32, 0.32, 0.32]
		},
		"firstperson_righthand": {
			"rotation": [0, 90, 0],
			"translation": [0, 2, 0],
			"scale": [0.57, 0.57, 0.57]
		},
		"firstperson_lefthand": {
			"rotation": [0, -90, 0],
			"translation": [0, 2, 0],
			"scale": [0.57, 0.57, 0.57]
		},
		"ground": {
			"translation": [1.5, 0, 0],
			"scale": [0.57, 0.57, 0.57]
		},
		"gui": {
			"rotation": [45, -45, 0],
			"translation": [1, 0, 0],
			"scale": [0.61, 0.61, 0.61]
		},
		"head": {
			"rotation": [0, 90, 0],
			"translation": [0, 14, -5]
		},
		"fixed": {
			"rotation": [0, 90, 0],
			"translation": [0, 0, -4],
			"scale": [0.66, 0.66, 0.66]
		}
	}
}